/home/sarah/watchtower/odd/2013/2013683/KL2013683.txt
/home/sarah/watchtower/odd/2013/2013169/KL2013169.txt
/home/sarah/watchtower/odd/2013/2013280/KL2013280.txt
/home/sarah/watchtower/odd/2013/2013922/KL2013922.txt
/home/sarah/watchtower/odd/2013/2013450/KL2013450.txt
/home/sarah/watchtower/odd/2013/2013160/KL2013160.txt
/home/sarah/watchtower/odd/2013/2013281/KL2013281.txt
/home/sarah/watchtower/odd/2013/2013366/KL2013366.txt
/home/sarah/watchtower/odd/2013/2013684/KL2013684.txt
/home/sarah/watchtower/odd/2013/2013605/KL2013605.txt
/home/sarah/watchtower/odd/2013/2013640/KL2013640.txt
/home/sarah/watchtower/odd/2013/2013006/KL2013006.txt
/home/sarah/watchtower/odd/2013/2013569/KL2013569.txt
/home/sarah/watchtower/odd/2013/2013167/KL2013167.txt
/home/sarah/watchtower/odd/2013/2013400/KL2013400.txt
/home/sarah/watchtower/odd/2013/2013604/KL2013604.txt
/home/sarah/watchtower/odd/2013/2013364/KL2013364.txt
/home/sarah/watchtower/odd/2013/2013804/KL2013804.txt
/home/sarah/watchtower/odd/2013/2013129/KL2013129.txt
/home/sarah/watchtower/odd/2013/2013123/KL2013123.txt
/home/sarah/watchtower/odd/2013/2013841/KL2013841.txt
/home/sarah/watchtower/odd/2013/2013326/KL2013326.txt
/home/sarah/watchtower/odd/2013/2013926/KL2013926.txt
/home/sarah/watchtower/odd/2013/2013560/KL2013560.txt
/home/sarah/watchtower/odd/2013/2013204/KL2013204.txt
/home/sarah/watchtower/odd/2013/2013727/KL2013727.txt
/home/sarah/watchtower/odd/2013/2013205/KL2013205.txt
/home/sarah/watchtower/odd/2013/2013764/KL2013764.txt
/home/sarah/watchtower/odd/2013/2013760/KL2013760.txt
/home/sarah/watchtower/odd/2013/2013849/KL2013849.txt
/home/sarah/watchtower/odd/2013/2013284/KL2013284.txt
/home/sarah/watchtower/odd/2013/2013122/KL2013122.txt
/home/sarah/watchtower/odd/2013/2013800/KL2013800.txt
/home/sarah/watchtower/odd/2013/2013920/KL2013920.txt
/home/sarah/watchtower/odd/2013/2013440/KL2013440.txt
/home/sarah/watchtower/odd/2013/2013163/KL2013163.txt
/home/sarah/watchtower/odd/2013/2013600/KL2013600.txt
/home/sarah/watchtower/odd/2013/2013285/KL2013285.txt
/home/sarah/watchtower/odd/2013/2013044/KL2013044.txt
/home/sarah/watchtower/odd/2013/2013801/KL2013801.txt
/home/sarah/watchtower/odd/2013/2013089/KL2013089.txt
/home/sarah/watchtower/odd/2013/2013083/KL2013083.txt
/home/sarah/watchtower/odd/2013/2013642/KL2013642.txt
/home/sarah/watchtower/odd/2013/2013367/KL2013367.txt
/home/sarah/watchtower/odd/2013/2013043/KL2013043.txt
/home/sarah/watchtower/odd/2013/2013925/KL2013925.txt
/home/sarah/watchtower/odd/2013/2013201/KL2013201.txt
/home/sarah/watchtower/odd/2013/2013000/KL2013000.txt
/home/sarah/watchtower/odd/2013/2013641/KL2013641.txt
/home/sarah/watchtower/odd/2013/2013803/KL2013803.txt
/home/sarah/watchtower/odd/2013/2013125/KL2013125.txt
/home/sarah/watchtower/odd/2013/2013368/KL2013368.txt
/home/sarah/watchtower/odd/2013/2013442/KL2013442.txt
/home/sarah/watchtower/odd/2013/2013602/KL2013602.txt
/home/sarah/watchtower/odd/2013/2013681/KL2013681.txt
/home/sarah/watchtower/odd/2013/2013844/KL2013844.txt
/home/sarah/watchtower/odd/2013/2013402/KL2013402.txt
/home/sarah/watchtower/odd/2013/2013081/KL2013081.txt
/home/sarah/watchtower/odd/2013/2013288/KL2013288.txt
/home/sarah/watchtower/odd/2013/2013847/KL2013847.txt
/home/sarah/watchtower/odd/2013/2013805/KL2013805.txt
/home/sarah/watchtower/odd/2013/2013731/KL2013731.txt
/home/sarah/watchtower/odd/2013/2013248/KL2013248.txt
/home/sarah/watchtower/odd/2013/2013401/KL2013401.txt
/home/sarah/watchtower/odd/2013/2013686/KL2013686.txt
/home/sarah/watchtower/odd/2013/2013403/KL2013403.txt
/home/sarah/watchtower/odd/2013/2013124/KL2013124.txt
/home/sarah/watchtower/odd/2013/2013607/KL2013607.txt
/home/sarah/watchtower/odd/2013/2013047/KL2013047.txt
/home/sarah/watchtower/odd/2013/2013040/KL2013040.txt
/home/sarah/watchtower/odd/2013/2013363/KL2013363.txt
/home/sarah/watchtower/odd/2013/2013884/KL2013884.txt
/home/sarah/watchtower/odd/2013/2013005/KL2013005.txt
/home/sarah/watchtower/odd/2013/2013128/KL2013128.txt
/home/sarah/watchtower/odd/2013/2013520/KL2013520.txt
/home/sarah/watchtower/odd/2013/2013002/KL2013002.txt
/home/sarah/watchtower/odd/2013/2013606/KL2013606.txt
/home/sarah/watchtower/odd/2013/2013842/KL2013842.txt
/home/sarah/watchtower/odd/2013/2013561/KL2013561.txt
/home/sarah/watchtower/odd/2013/2013521/KL2013521.txt
/home/sarah/watchtower/odd/2013/2013443/KL2013443.txt
/home/sarah/watchtower/odd/2013/2013843/KL2013843.txt
/home/sarah/watchtower/odd/2013/2013203/KL2013203.txt
/home/sarah/watchtower/odd/2013/2013766/KL2013766.txt
/home/sarah/watchtower/odd/2013/2013763/KL2013763.txt
/home/sarah/watchtower/odd/2013/2013646/KL2013646.txt
/home/sarah/watchtower/odd/2013/2013282/KL2013282.txt
/home/sarah/watchtower/odd/2013/2013084/KL2013084.txt
/home/sarah/watchtower/odd/2013/2013809/KL2013809.txt
/home/sarah/watchtower/odd/2013/2013768/KL2013768.txt
/home/sarah/watchtower/odd/2013/2013085/KL2013085.txt
/home/sarah/watchtower/odd/2013/2013007/KL2013007.txt
/home/sarah/watchtower/odd/2013/2013846/KL2013846.txt
/home/sarah/watchtower/odd/2013/2013447/KL2013447.txt
/home/sarah/watchtower/odd/2013/2013048/KL2013048.txt
/home/sarah/watchtower/odd/2013/2013810/KL2013810.txt
/home/sarah/watchtower/odd/2013/2013848/KL2013848.txt
/home/sarah/watchtower/odd/2013/2013164/KL2013164.txt
/home/sarah/watchtower/odd/2013/2013206/KL2013206.txt
/home/sarah/watchtower/odd/2013/2013845/KL2013845.txt
/home/sarah/watchtower/odd/2013/2013086/KL2013086.txt
/home/sarah/watchtower/odd/2013/2013446/KL2013446.txt
/home/sarah/watchtower/odd/2013/2013761/KL2013761.txt
/home/sarah/watchtower/odd/2013/2013246/KL2013246.txt
/home/sarah/watchtower/odd/2013/2013126/KL2013126.txt
/home/sarah/watchtower/odd/2013/2013208/KL2013208.txt
/home/sarah/watchtower/odd/2013/2013209/KL2013209.txt
/home/sarah/watchtower/odd/2013/2013808/KL2013808.txt
/home/sarah/watchtower/odd/2013/2013767/KL2013767.txt
/home/sarah/watchtower/odd/2013/2013566/KL2013566.txt
/home/sarah/watchtower/odd/2013/2013802/KL2013802.txt
/home/sarah/watchtower/odd/2013/2013448/KL2013448.txt
/home/sarah/watchtower/odd/2013/2013806/KL2013806.txt
/home/sarah/watchtower/odd/2013/2013088/KL2013088.txt
/home/sarah/watchtower/odd/2013/2013127/KL2013127.txt
/home/sarah/watchtower/odd/2013/2013682/KL2013682.txt
/home/sarah/watchtower/odd/2013/2013488/KL2013488.txt
/home/sarah/watchtower/odd/2013/2013369/KL2013369.txt
/home/sarah/watchtower/odd/2013/2013200/KL2013200.txt
/home/sarah/watchtower/odd/2013/2013765/KL2013765.txt
/home/sarah/watchtower/odd/2013/2013045/KL2013045.txt
/home/sarah/watchtower/odd/2013/2013001/KL2013001.txt
/home/sarah/watchtower/odd/2013/2013648/KL2013648.txt
/home/sarah/watchtower/odd/2013/2013445/KL2013445.txt
/home/sarah/watchtower/odd/2013/2013528/KL2013528.txt
/home/sarah/watchtower/odd/2013/2013004/KL2013004.txt
/home/sarah/watchtower/odd/2013/2013564/KL2013564.txt
/home/sarah/watchtower/odd/2013/2013562/KL2013562.txt
/home/sarah/watchtower/odd/2013/2013927/KL2013927.txt
/home/sarah/watchtower/odd/2013/2013924/KL2013924.txt
/home/sarah/watchtower/odd/2013/2013644/KL2013644.txt
/home/sarah/watchtower/odd/2013/2013287/KL2013287.txt
/home/sarah/watchtower/odd/2013/2013688/KL2013688.txt
/home/sarah/watchtower/odd/2013/2013041/KL2013041.txt
/home/sarah/watchtower/odd/2013/2013643/KL2013643.txt
/home/sarah/watchtower/odd/2013/2013120/KL2013120.txt
/home/sarah/watchtower/odd/2013/2013283/KL2013283.txt
/home/sarah/watchtower/odd/2013/2013923/KL2013923.txt
/home/sarah/watchtower/odd/2013/2013361/KL2013361.txt
/home/sarah/watchtower/odd/2013/2013161/KL2013161.txt
/home/sarah/watchtower/odd/2013/2013365/KL2013365.txt
/home/sarah/watchtower/odd/2013/2013527/KL2013527.txt
/home/sarah/watchtower/odd/2013/2013162/KL2013162.txt
/home/sarah/watchtower/odd/2013/2013046/KL2013046.txt
/home/sarah/watchtower/odd/2013/2013121/KL2013121.txt
/home/sarah/watchtower/odd/2013/2013082/KL2013082.txt
/home/sarah/watchtower/odd/2013/2013680/KL2013680.txt
/home/sarah/watchtower/odd/2013/2013601/KL2013601.txt
/home/sarah/watchtower/odd/2013/2013687/KL2013687.txt
/home/sarah/watchtower/odd/2013/2013202/KL2013202.txt
/home/sarah/watchtower/odd/2013/2013921/KL2013921.txt
/home/sarah/watchtower/odd/2013/2013360/KL2013360.txt
/home/sarah/watchtower/odd/2013/2013603/KL2013603.txt
/home/sarah/watchtower/odd/2013/2013407/KL2013407.txt
/home/sarah/watchtower/odd/2013/2013444/KL2013444.txt
/home/sarah/watchtower/odd/2013/2013003/KL2013003.txt
/home/sarah/watchtower/odd/2013/2013609/KL2013609.txt
/home/sarah/watchtower/odd/2013/2013441/KL2013441.txt
/home/sarah/watchtower/odd/2013/2013762/KL2013762.txt
/home/sarah/watchtower/odd/2013/2013362/KL2013362.txt
/home/sarah/watchtower/odd/2013/2013608/KL2013608.txt
/home/sarah/watchtower/odd/2013/2013327/KL2013327.txt
/home/sarah/watchtower/odd/2013/2013685/KL2013685.txt
/home/sarah/watchtower/odd/2013/2013042/KL2013042.txt
/home/sarah/watchtower/odd/2013/2013087/KL2013087.txt
/home/sarah/watchtower/odd/2013/2013840/KL2013840.txt
/home/sarah/watchtower/odd/2013/2013286/KL2013286.txt
/home/sarah/watchtower/odd/2015/2015805/KL2015805.txt
/home/sarah/watchtower/odd/2015/2015642/KL2015642.txt
/home/sarah/watchtower/odd/2015/2015003/KL2015003.txt
/home/sarah/watchtower/odd/2015/2015808/KL2015808.txt
/home/sarah/watchtower/odd/2015/2015485/KL2015485.txt
/home/sarah/watchtower/odd/2015/2015651/KL2015651.txt
/home/sarah/watchtower/odd/2015/2015729/KL2015729.txt
/home/sarah/watchtower/odd/2015/2015648/KL2015648.txt
/home/sarah/watchtower/odd/2015/2015244/KL2015244.txt
/home/sarah/watchtower/odd/2015/2015644/KL2015644.txt
/home/sarah/watchtower/odd/2015/2015002/KL2015002.txt
/home/sarah/watchtower/odd/2015/2015480/KL2015480.txt
/home/sarah/watchtower/odd/2015/2015645/KL2015645.txt
/home/sarah/watchtower/odd/2015/2015403/KL2015403.txt
/home/sarah/watchtower/odd/2015/2015567/KL2015567.txt
/home/sarah/watchtower/odd/2015/2015005/KL2015005.txt
/home/sarah/watchtower/odd/2015/2015400/KL2015400.txt
/home/sarah/watchtower/odd/2015/2015484/KL2015484.txt
/home/sarah/watchtower/odd/2015/2015240/KL2015240.txt
/home/sarah/watchtower/odd/2015/2015647/KL2015647.txt
/home/sarah/watchtower/odd/2015/2015646/KL2015646.txt
/home/sarah/watchtower/odd/2015/2015243/KL2015243.txt
/home/sarah/watchtower/odd/2015/2015407/KL2015407.txt
/home/sarah/watchtower/odd/2015/2015406/KL2015406.txt
/home/sarah/watchtower/odd/2015/2015000/KL2015000.txt
/home/sarah/watchtower/odd/2015/2015566/KL2015566.txt
/home/sarah/watchtower/odd/2015/2015007/KL2015007.txt
/home/sarah/watchtower/odd/2015/2015245/KL2015245.txt
/home/sarah/watchtower/odd/2015/2015809/KL2015809.txt
/home/sarah/watchtower/odd/2015/2015242/KL2015242.txt
/home/sarah/watchtower/odd/2015/2015326/KL2015326.txt
/home/sarah/watchtower/odd/2015/2015482/KL2015482.txt
/home/sarah/watchtower/odd/2015/2015402/KL2015402.txt
/home/sarah/watchtower/odd/2015/2015804/KL2015804.txt
/home/sarah/watchtower/odd/2015/2015327/KL2015327.txt
/home/sarah/watchtower/odd/2015/2015802/KL2015802.txt
/home/sarah/watchtower/odd/2015/2015085/KL2015085.txt
/home/sarah/watchtower/odd/2015/2015247/KL2015247.txt
/home/sarah/watchtower/odd/2015/2015806/KL2015806.txt
/home/sarah/watchtower/odd/2015/2015807/KL2015807.txt
/home/sarah/watchtower/odd/2015/2015483/KL2015483.txt
/home/sarah/watchtower/odd/2015/2015734/KL2015734.txt
/home/sarah/watchtower/odd/2015/2015167/KL2015167.txt
/home/sarah/watchtower/odd/2015/2015008/KL2015008.txt
/home/sarah/watchtower/odd/2015/2015649/KL2015649.txt
/home/sarah/watchtower/odd/2015/2015486/KL2015486.txt
/home/sarah/watchtower/odd/2003/010503/2003328/KL2003328.txt
/home/sarah/watchtower/odd/2003/010503/2003320/KL2003320.txt
/home/sarah/watchtower/odd/2003/010503/2003325/KL2003325.txt
/home/sarah/watchtower/odd/2003/010503/2003323/KL2003323.txt
/home/sarah/watchtower/odd/2003/010503/2003321/KL2003321.txt
/home/sarah/watchtower/odd/2003/010503/2003329/KL2003329.txt
/home/sarah/watchtower/odd/2003/011203/2003880/KL2003880.txt
/home/sarah/watchtower/odd/2003/011203/2003881/KL2003881.txt
/home/sarah/watchtower/odd/2003/011203/2003884/KL2003884.txt
/home/sarah/watchtower/odd/2003/011203/2003882/KL2003882.txt
/home/sarah/watchtower/odd/2003/011203/2003883/KL2003883.txt
/home/sarah/watchtower/odd/2003/150803/2003601/KL2003601.txt
/home/sarah/watchtower/odd/2003/150803/2003604/KL2003604.txt
/home/sarah/watchtower/odd/2003/150803/2003609/KL2003609.txt
/home/sarah/watchtower/odd/2003/150803/2003603/KL2003603.txt
/home/sarah/watchtower/odd/2003/150803/2003600/KL2003600.txt
/home/sarah/watchtower/odd/2003/150803/2003602/KL2003602.txt
/home/sarah/watchtower/odd/2003/150803/2003606/KL2003606.txt
/home/sarah/watchtower/odd/2003/010203/2003087/KL2003087.txt
/home/sarah/watchtower/odd/2003/010203/2003088/KL2003088.txt
/home/sarah/watchtower/odd/2003/010203/2003083/KL2003083.txt
/home/sarah/watchtower/odd/2003/010203/2003084/KL2003084.txt
/home/sarah/watchtower/odd/2003/150203/2003121/KL2003121.txt
/home/sarah/watchtower/odd/2003/150203/2003124/KL2003124.txt
/home/sarah/watchtower/odd/2003/150203/2003120/KL2003120.txt
/home/sarah/watchtower/odd/2003/150203/2003123/KL2003123.txt
/home/sarah/watchtower/odd/2003/150403/2003280/KL2003280.txt
/home/sarah/watchtower/odd/2003/150403/2003284/KL2003284.txt
/home/sarah/watchtower/odd/2003/150403/2003281/KL2003281.txt
/home/sarah/watchtower/odd/2003/150403/2003283/KL2003283.txt
/home/sarah/watchtower/odd/2003/150603/2003440/KL2003440.txt
/home/sarah/watchtower/odd/2003/150603/2003443/KL2003443.txt
/home/sarah/watchtower/odd/2003/150603/2003444/KL2003444.txt
/home/sarah/watchtower/odd/2003/150603/2003448/KL2003448.txt
/home/sarah/watchtower/odd/2003/150603/2003447/KL2003447.txt
/home/sarah/watchtower/odd/2003/150603/2003441/KL2003441.txt
/home/sarah/watchtower/odd/2003/150103/2003043/KL2003043.txt
/home/sarah/watchtower/odd/2003/150103/2003044/KL2003044.txt
/home/sarah/watchtower/odd/2003/150103/2003048/KL2003048.txt
/home/sarah/watchtower/odd/2003/150103/2003042/KL2003042.txt
/home/sarah/watchtower/odd/2003/011103/2003802/KL2003802.txt
/home/sarah/watchtower/odd/2003/011103/2003807/KL2003807.txt
/home/sarah/watchtower/odd/2003/011103/2003803/KL2003803.txt
/home/sarah/watchtower/odd/2003/150703/2003521/KL2003521.txt
/home/sarah/watchtower/odd/2003/150703/2003523/KL2003523.txt
/home/sarah/watchtower/odd/2003/150703/2003522/KL2003522.txt
/home/sarah/watchtower/odd/2003/150703/2003528/KL2003528.txt
/home/sarah/watchtower/odd/2003/150703/2003520/KL2003520.txt
/home/sarah/watchtower/odd/2003/150703/2003524/KL2003524.txt
/home/sarah/watchtower/odd/2003/010803/2003564/KL2003564.txt
/home/sarah/watchtower/odd/2003/010803/2003562/KL2003562.txt
/home/sarah/watchtower/odd/2003/010803/2003569/KL2003569.txt
/home/sarah/watchtower/odd/2003/010803/2003565/KL2003565.txt
/home/sarah/watchtower/odd/2003/010803/2003563/KL2003563.txt
/home/sarah/watchtower/odd/2003/010803/2003566/KL2003566.txt
/home/sarah/watchtower/odd/2003/010403/2003244/KL2003244.txt
/home/sarah/watchtower/odd/2003/010403/2003242/KL2003242.txt
/home/sarah/watchtower/odd/2003/010403/2003245/KL2003245.txt
/home/sarah/watchtower/odd/2003/151103/2003840/KL2003840.txt
/home/sarah/watchtower/odd/2003/151103/2003844/KL2003844.txt
/home/sarah/watchtower/odd/2003/151103/2003841/KL2003841.txt
/home/sarah/watchtower/odd/2003/151103/2003847/KL2003847.txt
/home/sarah/watchtower/odd/2003/151103/2003842/KL2003842.txt
/home/sarah/watchtower/odd/2003/151103/2003843/KL2003843.txt
/home/sarah/watchtower/odd/2003/151003/2003767/KL2003767.txt
/home/sarah/watchtower/odd/2003/150903/2003681/KL2003681.txt
/home/sarah/watchtower/odd/2003/150903/2003682/KL2003682.txt
/home/sarah/watchtower/odd/2003/150903/2003683/KL2003683.txt
/home/sarah/watchtower/odd/2003/150903/2003688/KL2003688.txt
/home/sarah/watchtower/odd/2003/150903/2003680/KL2003680.txt
/home/sarah/watchtower/odd/2003/150903/2003684/KL2003684.txt
/home/sarah/watchtower/odd/2003/011003/2003722/KL2003722.txt
/home/sarah/watchtower/odd/2003/011003/2003720/KL2003720.txt
/home/sarah/watchtower/odd/2003/011003/2003721/KL2003721.txt
/home/sarah/watchtower/odd/2003/011003/2003723/KL2003723.txt
/home/sarah/watchtower/odd/2003/011003/2003724/KL2003724.txt
/home/sarah/watchtower/odd/2003/010603/2003408/KL2003408.txt
/home/sarah/watchtower/odd/2003/010603/2003403/KL2003403.txt
/home/sarah/watchtower/odd/2003/010603/2003404/KL2003404.txt
/home/sarah/watchtower/odd/2003/010703/2003483/KL2003483.txt
/home/sarah/watchtower/odd/2003/010703/2003481/KL2003481.txt
/home/sarah/watchtower/odd/2003/010703/2003482/KL2003482.txt
/home/sarah/watchtower/odd/2003/010703/2003480/KL2003480.txt
/home/sarah/watchtower/odd/2003/010303/2003166/KL2003166.txt
/home/sarah/watchtower/odd/2003/010303/2003163/KL2003163.txt
/home/sarah/watchtower/odd/2003/010303/2003161/KL2003161.txt
/home/sarah/watchtower/odd/2003/010303/2003162/KL2003162.txt
/home/sarah/watchtower/odd/2003/010303/2003160/KL2003160.txt
/home/sarah/watchtower/odd/2003/010903/2003647/KL2003647.txt
/home/sarah/watchtower/odd/2003/010903/2003642/KL2003642.txt
/home/sarah/watchtower/odd/2003/010903/2003643/KL2003643.txt
/home/sarah/watchtower/odd/2003/151203/2003923/KL2003923.txt
/home/sarah/watchtower/odd/2003/151203/2003920/KL2003920.txt
/home/sarah/watchtower/odd/2003/151203/2003921/KL2003921.txt
/home/sarah/watchtower/odd/2003/151203/2003924/KL2003924.txt
/home/sarah/watchtower/odd/2003/150303/2003204/KL2003204.txt
/home/sarah/watchtower/odd/2003/150303/2003205/KL2003205.txt
/home/sarah/watchtower/odd/2003/150303/2003202/KL2003202.txt
/home/sarah/watchtower/odd/2003/150303/2003200/KL2003200.txt
/home/sarah/watchtower/odd/2003/150303/2003201/KL2003201.txt
/home/sarah/watchtower/odd/2003/150503/2003364/KL2003364.txt
/home/sarah/watchtower/odd/2003/150503/2003369/KL2003369.txt
/home/sarah/watchtower/odd/2003/150503/2003362/KL2003362.txt
/home/sarah/watchtower/odd/2003/150503/2003363/KL2003363.txt
/home/sarah/watchtower/odd/2001/2001084/KL2001084.txt
/home/sarah/watchtower/odd/2001/2001048/KL2001048.txt
/home/sarah/watchtower/odd/2001/2001402/KL2001402.txt
/home/sarah/watchtower/odd/2001/2001647/KL2001647.txt
/home/sarah/watchtower/odd/2001/2001161/KL2001161.txt
/home/sarah/watchtower/odd/2001/2001642/KL2001642.txt
/home/sarah/watchtower/odd/2001/2001484/KL2001484.txt
/home/sarah/watchtower/odd/2001/2001720/KL2001720.txt
/home/sarah/watchtower/odd/2001/2001681/KL2001681.txt
/home/sarah/watchtower/odd/2001/2001444/KL2001444.txt
/home/sarah/watchtower/odd/2001/2001842/KL2001842.txt
/home/sarah/watchtower/odd/2001/2001606/KL2001606.txt
/home/sarah/watchtower/odd/2001/2001485/KL2001485.txt
/home/sarah/watchtower/odd/2001/2001001/KL2001001.txt
/home/sarah/watchtower/odd/2001/2001530/KL2001530.txt
/home/sarah/watchtower/odd/2001/2001000/KL2001000.txt
/home/sarah/watchtower/odd/2001/2001765/KL2001765.txt
/home/sarah/watchtower/odd/2001/2001848/KL2001848.txt
/home/sarah/watchtower/odd/2001/2001200/KL2001200.txt
/home/sarah/watchtower/odd/2001/2001680/KL2001680.txt
/home/sarah/watchtower/odd/2001/2001764/KL2001764.txt
/home/sarah/watchtower/odd/2001/2001201/KL2001201.txt
/home/sarah/watchtower/odd/2001/2001521/KL2001521.txt
/home/sarah/watchtower/odd/2001/2001365/KL2001365.txt
/home/sarah/watchtower/odd/2001/2001241/KL2001241.txt
/home/sarah/watchtower/odd/2001/2001601/KL2001601.txt
/home/sarah/watchtower/odd/2001/2001685/KL2001685.txt
/home/sarah/watchtower/odd/2001/2001723/KL2001723.txt
/home/sarah/watchtower/odd/2001/2001762/KL2001762.txt
/home/sarah/watchtower/odd/2001/2001721/KL2001721.txt
/home/sarah/watchtower/odd/2001/2001041/KL2001041.txt
/home/sarah/watchtower/odd/2001/2001801/KL2001801.txt
/home/sarah/watchtower/odd/2001/2001363/KL2001363.txt
/home/sarah/watchtower/odd/2001/2001085/KL2001085.txt
/home/sarah/watchtower/odd/2001/2001408/KL2001408.txt
/home/sarah/watchtower/odd/2001/2001049/KL2001049.txt
/home/sarah/watchtower/odd/2001/2001281/KL2001281.txt
/home/sarah/watchtower/odd/2001/2001367/KL2001367.txt
/home/sarah/watchtower/odd/2001/2001083/KL2001083.txt
/home/sarah/watchtower/odd/2001/2001686/KL2001686.txt
/home/sarah/watchtower/odd/2001/2001849/KL2001849.txt
/home/sarah/watchtower/odd/2001/2001280/KL2001280.txt
/home/sarah/watchtower/odd/2001/2001360/KL2001360.txt
/home/sarah/watchtower/odd/2001/2001364/KL2001364.txt
/home/sarah/watchtower/odd/2001/2001284/KL2001284.txt
/home/sarah/watchtower/odd/2001/2001800/KL2001800.txt
/home/sarah/watchtower/odd/2001/2001050/KL2001050.txt
/home/sarah/watchtower/odd/2001/2001563/KL2001563.txt
/home/sarah/watchtower/odd/2001/2001806/KL2001806.txt
/home/sarah/watchtower/odd/2001/2001644/KL2001644.txt
/home/sarah/watchtower/odd/2001/2001160/KL2001160.txt
/home/sarah/watchtower/odd/2001/2001443/KL2001443.txt
/home/sarah/watchtower/odd/2001/2001162/KL2001162.txt
/home/sarah/watchtower/odd/2001/2001525/KL2001525.txt
/home/sarah/watchtower/odd/2001/2001204/KL2001204.txt
/home/sarah/watchtower/odd/2001/2001440/KL2001440.txt
/home/sarah/watchtower/odd/2001/2001441/KL2001441.txt
/home/sarah/watchtower/odd/2001/2001922/KL2001922.txt
/home/sarah/watchtower/odd/2001/2001005/KL2001005.txt
/home/sarah/watchtower/odd/2001/2001526/KL2001526.txt
/home/sarah/watchtower/odd/2001/2001052/KL2001052.txt
/home/sarah/watchtower/odd/2001/2001923/KL2001923.txt
/home/sarah/watchtower/odd/2001/2001086/KL2001086.txt
/home/sarah/watchtower/odd/2001/2001724/KL2001724.txt
/home/sarah/watchtower/odd/2001/2001565/KL2001565.txt
/home/sarah/watchtower/odd/2001/2001682/KL2001682.txt
/home/sarah/watchtower/odd/2001/2001600/KL2001600.txt
/home/sarah/watchtower/odd/2001/2001240/KL2001240.txt
/home/sarah/watchtower/odd/2001/2001725/KL2001725.txt
/home/sarah/watchtower/odd/2001/2001247/KL2001247.txt
/home/sarah/watchtower/odd/2001/2001004/KL2001004.txt
/home/sarah/watchtower/odd/2001/2001206/KL2001206.txt
/home/sarah/watchtower/odd/2001/2001082/KL2001082.txt
/home/sarah/watchtower/odd/2001/2001688/KL2001688.txt
/home/sarah/watchtower/odd/2001/2001605/KL2001605.txt
/home/sarah/watchtower/odd/2001/2001604/KL2001604.txt
/home/sarah/watchtower/odd/2001/2001608/KL2001608.txt
/home/sarah/watchtower/odd/2001/2001165/KL2001165.txt
/home/sarah/watchtower/odd/2001/2001042/KL2001042.txt
/home/sarah/watchtower/odd/2001/2001562/KL2001562.txt
/home/sarah/watchtower/odd/2001/2001520/KL2001520.txt
/home/sarah/watchtower/odd/2001/2001886/KL2001886.txt
/home/sarah/watchtower/odd/2001/2001361/KL2001361.txt
/home/sarah/watchtower/odd/2001/2001407/KL2001407.txt
/home/sarah/watchtower/odd/2001/2001127/KL2001127.txt
/home/sarah/watchtower/odd/2001/2001245/KL2001245.txt
/home/sarah/watchtower/odd/2001/2001329/KL2001329.txt
/home/sarah/watchtower/odd/2001/2001051/KL2001051.txt
/home/sarah/watchtower/odd/2001/2001403/KL2001403.txt
/home/sarah/watchtower/odd/2001/2001722/KL2001722.txt
/home/sarah/watchtower/odd/2001/2001883/KL2001883.txt
/home/sarah/watchtower/odd/2001/2001040/KL2001040.txt
/home/sarah/watchtower/odd/2001/2001761/KL2001761.txt
/home/sarah/watchtower/odd/2001/2001567/KL2001567.txt
/home/sarah/watchtower/odd/2001/2001203/KL2001203.txt
/home/sarah/watchtower/odd/2001/2001285/KL2001285.txt
/home/sarah/watchtower/odd/2001/2001328/KL2001328.txt
/home/sarah/watchtower/odd/2001/2001760/KL2001760.txt
/home/sarah/watchtower/odd/2001/2001646/KL2001646.txt
/home/sarah/watchtower/odd/2005/2005801/KL2005801.txt
/home/sarah/watchtower/odd/2005/2005885/KL2005885.txt
/home/sarah/watchtower/odd/2005/2005926/KL2005926.txt
/home/sarah/watchtower/odd/2005/2005884/KL2005884.txt
/home/sarah/watchtower/odd/2005/150605/2005400/KL2005400.txt
/home/sarah/watchtower/odd/2005/150605/2005405/KL2005405.txt
/home/sarah/watchtower/odd/2005/150605/2005403/KL2005403.txt
/home/sarah/watchtower/odd/2005/150605/2005402/KL2005402.txt
/home/sarah/watchtower/odd/2005/150605/2005409/KL2005409.txt
/home/sarah/watchtower/odd/2005/150605/2005401/KL2005401.txt
/home/sarah/watchtower/odd/2005/150605/2005404/KL2005404.txt
/home/sarah/watchtower/odd/2005/150305/2005205/KL2005205.txt
/home/sarah/watchtower/odd/2005/150305/2005203/KL2005203.txt
/home/sarah/watchtower/odd/2005/150305/2005201/KL2005201.txt
/home/sarah/watchtower/odd/2005/150305/2005200/KL2005200.txt
/home/sarah/watchtower/odd/2005/150305/2005204/KL2005204.txt
/home/sarah/watchtower/odd/2005/2005925/KL2005925.txt
/home/sarah/watchtower/odd/2005/2005805/KL2005805.txt
/home/sarah/watchtower/odd/2005/010505/2005321/KL2005321.txt
/home/sarah/watchtower/odd/2005/010505/2005322/KL2005322.txt
/home/sarah/watchtower/odd/2005/010505/2005324/KL2005324.txt
/home/sarah/watchtower/odd/2005/010505/2005323/KL2005323.txt
/home/sarah/watchtower/odd/2005/010505/2005320/KL2005320.txt
/home/sarah/watchtower/odd/2005/2005800/KL2005800.txt
/home/sarah/watchtower/odd/2005/010605/2005365/KL2005365.txt
/home/sarah/watchtower/odd/2005/010605/2005367/KL2005367.txt
/home/sarah/watchtower/odd/2005/010605/2005366/KL2005366.txt
/home/sarah/watchtower/odd/2005/010605/2005363/KL2005363.txt
/home/sarah/watchtower/odd/2005/150905/2005680/KL2005680.txt
/home/sarah/watchtower/odd/2005/150905/2005681/KL2005681.txt
/home/sarah/watchtower/odd/2005/150905/2005685/KL2005685.txt
/home/sarah/watchtower/odd/2005/150905/2005686/KL2005686.txt
/home/sarah/watchtower/odd/2005/151005/2005765/KL2005765.txt
/home/sarah/watchtower/odd/2005/151005/2005766/KL2005766.txt
/home/sarah/watchtower/odd/2005/2005922/KL2005922.txt
/home/sarah/watchtower/odd/2005/010705/2005445/KL2005445.txt
/home/sarah/watchtower/odd/2005/010705/2005444/KL2005444.txt
/home/sarah/watchtower/odd/2005/150705/2005480/KL2005480.txt
/home/sarah/watchtower/odd/2005/150705/2005488/KL2005488.txt
/home/sarah/watchtower/odd/2005/150705/2005484/KL2005484.txt
/home/sarah/watchtower/odd/2005/150705/2005481/KL2005481.txt
/home/sarah/watchtower/odd/2005/150705/2005487/KL2005487.txt
/home/sarah/watchtower/odd/2005/150705/2005485/KL2005485.txt
/home/sarah/watchtower/odd/2005/2005806/KL2005806.txt
/home/sarah/watchtower/odd/2005/010805/2005527/KL2005527.txt
/home/sarah/watchtower/odd/2005/010805/2005560/KL2005560.txt
/home/sarah/watchtower/odd/2005/010805/2005526/KL2005526.txt
/home/sarah/watchtower/odd/2005/010805/2005561/KL2005561.txt
/home/sarah/watchtower/odd/2005/150105/2005041/KL2005041.txt
/home/sarah/watchtower/odd/2005/150105/2005044/KL2005044.txt
/home/sarah/watchtower/odd/2005/150105/2005040/KL2005040.txt
/home/sarah/watchtower/odd/2005/150105/2005043/KL2005043.txt
/home/sarah/watchtower/odd/2005/150105/2005046/KL2005046.txt
/home/sarah/watchtower/odd/2005/010405/2005243/KL2005243.txt
/home/sarah/watchtower/odd/2005/010405/2005242/KL2005242.txt
/home/sarah/watchtower/odd/2005/010305/2005161/KL2005161.txt
/home/sarah/watchtower/odd/2005/010305/2005163/KL2005163.txt
/home/sarah/watchtower/odd/2005/010305/2005160/KL2005160.txt
/home/sarah/watchtower/odd/2005/010305/2005164/KL2005164.txt
/home/sarah/watchtower/odd/2005/150805/2005606/KL2005606.txt
/home/sarah/watchtower/odd/2005/150805/2005604/KL2005604.txt
/home/sarah/watchtower/odd/2005/150805/2005605/KL2005605.txt
/home/sarah/watchtower/odd/2005/010905/2005647/KL2005647.txt
/home/sarah/watchtower/odd/2005/010905/2005641/KL2005641.txt
/home/sarah/watchtower/odd/2005/010905/2005640/KL2005640.txt
/home/sarah/watchtower/odd/2005/010905/2005644/KL2005644.txt
/home/sarah/watchtower/odd/2005/010905/2005643/KL2005643.txt
/home/sarah/watchtower/odd/2005/2005880/KL2005880.txt
/home/sarah/watchtower/odd/2005/010105/2005002/KL2005002.txt
/home/sarah/watchtower/odd/2005/010105/2005003/KL2005003.txt
/home/sarah/watchtower/odd/2005/010105/2005000/KL2005000.txt
/home/sarah/watchtower/odd/2005/010105/2005001/KL2005001.txt
/home/sarah/watchtower/odd/2005/010205/2005082/KL2005082.txt
/home/sarah/watchtower/odd/2005/010205/2005080/KL2005080.txt
/home/sarah/watchtower/odd/2005/010205/2005083/KL2005083.txt
/home/sarah/watchtower/odd/2005/010205/2005081/KL2005081.txt
/home/sarah/watchtower/odd/2005/010205/2005086/KL2005086.txt
/home/sarah/watchtower/odd/2005/010205/2005084/KL2005084.txt
/home/sarah/watchtower/odd/2005/2005886/KL2005886.txt
/home/sarah/watchtower/odd/2005/150205/2005124/KL2005124.txt
/home/sarah/watchtower/odd/2005/150205/2005125/KL2005125.txt
/home/sarah/watchtower/odd/2005/150405/2005283/KL2005283.txt
/home/sarah/watchtower/odd/2005/150405/2005284/KL2005284.txt
/home/sarah/watchtower/odd/2005/011005/2005725/KL2005725.txt
/home/sarah/watchtower/odd/2005/011005/2005727/KL2005727.txt
/home/sarah/watchtower/odd/2005/011005/2005721/KL2005721.txt
/home/sarah/watchtower/odd/2005/011005/2005720/KL2005720.txt
/home/sarah/watchtower/odd/2005/011005/2005726/KL2005726.txt
/home/sarah/watchtower/odd/2005/011005/2005722/KL2005722.txt
/home/sarah/watchtower/odd/2005/2005881/KL2005881.txt
/home/sarah/watchtower/odd/2011/2011922/KL2011922.txt
/home/sarah/watchtower/odd/2011/2011047/KL2011047.txt
/home/sarah/watchtower/odd/2011/2011725/KL2011725.txt
/home/sarah/watchtower/odd/2011/2011447/KL2011447.txt
/home/sarah/watchtower/odd/2011/2011177/KL2011177.txt
/home/sarah/watchtower/odd/2011/2011843/KL2011843.txt
/home/sarah/watchtower/odd/2011/2011722/KL2011722.txt
/home/sarah/watchtower/odd/2011/2011128/KL2011128.txt
/home/sarah/watchtower/odd/2011/2011326/KL2011326.txt
/home/sarah/watchtower/odd/2011/2011643/KL2011643.txt
/home/sarah/watchtower/odd/2011/2011807/KL2011807.txt
/home/sarah/watchtower/odd/2011/2011653/KL2011653.txt
/home/sarah/watchtower/odd/2011/2011161/KL2011161.txt
/home/sarah/watchtower/odd/2011/2011243/KL2011243.txt
/home/sarah/watchtower/odd/2011/2011574/KL2011574.txt
/home/sarah/watchtower/odd/2011/2011122/KL2011122.txt
/home/sarah/watchtower/odd/2011/2011526/KL2011526.txt
/home/sarah/watchtower/odd/2011/2011924/KL2011924.txt
/home/sarah/watchtower/odd/2011/2011605/KL2011605.txt
/home/sarah/watchtower/odd/2011/2011366/KL2011366.txt
/home/sarah/watchtower/odd/2011/2011641/KL2011641.txt
/home/sarah/watchtower/odd/2011/2011483/KL2011483.txt
/home/sarah/watchtower/odd/2011/2011163/KL2011163.txt
/home/sarah/watchtower/odd/2011/2011244/KL2011244.txt
/home/sarah/watchtower/odd/2011/2011682/KL2011682.txt
/home/sarah/watchtower/odd/2011/2011573/KL2011573.txt
/home/sarah/watchtower/odd/2011/2011281/KL2011281.txt
/home/sarah/watchtower/odd/2011/2011253/KL2011253.txt
/home/sarah/watchtower/odd/2011/2011764/KL2011764.txt
/home/sarah/watchtower/odd/2011/2011844/KL2011844.txt
/home/sarah/watchtower/odd/2011/2011525/KL2011525.txt
/home/sarah/watchtower/odd/2011/2011242/KL2011242.txt
/home/sarah/watchtower/odd/2011/2011125/KL2011125.txt
/home/sarah/watchtower/odd/2011/2011164/KL2011164.txt
/home/sarah/watchtower/odd/2011/2011324/KL2011324.txt
/home/sarah/watchtower/odd/2011/2011004/KL2011004.txt
/home/sarah/watchtower/odd/2011/2011482/KL2011482.txt
/home/sarah/watchtower/odd/2011/2011204/KL2011204.txt
/home/sarah/watchtower/odd/2011/2011325/KL2011325.txt
/home/sarah/watchtower/odd/2011/2011562/KL2011562.txt
/home/sarah/watchtower/odd/2011/2011363/KL2011363.txt
/home/sarah/watchtower/odd/2011/2011046/KL2011046.txt
/home/sarah/watchtower/odd/2011/2011685/KL2011685.txt
/home/sarah/watchtower/odd/2011/2011568/KL2011568.txt
/home/sarah/watchtower/odd/2011/2011724/KL2011724.txt
/home/sarah/watchtower/odd/2011/2011129/KL2011129.txt
/home/sarah/watchtower/odd/2011/2011766/KL2011766.txt
/home/sarah/watchtower/odd/2011/2011765/KL2011765.txt
/home/sarah/watchtower/odd/2011/2011165/KL2011165.txt
/home/sarah/watchtower/odd/2011/2011442/KL2011442.txt
/home/sarah/watchtower/odd/2011/2011206/KL2011206.txt
/home/sarah/watchtower/odd/2011/2011841/KL2011841.txt
/home/sarah/watchtower/odd/2011/2011881/KL2011881.txt
/home/sarah/watchtower/odd/2011/2011884/KL2011884.txt
/home/sarah/watchtower/odd/2011/2011606/KL2011606.txt
/home/sarah/watchtower/odd/2011/2011730/KL2011730.txt
/home/sarah/watchtower/odd/2011/2011282/KL2011282.txt
/home/sarah/watchtower/odd/2011/2011205/KL2011205.txt
/home/sarah/watchtower/odd/2011/2011611/KL2011611.txt
/home/sarah/watchtower/odd/2011/2011203/KL2011203.txt
/home/sarah/watchtower/odd/2011/2011327/KL2011327.txt
/home/sarah/watchtower/odd/2011/2011403/KL2011403.txt
/home/sarah/watchtower/odd/2011/2011845/KL2011845.txt
/home/sarah/watchtower/odd/2011/2011041/KL2011041.txt
/home/sarah/watchtower/odd/2011/2011684/KL2011684.txt
/home/sarah/watchtower/odd/2011/2011763/KL2011763.txt
/home/sarah/watchtower/odd/2011/2011082/KL2011082.txt
/home/sarah/watchtower/odd/2011/2011726/KL2011726.txt
/home/sarah/watchtower/odd/2011/2011610/KL2011610.txt
/home/sarah/watchtower/odd/2011/2011802/KL2011802.txt
/home/sarah/watchtower/odd/2011/2011283/KL2011283.txt
/home/sarah/watchtower/odd/2011/2011364/KL2011364.txt
/home/sarah/watchtower/odd/2011/2011365/KL2011365.txt
/home/sarah/watchtower/odd/2011/2011486/KL2011486.txt
/home/sarah/watchtower/odd/2011/2011446/KL2011446.txt
/home/sarah/watchtower/odd/2011/2011081/KL2011081.txt
/home/sarah/watchtower/odd/2011/2011481/KL2011481.txt
/home/sarah/watchtower/odd/2011/2011686/KL2011686.txt
/home/sarah/watchtower/odd/2011/2011564/KL2011564.txt
/home/sarah/watchtower/odd/2011/2011002/KL2011002.txt
/home/sarah/watchtower/odd/2011/2011322/KL2011322.txt
/home/sarah/watchtower/odd/2011/2011321/KL2011321.txt
/home/sarah/watchtower/odd/2011/2011443/KL2011443.txt
/home/sarah/watchtower/odd/2011/2011563/KL2011563.txt
/home/sarah/watchtower/odd/2011/2011323/KL2011323.txt
/home/sarah/watchtower/odd/2011/2011524/KL2011524.txt
/home/sarah/watchtower/odd/2011/2011842/KL2011842.txt
/home/sarah/watchtower/odd/2011/2011923/KL2011923.txt
/home/sarah/watchtower/odd/2011/2011683/KL2011683.txt
/home/sarah/watchtower/odd/2011/2011003/KL2011003.txt
/home/sarah/watchtower/odd/2011/2011491/KL2011491.txt
/home/sarah/watchtower/odd/2011/2011241/KL2011241.txt
/home/sarah/watchtower/odd/2011/2011045/KL2011045.txt
/home/sarah/watchtower/odd/2011/2011523/KL2011523.txt
/home/sarah/watchtower/odd/2011/2011566/KL2011566.txt
/home/sarah/watchtower/odd/2011/2011642/KL2011642.txt
/home/sarah/watchtower/odd/2011/2011721/KL2011721.txt
/home/sarah/watchtower/odd/2011/2011284/KL2011284.txt
/home/sarah/watchtower/odd/2011/2011727/KL2011727.txt
/home/sarah/watchtower/odd/2011/2011883/KL2011883.txt
/home/sarah/watchtower/odd/2011/2011921/KL2011921.txt
/home/sarah/watchtower/odd/2011/2011647/KL2011647.txt
/home/sarah/watchtower/odd/2011/2011561/KL2011561.txt
/home/sarah/watchtower/odd/2011/2011801/KL2011801.txt
/home/sarah/watchtower/odd/2011/2011328/KL2011328.txt
/home/sarah/watchtower/odd/2011/2011723/KL2011723.txt
/home/sarah/watchtower/odd/2011/2011401/KL2011401.txt
/home/sarah/watchtower/odd/2011/2011044/KL2011044.txt
/home/sarah/watchtower/odd/2011/2011803/KL2011803.txt
/home/sarah/watchtower/odd/2011/2011368/KL2011368.txt
/home/sarah/watchtower/odd/2011/2011402/KL2011402.txt
/home/sarah/watchtower/odd/2011/2011162/KL2011162.txt
/home/sarah/watchtower/odd/2009/2009883/KL2009883.txt
/home/sarah/watchtower/odd/2009/2009082/KL2009082.txt
/home/sarah/watchtower/odd/2009/2009084/KL2009084.txt
/home/sarah/watchtower/odd/2009/2009493/KL2009493.txt
/home/sarah/watchtower/odd/2009/2009094/KL2009094.txt
/home/sarah/watchtower/odd/2009/2009565/KL2009565.txt
/home/sarah/watchtower/odd/2009/2009522/KL2009522.txt
/home/sarah/watchtower/odd/2009/2009081/KL2009081.txt
/home/sarah/watchtower/odd/2009/2009481/KL2009481.txt
/home/sarah/watchtower/odd/2009/2009040/KL2009040.txt
/home/sarah/watchtower/odd/2009/2009241/KL2009241.txt
/home/sarah/watchtower/odd/2009/2009722/KL2009722.txt
/home/sarah/watchtower/odd/2009/2009280/KL2009280.txt
/home/sarah/watchtower/odd/2009/2009440/KL2009440.txt
/home/sarah/watchtower/odd/2009/2009043/KL2009043.txt
/home/sarah/watchtower/odd/2009/2009842/KL2009842.txt
/home/sarah/watchtower/odd/2009/2009164/KL2009164.txt
/home/sarah/watchtower/odd/2009/2009682/KL2009682.txt
/home/sarah/watchtower/odd/2009/2009641/KL2009641.txt
/home/sarah/watchtower/odd/2009/2009282/KL2009282.txt
/home/sarah/watchtower/odd/2009/2009761/KL2009761.txt
/home/sarah/watchtower/odd/2009/2009001/KL2009001.txt
/home/sarah/watchtower/odd/2009/2009815/KL2009815.txt
/home/sarah/watchtower/odd/2009/2009011/KL2009011.txt
/home/sarah/watchtower/odd/2009/2009160/KL2009160.txt
/home/sarah/watchtower/odd/2009/2009683/KL2009683.txt
/home/sarah/watchtower/odd/2009/2009762/KL2009762.txt
/home/sarah/watchtower/odd/2009/2009320/KL2009320.txt
/home/sarah/watchtower/odd/2009/2009363/KL2009363.txt
/home/sarah/watchtower/odd/2009/2009085/KL2009085.txt
/home/sarah/watchtower/odd/2009/2009642/KL2009642.txt
/home/sarah/watchtower/odd/2009/2009482/KL2009482.txt
/home/sarah/watchtower/odd/2009/2009921/KL2009921.txt
/home/sarah/watchtower/odd/2009/2009801/KL2009801.txt
/home/sarah/watchtower/odd/2009/2009802/KL2009802.txt
/home/sarah/watchtower/odd/2009/2009803/KL2009803.txt
/home/sarah/watchtower/odd/2009/2009244/KL2009244.txt
/home/sarah/watchtower/odd/2009/2009162/KL2009162.txt
/home/sarah/watchtower/odd/2009/2009650/KL2009650.txt
/home/sarah/watchtower/odd/2009/2009601/KL2009601.txt
/home/sarah/watchtower/odd/2009/2009720/KL2009720.txt
/home/sarah/watchtower/odd/2009/2009843/KL2009843.txt
/home/sarah/watchtower/odd/2009/2009763/KL2009763.txt
/home/sarah/watchtower/odd/2009/2009924/KL2009924.txt
/home/sarah/watchtower/odd/2009/2009480/KL2009480.txt
/home/sarah/watchtower/odd/2009/2009321/KL2009321.txt
/home/sarah/watchtower/odd/2009/2009364/KL2009364.txt
/home/sarah/watchtower/odd/2009/2009523/KL2009523.txt
/home/sarah/watchtower/odd/2009/2009567/KL2009567.txt
/home/sarah/watchtower/odd/2009/2009685/KL2009685.txt
/home/sarah/watchtower/odd/2009/2009124/KL2009124.txt
/home/sarah/watchtower/odd/2009/2009881/KL2009881.txt
/home/sarah/watchtower/odd/2009/2009360/KL2009360.txt
/home/sarah/watchtower/odd/2009/2009088/KL2009088.txt
/home/sarah/watchtower/odd/2009/2009331/KL2009331.txt
/home/sarah/watchtower/odd/2009/2009810/KL2009810.txt
/home/sarah/watchtower/odd/2009/2009841/KL2009841.txt
/home/sarah/watchtower/odd/2009/2009721/KL2009721.txt
/home/sarah/watchtower/odd/2009/2009322/KL2009322.txt
/home/sarah/watchtower/odd/2009/2009813/KL2009813.txt
/home/sarah/watchtower/odd/2009/2009093/KL2009093.txt
/home/sarah/watchtower/odd/2009/2009044/KL2009044.txt
/home/sarah/watchtower/odd/2009/2009805/KL2009805.txt
/home/sarah/watchtower/odd/2009/2009171/KL2009171.txt
/home/sarah/watchtower/odd/2009/2009880/KL2009880.txt
/home/sarah/watchtower/odd/2009/2009008/KL2009008.txt
/home/sarah/watchtower/odd/2009/2009202/KL2009202.txt
/home/sarah/watchtower/odd/2009/2009361/KL2009361.txt
/home/sarah/watchtower/odd/2009/2009604/KL2009604.txt
/home/sarah/watchtower/odd/2009/2009201/KL2009201.txt
/home/sarah/watchtower/odd/2009/2009922/KL2009922.txt
/home/sarah/watchtower/odd/2009/2009562/KL2009562.txt
/home/sarah/watchtower/odd/2009/2009529/KL2009529.txt
/home/sarah/watchtower/odd/2009/2009281/KL2009281.txt
/home/sarah/watchtower/odd/2009/2009443/KL2009443.txt
/home/sarah/watchtower/odd/2009/2009002/KL2009002.txt
/home/sarah/watchtower/odd/2009/2009400/KL2009400.txt
/home/sarah/watchtower/odd/2009/2009563/KL2009563.txt
/home/sarah/watchtower/odd/2009/2009242/KL2009242.txt
/home/sarah/watchtower/odd/2009/2009845/KL2009845.txt
/home/sarah/watchtower/odd/2009/2009095/KL2009095.txt
/home/sarah/watchtower/odd/2009/2009324/KL2009324.txt
/home/sarah/watchtower/odd/2009/2009764/KL2009764.txt
/home/sarah/watchtower/odd/2009/2009327/KL2009327.txt
/home/sarah/watchtower/odd/2009/2009844/KL2009844.txt
/home/sarah/watchtower/odd/2009/2009723/KL2009723.txt
/home/sarah/watchtower/odd/2009/2009442/KL2009442.txt
/home/sarah/watchtower/odd/2009/2009800/KL2009800.txt
/home/sarah/watchtower/odd/2009/2009560/KL2009560.txt
/home/sarah/watchtower/odd/2009/2009323/KL2009323.txt
/home/sarah/watchtower/odd/2009/2009080/KL2009080.txt
/home/sarah/watchtower/odd/2009/2009882/KL2009882.txt
/home/sarah/watchtower/odd/2009/2009284/KL2009284.txt
/home/sarah/watchtower/odd/2009/2009167/KL2009167.txt
/home/sarah/watchtower/odd/2009/2009041/KL2009041.txt
/home/sarah/watchtower/odd/2009/2009804/KL2009804.txt
/home/sarah/watchtower/odd/2009/2009240/KL2009240.txt
/home/sarah/watchtower/odd/2009/2009161/KL2009161.txt
/home/sarah/watchtower/odd/2009/2009684/KL2009684.txt
/home/sarah/watchtower/odd/2009/2009243/KL2009243.txt
/home/sarah/watchtower/odd/2009/2009483/KL2009483.txt
/home/sarah/watchtower/odd/2009/2009441/KL2009441.txt
/home/sarah/watchtower/odd/2009/2009806/KL2009806.txt
/home/sarah/watchtower/odd/2009/2009603/KL2009603.txt
/home/sarah/watchtower/odd/2009/2009246/KL2009246.txt
/home/sarah/watchtower/odd/2009/2009401/KL2009401.txt
/home/sarah/watchtower/odd/2009/2009203/KL2009203.txt
/home/sarah/watchtower/odd/2009/2009923/KL2009923.txt
/home/sarah/watchtower/odd/2009/2009640/KL2009640.txt
/home/sarah/watchtower/odd/2009/2009602/KL2009602.txt
/home/sarah/watchtower/odd/2009/2009046/KL2009046.txt
/home/sarah/watchtower/odd/2009/2009681/KL2009681.txt
/home/sarah/watchtower/odd/2009/2009561/KL2009561.txt
/home/sarah/watchtower/odd/2009/2009083/KL2009083.txt
/home/sarah/watchtower/odd/2009/2009811/KL2009811.txt
/home/sarah/watchtower/odd/2009/2009042/KL2009042.txt
/home/sarah/watchtower/odd/2009/2009283/KL2009283.txt
/home/sarah/watchtower/odd/2009/2009245/KL2009245.txt
/home/sarah/watchtower/odd/2009/2009200/KL2009200.txt
/home/sarah/watchtower/odd/2007/010807/2007567/KL2007567.txt
/home/sarah/watchtower/odd/2007/010807/2007566/KL2007566.txt
/home/sarah/watchtower/odd/2007/010807/2007561/KL2007561.txt
/home/sarah/watchtower/odd/2007/010807/2007562/KL2007562.txt
/home/sarah/watchtower/odd/2007/010807/2007565/KL2007565.txt
/home/sarah/watchtower/odd/2007/010807/2007560/KL2007560.txt
/home/sarah/watchtower/odd/2007/010907/2007646/KL2007646.txt
/home/sarah/watchtower/odd/2007/010907/2007644/KL2007644.txt
/home/sarah/watchtower/odd/2007/010907/2007645/KL2007645.txt
/home/sarah/watchtower/odd/2007/150907/2007687/KL2007687.txt
/home/sarah/watchtower/odd/2007/150907/2007684/KL2007684.txt
/home/sarah/watchtower/odd/2007/150907/2007686/KL2007686.txt
/home/sarah/watchtower/odd/2007/011007/2007725/KL2007725.txt
/home/sarah/watchtower/odd/2007/011007/2007726/KL2007726.txt
/home/sarah/watchtower/odd/2007/011007/2007720/KL2007720.txt
/home/sarah/watchtower/odd/2007/011007/2007721/KL2007721.txt
/home/sarah/watchtower/odd/2007/011007/2007728/KL2007728.txt
/home/sarah/watchtower/odd/2007/011007/2007724/KL2007724.txt
/home/sarah/watchtower/odd/2007/011007/2007722/KL2007722.txt
/home/sarah/watchtower/odd/2007/2007885/KL2007885.txt
/home/sarah/watchtower/odd/2007/2007846/KL2007846.txt
/home/sarah/watchtower/odd/2007/2007926/KL2007926.txt
/home/sarah/watchtower/odd/2007/150507/2007366/KL2007366.txt
/home/sarah/watchtower/odd/2007/150507/2007360/KL2007360.txt
/home/sarah/watchtower/odd/2007/150507/2007367/KL2007367.txt
/home/sarah/watchtower/odd/2007/150707/2007525/KL2007525.txt
/home/sarah/watchtower/odd/2007/150707/2007526/KL2007526.txt
/home/sarah/watchtower/odd/2007/150707/2007528/KL2007528.txt
/home/sarah/watchtower/odd/2007/2007924/KL2007924.txt
/home/sarah/watchtower/odd/2007/2007806/KL2007806.txt
/home/sarah/watchtower/odd/2007/2007928/KL2007928.txt
/home/sarah/watchtower/odd/2007/2007882/KL2007882.txt
/home/sarah/watchtower/odd/2007/150807/2007606/KL2007606.txt
/home/sarah/watchtower/odd/2007/150807/2007607/KL2007607.txt
/home/sarah/watchtower/odd/2007/2007805/KL2007805.txt
/home/sarah/watchtower/odd/2007/150107/2007046/KL2007046.txt
/home/sarah/watchtower/odd/2007/150107/2007040/KL2007040.txt
/home/sarah/watchtower/odd/2007/150107/2007042/KL2007042.txt
/home/sarah/watchtower/odd/2007/150107/2007041/KL2007041.txt
/home/sarah/watchtower/odd/2007/150107/2007047/KL2007047.txt
/home/sarah/watchtower/odd/2007/010507/2007323/KL2007323.txt
/home/sarah/watchtower/odd/2007/2007761/KL2007761.txt
/home/sarah/watchtower/odd/2007/010407/2007246/KL2007246.txt
/home/sarah/watchtower/odd/2007/010407/2007241/KL2007241.txt
/home/sarah/watchtower/odd/2007/010407/2007242/KL2007242.txt
/home/sarah/watchtower/odd/2007/010407/2007245/KL2007245.txt
/home/sarah/watchtower/odd/2007/010407/2007240/KL2007240.txt
/home/sarah/watchtower/odd/2007/010407/2007248/KL2007248.txt
/home/sarah/watchtower/odd/2007/2007925/KL2007925.txt
/home/sarah/watchtower/odd/2007/2007922/KL2007922.txt
/home/sarah/watchtower/odd/2007/2007847/KL2007847.txt
/home/sarah/watchtower/odd/2007/150307/2007206/KL2007206.txt
/home/sarah/watchtower/odd/2007/150307/2007207/KL2007207.txt
/home/sarah/watchtower/odd/2007/150307/2007202/KL2007202.txt
/home/sarah/watchtower/odd/2007/010707/2007484/KL2007484.txt
/home/sarah/watchtower/odd/2007/010707/2007486/KL2007486.txt
/home/sarah/watchtower/odd/2007/010707/2007480/KL2007480.txt
/home/sarah/watchtower/odd/2007/010707/2007485/KL2007485.txt
/home/sarah/watchtower/odd/2007/010707/2007482/KL2007482.txt
/home/sarah/watchtower/odd/2007/2007765/KL2007765.txt
/home/sarah/watchtower/odd/2007/150607/2007447/KL2007447.txt
/home/sarah/watchtower/odd/2007/150607/2007446/KL2007446.txt
/home/sarah/watchtower/odd/2007/150607/2007449/KL2007449.txt
/home/sarah/watchtower/odd/2007/010107/2007008/KL2007008.txt
/home/sarah/watchtower/odd/2007/010107/2007001/KL2007001.txt
/home/sarah/watchtower/odd/2007/010107/2007005/KL2007005.txt
/home/sarah/watchtower/odd/2007/010107/2007006/KL2007006.txt
/home/sarah/watchtower/odd/2007/010107/2007000/KL2007000.txt
/home/sarah/watchtower/odd/2007/2007766/KL2007766.txt
/home/sarah/watchtower/odd/2007/2007803/KL2007803.txt
/home/sarah/watchtower/odd/2007/2007848/KL2007848.txt
/home/sarah/watchtower/odd/2007/150407/2007285/KL2007285.txt
/home/sarah/watchtower/odd/2007/150407/2007286/KL2007286.txt
/home/sarah/watchtower/odd/2007/150407/2007288/KL2007288.txt
/home/sarah/watchtower/odd/2007/150407/2007290/KL2007290.txt
/home/sarah/watchtower/odd/2007/2007842/KL2007842.txt
/home/sarah/watchtower/odd/2007/150207/2007126/KL2007126.txt
/home/sarah/watchtower/odd/2007/150207/2007124/KL2007124.txt
/home/sarah/watchtower/odd/2007/150207/2007125/KL2007125.txt
/home/sarah/watchtower/odd/2007/150207/2007129/KL2007129.txt
/home/sarah/watchtower/odd/2007/2007886/KL2007886.txt
/home/sarah/watchtower/odd/2007/010307/2007163/KL2007163.txt
/home/sarah/watchtower/odd/2007/010307/2007166/KL2007166.txt
/home/sarah/watchtower/odd/2007/010307/2007164/KL2007164.txt
/home/sarah/watchtower/odd/2007/010307/2007167/KL2007167.txt
/home/sarah/watchtower/odd/2007/010307/2007165/KL2007165.txt
/home/sarah/watchtower/odd/2007/2007927/KL2007927.txt
/home/sarah/watchtower/odd/2007/2007887/KL2007887.txt
/home/sarah/watchtower/odd/2007/2007760/KL2007760.txt
/home/sarah/watchtower/odd/2007/010207/2007085/KL2007085.txt
/home/sarah/watchtower/odd/2007/010207/2007081/KL2007081.txt
/home/sarah/watchtower/odd/2007/010207/2007080/KL2007080.txt
/home/sarah/watchtower/odd/2007/010207/2007086/KL2007086.txt
/home/sarah/watchtower/odd/2007/010607/2007407/KL2007407.txt
/home/sarah/watchtower/odd/2007/010607/2007406/KL2007406.txt
/home/sarah/watchtower/odd/2007/010607/2007402/KL2007402.txt
/home/sarah/watchtower/even/2012/2012204/KL2012204.txt
/home/sarah/watchtower/even/2012/2012482/KL2012482.txt
/home/sarah/watchtower/even/2012/2012046/KL2012046.txt
/home/sarah/watchtower/even/2012/2012164/KL2012164.txt
/home/sarah/watchtower/even/2012/2012087/KL2012087.txt
/home/sarah/watchtower/even/2012/2012487/KL2012487.txt
/home/sarah/watchtower/even/2012/2012284/KL2012284.txt
/home/sarah/watchtower/even/2012/2012169/KL2012169.txt
/home/sarah/watchtower/even/2012/2012564/KL2012564.txt
/home/sarah/watchtower/even/2012/2012723/KL2012723.txt
/home/sarah/watchtower/even/2012/2012206/KL2012206.txt
/home/sarah/watchtower/even/2012/2012406/KL2012406.txt
/home/sarah/watchtower/even/2012/2012013/KL2012013.txt
/home/sarah/watchtower/even/2012/2012525/KL2012525.txt
/home/sarah/watchtower/even/2012/2012362/KL2012362.txt
/home/sarah/watchtower/even/2012/2012444/KL2012444.txt
/home/sarah/watchtower/even/2012/2012411/KL2012411.txt
/home/sarah/watchtower/even/2012/2012247/KL2012247.txt
/home/sarah/watchtower/even/2012/2012044/KL2012044.txt
/home/sarah/watchtower/even/2012/2012641/KL2012641.txt
/home/sarah/watchtower/even/2012/2012524/KL2012524.txt
/home/sarah/watchtower/even/2012/2012321/KL2012321.txt
/home/sarah/watchtower/even/2012/2012446/KL2012446.txt
/home/sarah/watchtower/even/2012/2012003/KL2012003.txt
/home/sarah/watchtower/even/2012/2012445/KL2012445.txt
/home/sarah/watchtower/even/2012/2012331/KL2012331.txt
/home/sarah/watchtower/even/2012/2012926/KL2012926.txt
/home/sarah/watchtower/even/2012/2012001/KL2012001.txt
/home/sarah/watchtower/even/2012/2012765/KL2012765.txt
/home/sarah/watchtower/even/2012/2012724/KL2012724.txt
/home/sarah/watchtower/even/2012/2012683/KL2012683.txt
/home/sarah/watchtower/even/2012/2012243/KL2012243.txt
/home/sarah/watchtower/even/2012/2012645/KL2012645.txt
/home/sarah/watchtower/even/2012/2012002/KL2012002.txt
/home/sarah/watchtower/even/2012/2012043/KL2012043.txt
/home/sarah/watchtower/even/2012/2012924/KL2012924.txt
/home/sarah/watchtower/even/2012/2012124/KL2012124.txt
/home/sarah/watchtower/even/2012/2012601/KL2012601.txt
/home/sarah/watchtower/even/2012/2012083/KL2012083.txt
/home/sarah/watchtower/even/2012/2012562/KL2012562.txt
/home/sarah/watchtower/even/2012/2012925/KL2012925.txt
/home/sarah/watchtower/even/2012/2012481/KL2012481.txt
/home/sarah/watchtower/even/2012/2012802/KL2012802.txt
/home/sarah/watchtower/even/2012/2012602/KL2012602.txt
/home/sarah/watchtower/even/2012/2012242/KL2012242.txt
/home/sarah/watchtower/even/2012/2012846/KL2012846.txt
/home/sarah/watchtower/even/2012/2012682/KL2012682.txt
/home/sarah/watchtower/even/2012/2012122/KL2012122.txt
/home/sarah/watchtower/even/2012/2012162/KL2012162.txt
/home/sarah/watchtower/even/2012/2012685/KL2012685.txt
/home/sarah/watchtower/even/2012/2012603/KL2012603.txt
/home/sarah/watchtower/even/2012/2012684/KL2012684.txt
/home/sarah/watchtower/even/2012/2012283/KL2012283.txt
/home/sarah/watchtower/even/2012/2012241/KL2012241.txt
/home/sarah/watchtower/even/2012/2012843/KL2012843.txt
/home/sarah/watchtower/even/2012/2012443/KL2012443.txt
/home/sarah/watchtower/even/2012/2012807/KL2012807.txt
/home/sarah/watchtower/even/2012/2012004/KL2012004.txt
/home/sarah/watchtower/even/2012/2012082/KL2012082.txt
/home/sarah/watchtower/even/2012/2012809/KL2012809.txt
/home/sarah/watchtower/even/2012/2012005/KL2012005.txt
/home/sarah/watchtower/even/2012/2012803/KL2012803.txt
/home/sarah/watchtower/even/2012/2012483/KL2012483.txt
/home/sarah/watchtower/even/2012/2012322/KL2012322.txt
/home/sarah/watchtower/even/2012/2012721/KL2012721.txt
/home/sarah/watchtower/even/2012/2012007/KL2012007.txt
/home/sarah/watchtower/even/2012/2012801/KL2012801.txt
/home/sarah/watchtower/even/2012/2012405/KL2012405.txt
/home/sarah/watchtower/even/2012/2012404/KL2012404.txt
/home/sarah/watchtower/even/2012/2012402/KL2012402.txt
/home/sarah/watchtower/even/2012/2012842/KL2012842.txt
/home/sarah/watchtower/even/2012/2012081/KL2012081.txt
/home/sarah/watchtower/even/2012/2012281/KL2012281.txt
/home/sarah/watchtower/even/2012/2012407/KL2012407.txt
/home/sarah/watchtower/even/2012/2012205/KL2012205.txt
/home/sarah/watchtower/even/2012/2012764/KL2012764.txt
/home/sarah/watchtower/even/2012/2012364/KL2012364.txt
/home/sarah/watchtower/even/2012/2012161/KL2012161.txt
/home/sarah/watchtower/even/2012/2012401/KL2012401.txt
/home/sarah/watchtower/even/2012/2012121/KL2012121.txt
/home/sarah/watchtower/even/2012/2012643/KL2012643.txt
/home/sarah/watchtower/even/2012/2012323/KL2012323.txt
/home/sarah/watchtower/even/2012/2012045/KL2012045.txt
/home/sarah/watchtower/even/2012/2012845/KL2012845.txt
/home/sarah/watchtower/even/2012/2012163/KL2012163.txt
/home/sarah/watchtower/even/2012/2012285/KL2012285.txt
/home/sarah/watchtower/even/2012/2012403/KL2012403.txt
/home/sarah/watchtower/even/2012/2012844/KL2012844.txt
/home/sarah/watchtower/even/2012/2012412/KL2012412.txt
/home/sarah/watchtower/even/2012/2012523/KL2012523.txt
/home/sarah/watchtower/even/2012/2012763/KL2012763.txt
/home/sarah/watchtower/even/2012/2012042/KL2012042.txt
/home/sarah/watchtower/even/2012/2012762/KL2012762.txt
/home/sarah/watchtower/even/2012/2012722/KL2012722.txt
/home/sarah/watchtower/even/2012/2012442/KL2012442.txt
/home/sarah/watchtower/even/2012/2012361/KL2012361.txt
/home/sarah/watchtower/even/2012/2012123/KL2012123.txt
/home/sarah/watchtower/even/2012/2012563/KL2012563.txt
/home/sarah/watchtower/even/2012/2012642/KL2012642.txt
/home/sarah/watchtower/even/2012/2012166/KL2012166.txt
/home/sarah/watchtower/even/2012/2012203/KL2012203.txt
/home/sarah/watchtower/even/2012/2012282/KL2012282.txt
/home/sarah/watchtower/even/2012/2012681/KL2012681.txt
/home/sarah/watchtower/even/2012/2012923/KL2012923.txt
/home/sarah/watchtower/even/2012/2012522/KL2012522.txt
/home/sarah/watchtower/even/2012/2012804/KL2012804.txt
/home/sarah/watchtower/even/2012/2012484/KL2012484.txt
/home/sarah/watchtower/even/2012/2012363/KL2012363.txt
/home/sarah/watchtower/even/2012/2012604/KL2012604.txt
/home/sarah/watchtower/even/2012/2012325/KL2012325.txt
/home/sarah/watchtower/even/2004/2004002/KL2004002.txt
/home/sarah/watchtower/even/2004/2004642/KL2004642.txt
/home/sarah/watchtower/even/2004/2004567/KL2004567.txt
/home/sarah/watchtower/even/2004/2004203/KL2004203.txt
/home/sarah/watchtower/even/2004/2004206/KL2004206.txt
/home/sarah/watchtower/even/2004/2004121/KL2004121.txt
/home/sarah/watchtower/even/2004/2004884/KL2004884.txt
/home/sarah/watchtower/even/2004/2004603/KL2004603.txt
/home/sarah/watchtower/even/2004/2004321/KL2004321.txt
/home/sarah/watchtower/even/2004/2004365/KL2004365.txt
/home/sarah/watchtower/even/2004/2004643/KL2004643.txt
/home/sarah/watchtower/even/2004/2004684/KL2004684.txt
/home/sarah/watchtower/even/2004/2004523/KL2004523.txt
/home/sarah/watchtower/even/2004/2004683/KL2004683.txt
/home/sarah/watchtower/even/2004/2004046/KL2004046.txt
/home/sarah/watchtower/even/2004/2004124/KL2004124.txt
/home/sarah/watchtower/even/2004/2004923/KL2004923.txt
/home/sarah/watchtower/even/2004/2004363/KL2004363.txt
/home/sarah/watchtower/even/2004/2004680/KL2004680.txt
/home/sarah/watchtower/even/2004/2004364/KL2004364.txt
/home/sarah/watchtower/even/2004/2004128/KL2004128.txt
/home/sarah/watchtower/even/2004/2004440/KL2004440.txt
/home/sarah/watchtower/even/2004/2004563/KL2004563.txt
/home/sarah/watchtower/even/2004/2004280/KL2004280.txt
/home/sarah/watchtower/even/2004/2004081/KL2004081.txt
/home/sarah/watchtower/even/2004/2004082/KL2004082.txt
/home/sarah/watchtower/even/2004/2004404/KL2004404.txt
/home/sarah/watchtower/even/2004/2004087/KL2004087.txt
/home/sarah/watchtower/even/2004/2004483/KL2004483.txt
/home/sarah/watchtower/even/2004/2004481/KL2004481.txt
/home/sarah/watchtower/even/2004/2004722/KL2004722.txt
/home/sarah/watchtower/even/2004/2004284/KL2004284.txt
/home/sarah/watchtower/even/2004/2004882/KL2004882.txt
/home/sarah/watchtower/even/2004/2004167/KL2004167.txt
/home/sarah/watchtower/even/2004/2004845/KL2004845.txt
/home/sarah/watchtower/even/2004/2004283/KL2004283.txt
/home/sarah/watchtower/even/2004/2004204/KL2004204.txt
/home/sarah/watchtower/even/2004/2004568/KL2004568.txt
/home/sarah/watchtower/even/2004/2004005/KL2004005.txt
/home/sarah/watchtower/even/2004/2004048/KL2004048.txt
/home/sarah/watchtower/even/2004/2004006/KL2004006.txt
/home/sarah/watchtower/even/2004/2004120/KL2004120.txt
/home/sarah/watchtower/even/2004/2004444/KL2004444.txt
/home/sarah/watchtower/even/2004/2004681/KL2004681.txt
/home/sarah/watchtower/even/2004/2004243/KL2004243.txt
/home/sarah/watchtower/even/2004/2004242/KL2004242.txt
/home/sarah/watchtower/even/2004/2004084/KL2004084.txt
/home/sarah/watchtower/even/2004/2004320/KL2004320.txt
/home/sarah/watchtower/even/2004/2004080/KL2004080.txt
/home/sarah/watchtower/even/2004/2004323/KL2004323.txt
/home/sarah/watchtower/even/2004/2004004/KL2004004.txt
/home/sarah/watchtower/even/2004/2004281/KL2004281.txt
/home/sarah/watchtower/even/2004/2004327/KL2004327.txt
/home/sarah/watchtower/even/2004/2004763/KL2004763.txt
/home/sarah/watchtower/even/2004/2004843/KL2004843.txt
/home/sarah/watchtower/even/2004/2004605/KL2004605.txt
/home/sarah/watchtower/even/2004/2004249/KL2004249.txt
/home/sarah/watchtower/even/2004/2004209/KL2004209.txt
/home/sarah/watchtower/even/2004/2004044/KL2004044.txt
/home/sarah/watchtower/even/2004/2004168/KL2004168.txt
/home/sarah/watchtower/even/2004/2004840/KL2004840.txt
/home/sarah/watchtower/even/2004/2004802/KL2004802.txt
/home/sarah/watchtower/even/2004/2004604/KL2004604.txt
/home/sarah/watchtower/even/2004/2004324/KL2004324.txt
/home/sarah/watchtower/even/2004/2004083/KL2004083.txt
/home/sarah/watchtower/even/2004/2004600/KL2004600.txt
/home/sarah/watchtower/even/2004/2004924/KL2004924.txt
/home/sarah/watchtower/even/2004/2004724/KL2004724.txt
/home/sarah/watchtower/even/2004/2004441/KL2004441.txt
/home/sarah/watchtower/even/2004/2004408/KL2004408.txt
/home/sarah/watchtower/even/2004/2004088/KL2004088.txt
/home/sarah/watchtower/even/2004/2004803/KL2004803.txt
/home/sarah/watchtower/even/2004/2004764/KL2004764.txt
/home/sarah/watchtower/even/2004/2004244/KL2004244.txt
/home/sarah/watchtower/even/2004/2004482/KL2004482.txt
/home/sarah/watchtower/even/2004/2004043/KL2004043.txt
/home/sarah/watchtower/even/2004/2004403/KL2004403.txt
/home/sarah/watchtower/even/2004/2004686/KL2004686.txt
/home/sarah/watchtower/even/2004/2004322/KL2004322.txt
/home/sarah/watchtower/even/2004/2004562/KL2004562.txt
/home/sarah/watchtower/even/2004/2004445/KL2004445.txt
/home/sarah/watchtower/even/2004/2004480/KL2004480.txt
/home/sarah/watchtower/even/2004/2004844/KL2004844.txt
/home/sarah/watchtower/even/2004/2004723/KL2004723.txt
/home/sarah/watchtower/even/2004/2004841/KL2004841.txt
/home/sarah/watchtower/even/2004/2004524/KL2004524.txt
/home/sarah/watchtower/even/2004/2004565/KL2004565.txt
/home/sarah/watchtower/even/2004/2004123/KL2004123.txt
/home/sarah/watchtower/even/2004/2004601/KL2004601.txt
/home/sarah/watchtower/even/2004/2004883/KL2004883.txt
/home/sarah/watchtower/even/2004/2004248/KL2004248.txt
/home/sarah/watchtower/even/2014/2014009/KL2014009.txt
/home/sarah/watchtower/even/2014/2014208/KL2014208.txt
/home/sarah/watchtower/even/2014/2014047/KL2014047.txt
/home/sarah/watchtower/even/2014/2014128/KL2014128.txt
/home/sarah/watchtower/even/2014/2014603/KL2014603.txt
/home/sarah/watchtower/even/2014/2014443/KL2014443.txt
/home/sarah/watchtower/even/2014/2014042/KL2014042.txt
/home/sarah/watchtower/even/2014/2014723/KL2014723.txt
/home/sarah/watchtower/even/2014/2014367/KL2014367.txt
/home/sarah/watchtower/even/2014/2014285/KL2014285.txt
/home/sarah/watchtower/even/2014/2014363/KL2014363.txt
/home/sarah/watchtower/even/2014/2014245/KL2014245.txt
/home/sarah/watchtower/even/2014/2014684/KL2014684.txt
/home/sarah/watchtower/even/2014/2014728/KL2014728.txt
/home/sarah/watchtower/even/2014/2014682/KL2014682.txt
/home/sarah/watchtower/even/2014/2014365/KL2014365.txt
/home/sarah/watchtower/even/2014/2014685/KL2014685.txt
/home/sarah/watchtower/even/2014/2014405/KL2014405.txt
/home/sarah/watchtower/even/2014/2014007/KL2014007.txt
/home/sarah/watchtower/even/2014/2014607/KL2014607.txt
/home/sarah/watchtower/even/2014/2014523/KL2014523.txt
/home/sarah/watchtower/even/2014/2014288/KL2014288.txt
/home/sarah/watchtower/even/2014/2014446/KL2014446.txt
/home/sarah/watchtower/even/2014/2014004/KL2014004.txt
/home/sarah/watchtower/even/2014/2014043/KL2014043.txt
/home/sarah/watchtower/even/2014/2014802/KL2014802.txt
/home/sarah/watchtower/even/2014/2014002/KL2014002.txt
/home/sarah/watchtower/even/2014/2014403/KL2014403.txt
/home/sarah/watchtower/even/2014/2014244/KL2014244.txt
/home/sarah/watchtower/even/2014/2014686/KL2014686.txt
/home/sarah/watchtower/even/2014/2014565/KL2014565.txt
/home/sarah/watchtower/even/2014/2014442/KL2014442.txt
/home/sarah/watchtower/even/2014/2014562/KL2014562.txt
/home/sarah/watchtower/even/2014/2014804/KL2014804.txt
/home/sarah/watchtower/even/2014/2014605/KL2014605.txt
/home/sarah/watchtower/even/2014/2014563/KL2014563.txt
/home/sarah/watchtower/even/2014/2014362/KL2014362.txt
/home/sarah/watchtower/even/2014/2014527/KL2014527.txt
/home/sarah/watchtower/even/2014/2014048/KL2014048.txt
/home/sarah/watchtower/even/2014/2014283/KL2014283.txt
/home/sarah/watchtower/even/2014/2014206/KL2014206.txt
/home/sarah/watchtower/even/2014/2014243/KL2014243.txt
/home/sarah/watchtower/even/2014/2014202/KL2014202.txt
/home/sarah/watchtower/even/2014/2014046/KL2014046.txt
/home/sarah/watchtower/even/2014/2014044/KL2014044.txt
/home/sarah/watchtower/even/2014/2014488/KL2014488.txt
/home/sarah/watchtower/even/2014/2014122/KL2014122.txt
/home/sarah/watchtower/even/2014/2014327/KL2014327.txt
/home/sarah/watchtower/even/2014/2014368/KL2014368.txt
/home/sarah/watchtower/even/2014/2014727/KL2014727.txt
/home/sarah/watchtower/even/2014/2014123/KL2014123.txt
/home/sarah/watchtower/even/2014/2014487/KL2014487.txt
/home/sarah/watchtower/even/2014/2014683/KL2014683.txt
/home/sarah/watchtower/even/2014/2014724/KL2014724.txt
/home/sarah/watchtower/even/2014/2014125/KL2014125.txt
/home/sarah/watchtower/even/2014/2014526/KL2014526.txt
/home/sarah/watchtower/even/2014/2014287/KL2014287.txt
/home/sarah/watchtower/even/2014/2014525/KL2014525.txt
/home/sarah/watchtower/even/2014/2014045/KL2014045.txt
/home/sarah/watchtower/even/2014/2014326/KL2014326.txt
/home/sarah/watchtower/even/2014/2014522/KL2014522.txt
/home/sarah/watchtower/even/2014/2014087/KL2014087.txt
/home/sarah/watchtower/even/2014/2014726/KL2014726.txt
/home/sarah/watchtower/even/2014/2014606/KL2014606.txt
/home/sarah/watchtower/even/2014/2014402/KL2014402.txt
/home/sarah/watchtower/even/2014/2014444/KL2014444.txt
/home/sarah/watchtower/even/2014/2014569/KL2014569.txt
/home/sarah/watchtower/even/2014/2014524/KL2014524.txt
/home/sarah/watchtower/even/2014/2014564/KL2014564.txt
/home/sarah/watchtower/even/2014/2014325/KL2014325.txt
/home/sarah/watchtower/even/2014/2014086/KL2014086.txt
/home/sarah/watchtower/even/2014/2014242/KL2014242.txt
/home/sarah/watchtower/even/2014/2014448/KL2014448.txt
/home/sarah/watchtower/even/2014/2014282/KL2014282.txt
/home/sarah/watchtower/even/2014/2014364/KL2014364.txt
/home/sarah/watchtower/even/2014/2014204/KL2014204.txt
/home/sarah/watchtower/even/2014/2014165/KL2014165.txt
/home/sarah/watchtower/even/2014/2014006/KL2014006.txt
/home/sarah/watchtower/even/2014/2014126/KL2014126.txt
/home/sarah/watchtower/even/2014/2014124/KL2014124.txt
/home/sarah/watchtower/even/2014/2014803/KL2014803.txt
/home/sarah/watchtower/even/2014/2014485/KL2014485.txt
/home/sarah/watchtower/even/2014/2014805/KL2014805.txt
/home/sarah/watchtower/even/2014/2014130/KL2014130.txt
/home/sarah/watchtower/even/2014/2014449/KL2014449.txt
/home/sarah/watchtower/even/2014/2014284/KL2014284.txt
/home/sarah/watchtower/even/2014/2014207/KL2014207.txt
/home/sarah/watchtower/even/2014/2014807/KL2014807.txt
/home/sarah/watchtower/even/2014/2014247/KL2014247.txt
/home/sarah/watchtower/even/2014/2014127/KL2014127.txt
/home/sarah/watchtower/even/2014/2014203/KL2014203.txt
/home/sarah/watchtower/even/2014/2014687/KL2014687.txt
/home/sarah/watchtower/even/2014/2014566/KL2014566.txt
/home/sarah/watchtower/even/2014/2014602/KL2014602.txt
/home/sarah/watchtower/even/2014/2014286/KL2014286.txt
/home/sarah/watchtower/even/2014/2014366/KL2014366.txt
/home/sarah/watchtower/even/2014/2014570/KL2014570.txt
/home/sarah/watchtower/even/2014/2014445/KL2014445.txt
/home/sarah/watchtower/even/2014/2014689/KL2014689.txt
/home/sarah/watchtower/even/2014/2014205/KL2014205.txt
/home/sarah/watchtower/even/2014/2014608/KL2014608.txt
/home/sarah/watchtower/even/2014/2014447/KL2014447.txt
/home/sarah/watchtower/even/2014/2014249/KL2014249.txt
/home/sarah/watchtower/even/2014/2014722/KL2014722.txt
/home/sarah/watchtower/even/2014/2014604/KL2014604.txt
/home/sarah/watchtower/even/2008/2008447/KL2008447.txt
/home/sarah/watchtower/even/2008/2008044/KL2008044.txt
/home/sarah/watchtower/even/2008/2008849/KL2008849.txt
/home/sarah/watchtower/even/2008/2008761/KL2008761.txt
/home/sarah/watchtower/even/2008/2008329/KL2008329.txt
/home/sarah/watchtower/even/2008/2008568/KL2008568.txt
/home/sarah/watchtower/even/2008/2008881/KL2008881.txt
/home/sarah/watchtower/even/2008/2008323/KL2008323.txt
/home/sarah/watchtower/even/2008/2008722/KL2008722.txt
/home/sarah/watchtower/even/2008/2008125/KL2008125.txt
/home/sarah/watchtower/even/2008/2008566/KL2008566.txt
/home/sarah/watchtower/even/2008/2008564/KL2008564.txt
/home/sarah/watchtower/even/2008/2008560/KL2008560.txt
/home/sarah/watchtower/even/2008/2008202/KL2008202.txt
/home/sarah/watchtower/even/2008/2008760/KL2008760.txt
/home/sarah/watchtower/even/2008/2008001/KL2008001.txt
/home/sarah/watchtower/even/2008/2008282/KL2008282.txt
/home/sarah/watchtower/even/2008/2008321/KL2008321.txt
/home/sarah/watchtower/even/2008/2008281/KL2008281.txt
/home/sarah/watchtower/even/2008/2008923/KL2008923.txt
/home/sarah/watchtower/even/2008/2008010/KL2008010.txt
/home/sarah/watchtower/even/2008/2008452/KL2008452.txt
/home/sarah/watchtower/even/2008/2008047/KL2008047.txt
/home/sarah/watchtower/even/2008/2008563/KL2008563.txt
/home/sarah/watchtower/even/2008/2008206/KL2008206.txt
/home/sarah/watchtower/even/2008/2008127/KL2008127.txt
/home/sarah/watchtower/even/2008/2008361/KL2008361.txt
/home/sarah/watchtower/even/2008/2008451/KL2008451.txt
/home/sarah/watchtower/even/2008/2008682/KL2008682.txt
/home/sarah/watchtower/even/2008/2008652/KL2008652.txt
/home/sarah/watchtower/even/2008/2008648/KL2008648.txt
/home/sarah/watchtower/even/2008/2008123/KL2008123.txt
/home/sarah/watchtower/even/2008/2008207/KL2008207.txt
/home/sarah/watchtower/even/2008/2008241/KL2008241.txt
/home/sarah/watchtower/even/2008/2008561/KL2008561.txt
/home/sarah/watchtower/even/2008/2008240/KL2008240.txt
/home/sarah/watchtower/even/2008/2008362/KL2008362.txt
/home/sarah/watchtower/even/2008/2008087/KL2008087.txt
/home/sarah/watchtower/even/2008/2008491/KL2008491.txt
/home/sarah/watchtower/even/2008/2008526/KL2008526.txt
/home/sarah/watchtower/even/2008/2008121/KL2008121.txt
/home/sarah/watchtower/even/2008/2008203/KL2008203.txt
/home/sarah/watchtower/even/2008/2008482/KL2008482.txt
/home/sarah/watchtower/even/2008/2008285/KL2008285.txt
/home/sarah/watchtower/even/2008/2008841/KL2008841.txt
/home/sarah/watchtower/even/2008/2008562/KL2008562.txt
/home/sarah/watchtower/even/2008/2008326/KL2008326.txt
/home/sarah/watchtower/even/2008/2008804/KL2008804.txt
/home/sarah/watchtower/even/2008/2008322/KL2008322.txt
/home/sarah/watchtower/even/2008/2008607/KL2008607.txt
/home/sarah/watchtower/even/2008/2008042/KL2008042.txt
/home/sarah/watchtower/even/2008/2008122/KL2008122.txt
/home/sarah/watchtower/even/2008/2008287/KL2008287.txt
/home/sarah/watchtower/even/2008/2008600/KL2008600.txt
/home/sarah/watchtower/even/2008/2008926/KL2008926.txt
/home/sarah/watchtower/even/2008/2008481/KL2008481.txt
/home/sarah/watchtower/even/2008/2008645/KL2008645.txt
/home/sarah/watchtower/even/2008/2008810/KL2008810.txt
/home/sarah/watchtower/even/2008/2008320/KL2008320.txt
/home/sarah/watchtower/even/2008/2008201/KL2008201.txt
/home/sarah/watchtower/even/2008/2008842/KL2008842.txt
/home/sarah/watchtower/even/2008/2008844/KL2008844.txt
/home/sarah/watchtower/even/2008/2008814/KL2008814.txt
/home/sarah/watchtower/even/2008/2008605/KL2008605.txt
/home/sarah/watchtower/even/2008/2008328/KL2008328.txt
/home/sarah/watchtower/even/2008/2008049/KL2008049.txt
/home/sarah/watchtower/even/2008/2008885/KL2008885.txt
/home/sarah/watchtower/even/2008/2008604/KL2008604.txt
/home/sarah/watchtower/even/2008/2008002/KL2008002.txt
/home/sarah/watchtower/even/2008/2008520/KL2008520.txt
/home/sarah/watchtower/even/2008/2008689/KL2008689.txt
/home/sarah/watchtower/even/2008/2008807/KL2008807.txt
/home/sarah/watchtower/even/2008/2008449/KL2008449.txt
/home/sarah/watchtower/even/2008/2008003/KL2008003.txt
/home/sarah/watchtower/even/2008/2008763/KL2008763.txt
/home/sarah/watchtower/even/2008/2008450/KL2008450.txt
/home/sarah/watchtower/even/2008/2008880/KL2008880.txt
/home/sarah/watchtower/even/2008/2008208/KL2008208.txt
/home/sarah/watchtower/even/2008/2008843/KL2008843.txt
/home/sarah/watchtower/even/2008/2008400/KL2008400.txt
/home/sarah/watchtower/even/2008/2008764/KL2008764.txt
/home/sarah/watchtower/even/2008/2008363/KL2008363.txt
/home/sarah/watchtower/even/2008/2008166/KL2008166.txt
/home/sarah/watchtower/even/2008/2008653/KL2008653.txt
/home/sarah/watchtower/even/2008/2008368/KL2008368.txt
/home/sarah/watchtower/even/2008/2008364/KL2008364.txt
/home/sarah/watchtower/even/2008/2008242/KL2008242.txt
/home/sarah/watchtower/even/2008/2008683/KL2008683.txt
/home/sarah/watchtower/even/2008/2008401/KL2008401.txt
/home/sarah/watchtower/even/2008/2008681/KL2008681.txt
/home/sarah/watchtower/even/2008/2008601/KL2008601.txt
/home/sarah/watchtower/even/2008/2008410/KL2008410.txt
/home/sarah/watchtower/even/2008/2008523/KL2008523.txt
/home/sarah/watchtower/even/2008/2008724/KL2008724.txt
/home/sarah/watchtower/even/2008/2008603/KL2008603.txt
/home/sarah/watchtower/even/2008/2008284/KL2008284.txt
/home/sarah/watchtower/even/2008/2008922/KL2008922.txt
/home/sarah/watchtower/even/2008/2008921/KL2008921.txt
/home/sarah/watchtower/even/2008/2008088/KL2008088.txt
/home/sarah/watchtower/even/2008/2008365/KL2008365.txt
/home/sarah/watchtower/even/2008/2008768/KL2008768.txt
/home/sarah/watchtower/even/2008/2008046/KL2008046.txt
/home/sarah/watchtower/even/2008/2008721/KL2008721.txt
/home/sarah/watchtower/even/2008/2008043/KL2008043.txt
/home/sarah/watchtower/even/2008/2008765/KL2008765.txt
/home/sarah/watchtower/even/2008/2008522/KL2008522.txt
/home/sarah/watchtower/even/2008/2008283/KL2008283.txt
/home/sarah/watchtower/even/2008/2008480/KL2008480.txt
/home/sarah/watchtower/even/2008/2008680/KL2008680.txt
/home/sarah/watchtower/even/2008/2008521/KL2008521.txt
/home/sarah/watchtower/even/2008/2008723/KL2008723.txt
/home/sarah/watchtower/even/2008/2008124/KL2008124.txt
/home/sarah/watchtower/even/2008/2008161/KL2008161.txt
/home/sarah/watchtower/even/2008/2008920/KL2008920.txt
/home/sarah/watchtower/even/2002/2002608/KL2002608.txt
/home/sarah/watchtower/even/2002/2002403/KL2002403.txt
/home/sarah/watchtower/even/2002/2002045/KL2002045.txt
/home/sarah/watchtower/even/2002/2002243/KL2002243.txt
/home/sarah/watchtower/even/2002/2002761/KL2002761.txt
/home/sarah/watchtower/even/2002/2002884/KL2002884.txt
/home/sarah/watchtower/even/2002/2002525/KL2002525.txt
/home/sarah/watchtower/even/2002/2002242/KL2002242.txt
/home/sarah/watchtower/even/2002/2002366/KL2002366.txt
/home/sarah/watchtower/even/2002/2002562/KL2002562.txt
/home/sarah/watchtower/even/2002/2002166/KL2002166.txt
/home/sarah/watchtower/even/2002/2002002/KL2002002.txt
/home/sarah/watchtower/even/2002/2002725/KL2002725.txt
/home/sarah/watchtower/even/2002/2002886/KL2002886.txt
/home/sarah/watchtower/even/2002/2002523/KL2002523.txt
/home/sarah/watchtower/even/2002/2002325/KL2002325.txt
/home/sarah/watchtower/even/2002/2002924/KL2002924.txt
/home/sarah/watchtower/even/2002/2002126/KL2002126.txt
/home/sarah/watchtower/even/2002/2002086/KL2002086.txt
/home/sarah/watchtower/even/2002/2002482/KL2002482.txt
/home/sarah/watchtower/even/2002/2002728/KL2002728.txt
/home/sarah/watchtower/even/2002/2002644/KL2002644.txt
/home/sarah/watchtower/even/2002/2002005/KL2002005.txt
/home/sarah/watchtower/even/2002/2002641/KL2002641.txt
/home/sarah/watchtower/even/2002/2002563/KL2002563.txt
/home/sarah/watchtower/even/2002/2002443/KL2002443.txt
/home/sarah/watchtower/even/2002/2002843/KL2002843.txt
/home/sarah/watchtower/even/2002/2002288/KL2002288.txt
/home/sarah/watchtower/even/2002/2002889/KL2002889.txt
/home/sarah/watchtower/even/2002/2002088/KL2002088.txt
/home/sarah/watchtower/even/2002/2002323/KL2002323.txt
/home/sarah/watchtower/even/2002/2002085/KL2002085.txt
/home/sarah/watchtower/even/2002/2002526/KL2002526.txt
/home/sarah/watchtower/even/2002/2002808/KL2002808.txt
/home/sarah/watchtower/even/2002/2002603/KL2002603.txt
/home/sarah/watchtower/even/2002/2002607/KL2002607.txt
/home/sarah/watchtower/even/2002/2002809/KL2002809.txt
/home/sarah/watchtower/even/2002/2002880/KL2002880.txt
/home/sarah/watchtower/even/2002/2002923/KL2002923.txt
/home/sarah/watchtower/even/2002/2002888/KL2002888.txt
/home/sarah/watchtower/even/2002/2002883/KL2002883.txt
/home/sarah/watchtower/even/2002/2002169/KL2002169.txt
/home/sarah/watchtower/even/2002/2002364/KL2002364.txt
/home/sarah/watchtower/even/2002/2002760/KL2002760.txt
/home/sarah/watchtower/even/2002/2002321/KL2002321.txt
/home/sarah/watchtower/even/2002/2002121/KL2002121.txt
/home/sarah/watchtower/even/2002/2002802/KL2002802.txt
/home/sarah/watchtower/even/2002/2002083/KL2002083.txt
/home/sarah/watchtower/even/2002/2002640/KL2002640.txt
/home/sarah/watchtower/even/2002/2002682/KL2002682.txt
/home/sarah/watchtower/even/2002/2002241/KL2002241.txt
/home/sarah/watchtower/even/2002/2002161/KL2002161.txt
/home/sarah/watchtower/even/2002/2002449/KL2002449.txt
/home/sarah/watchtower/even/2002/2002244/KL2002244.txt
/home/sarah/watchtower/even/2002/2002763/KL2002763.txt
/home/sarah/watchtower/even/2002/2002203/KL2002203.txt
/home/sarah/watchtower/even/2002/2002881/KL2002881.txt
/home/sarah/watchtower/even/2002/2002240/KL2002240.txt
/home/sarah/watchtower/even/2002/2002404/KL2002404.txt
/home/sarah/watchtower/even/2002/2002160/KL2002160.txt
/home/sarah/watchtower/even/2002/2002488/KL2002488.txt
/home/sarah/watchtower/even/2002/2002720/KL2002720.txt
/home/sarah/watchtower/even/2002/2002120/KL2002120.txt
/home/sarah/watchtower/even/2002/2002283/KL2002283.txt
/home/sarah/watchtower/even/2002/2002643/KL2002643.txt
/home/sarah/watchtower/even/2002/2002604/KL2002604.txt
/home/sarah/watchtower/even/2002/2002564/KL2002564.txt
/home/sarah/watchtower/even/2002/2002320/KL2002320.txt
/home/sarah/watchtower/even/2002/2002247/KL2002247.txt
/home/sarah/watchtower/even/2002/2002040/KL2002040.txt
/home/sarah/watchtower/even/2002/2002089/KL2002089.txt
/home/sarah/watchtower/even/2002/2002803/KL2002803.txt
/home/sarah/watchtower/even/2002/2002004/KL2002004.txt
/home/sarah/watchtower/even/2002/2002360/KL2002360.txt
/home/sarah/watchtower/even/2002/2002041/KL2002041.txt
/home/sarah/watchtower/even/2002/2002401/KL2002401.txt
/home/sarah/watchtower/even/2002/2002887/KL2002887.txt
/home/sarah/watchtower/even/2002/2002324/KL2002324.txt
/home/sarah/watchtower/even/2002/2002524/KL2002524.txt
/home/sarah/watchtower/even/2002/2002804/KL2002804.txt
/home/sarah/watchtower/even/2002/2002489/KL2002489.txt
/home/sarah/watchtower/even/2002/2002721/KL2002721.txt
/home/sarah/watchtower/even/2002/2002207/KL2002207.txt
/home/sarah/watchtower/even/2002/2002369/KL2002369.txt
/home/sarah/watchtower/even/2002/2002361/KL2002361.txt
/home/sarah/watchtower/even/2002/2002561/KL2002561.txt
/home/sarah/watchtower/even/2002/2002405/KL2002405.txt
/home/sarah/watchtower/even/2002/2002289/KL2002289.txt
/home/sarah/watchtower/even/2002/2002684/KL2002684.txt
/home/sarah/watchtower/even/2002/2002003/KL2002003.txt
/home/sarah/watchtower/even/2002/2002762/KL2002762.txt
/home/sarah/watchtower/even/2002/2002168/KL2002168.txt
/home/sarah/watchtower/even/2002/2002560/KL2002560.txt
/home/sarah/watchtower/even/2002/2002202/KL2002202.txt
/home/sarah/watchtower/even/2002/2002042/KL2002042.txt
/home/sarah/watchtower/even/2002/2002400/KL2002400.txt
/home/sarah/watchtower/even/2002/2002164/KL2002164.txt
/home/sarah/watchtower/even/2002/2002444/KL2002444.txt
/home/sarah/watchtower/even/2002/2002683/KL2002683.txt
/home/sarah/watchtower/even/2002/2002084/KL2002084.txt
/home/sarah/watchtower/even/2002/2002724/KL2002724.txt
/home/sarah/watchtower/even/2002/2002322/KL2002322.txt
/home/sarah/watchtower/even/2002/2002284/KL2002284.txt
/home/sarah/watchtower/even/2002/2002842/KL2002842.txt
/home/sarah/watchtower/even/2010/2010686/KL2010686.txt
/home/sarah/watchtower/even/2010/2010122/KL2010122.txt
/home/sarah/watchtower/even/2010/2010682/KL2010682.txt
/home/sarah/watchtower/even/2010/2010326/KL2010326.txt
/home/sarah/watchtower/even/2010/2010848/KL2010848.txt
/home/sarah/watchtower/even/2010/2010042/KL2010042.txt
/home/sarah/watchtower/even/2010/2010321/KL2010321.txt
/home/sarah/watchtower/even/2010/2010402/KL2010402.txt
/home/sarah/watchtower/even/2010/2010801/KL2010801.txt
/home/sarah/watchtower/even/2010/2010361/KL2010361.txt
/home/sarah/watchtower/even/2010/2010642/KL2010642.txt
/home/sarah/watchtower/even/2010/2010362/KL2010362.txt
/home/sarah/watchtower/even/2010/2010013/KL2010013.txt
/home/sarah/watchtower/even/2010/2010804/KL2010804.txt
/home/sarah/watchtower/even/2010/2010881/KL2010881.txt
/home/sarah/watchtower/even/2010/2010722/KL2010722.txt
/home/sarah/watchtower/even/2010/2010441/KL2010441.txt
/home/sarah/watchtower/even/2010/2010684/KL2010684.txt
/home/sarah/watchtower/even/2010/2010726/KL2010726.txt
/home/sarah/watchtower/even/2010/2010802/KL2010802.txt
/home/sarah/watchtower/even/2010/2010123/KL2010123.txt
/home/sarah/watchtower/even/2010/2010245/KL2010245.txt
/home/sarah/watchtower/even/2010/2010281/KL2010281.txt
/home/sarah/watchtower/even/2010/2010923/KL2010923.txt
/home/sarah/watchtower/even/2010/2010205/KL2010205.txt
/home/sarah/watchtower/even/2010/2010204/KL2010204.txt
/home/sarah/watchtower/even/2010/2010085/KL2010085.txt
/home/sarah/watchtower/even/2010/2010803/KL2010803.txt
/home/sarah/watchtower/even/2010/2010924/KL2010924.txt
/home/sarah/watchtower/even/2010/2010443/KL2010443.txt
/home/sarah/watchtower/even/2010/2010521/KL2010521.txt
/home/sarah/watchtower/even/2010/2010805/KL2010805.txt
/home/sarah/watchtower/even/2010/2010442/KL2010442.txt
/home/sarah/watchtower/even/2010/2010120/KL2010120.txt
/home/sarah/watchtower/even/2010/2010523/KL2010523.txt
/home/sarah/watchtower/even/2010/2010254/KL2010254.txt
/home/sarah/watchtower/even/2010/2010562/KL2010562.txt
/home/sarah/watchtower/even/2010/2010242/KL2010242.txt
/home/sarah/watchtower/even/2010/2010444/KL2010444.txt
/home/sarah/watchtower/even/2010/2010729/KL2010729.txt
/home/sarah/watchtower/even/2010/2010883/KL2010883.txt
/home/sarah/watchtower/even/2010/2010088/KL2010088.txt
/home/sarah/watchtower/even/2010/2010322/KL2010322.txt
/home/sarah/watchtower/even/2010/2010248/KL2010248.txt
/home/sarah/watchtower/even/2010/2010524/KL2010524.txt
/home/sarah/watchtower/even/2010/2010882/KL2010882.txt
/home/sarah/watchtower/even/2010/2010046/KL2010046.txt
/home/sarah/watchtower/even/2010/2010606/KL2010606.txt
/home/sarah/watchtower/even/2010/2010282/KL2010282.txt
/home/sarah/watchtower/even/2010/2010202/KL2010202.txt
/home/sarah/watchtower/even/2010/2010003/KL2010003.txt
/home/sarah/watchtower/even/2010/2010169/KL2010169.txt
/home/sarah/watchtower/even/2010/2010483/KL2010483.txt
/home/sarah/watchtower/even/2010/2010001/KL2010001.txt
/home/sarah/watchtower/even/2010/2010922/KL2010922.txt
/home/sarah/watchtower/even/2010/2010603/KL2010603.txt
/home/sarah/watchtower/even/2010/2010363/KL2010363.txt
/home/sarah/watchtower/even/2010/2010842/KL2010842.txt
/home/sarah/watchtower/even/2010/2010332/KL2010332.txt
/home/sarah/watchtower/even/2010/2010201/KL2010201.txt
/home/sarah/watchtower/even/2010/2010723/KL2010723.txt
/home/sarah/watchtower/even/2010/2010484/KL2010484.txt
/home/sarah/watchtower/even/2010/2010761/KL2010761.txt
/home/sarah/watchtower/even/2010/2010522/KL2010522.txt
/home/sarah/watchtower/even/2010/2010124/KL2010124.txt
/home/sarah/watchtower/even/2010/2010764/KL2010764.txt
/home/sarah/watchtower/even/2010/2010241/KL2010241.txt
/home/sarah/watchtower/even/2010/2010732/KL2010732.txt
/home/sarah/watchtower/even/2010/2010721/KL2010721.txt
/home/sarah/watchtower/even/2010/2010724/KL2010724.txt
/home/sarah/watchtower/even/2010/2010563/KL2010563.txt
/home/sarah/watchtower/even/2010/2010762/KL2010762.txt
/home/sarah/watchtower/even/2010/2010841/KL2010841.txt
/home/sarah/watchtower/even/2010/2010847/KL2010847.txt
/home/sarah/watchtower/even/2010/2010043/KL2010043.txt
/home/sarah/watchtower/even/2010/2010641/KL2010641.txt
/home/sarah/watchtower/even/2010/2010683/KL2010683.txt
/home/sarah/watchtower/even/2010/2010401/KL2010401.txt
/home/sarah/watchtower/even/2010/2010008/KL2010008.txt
/home/sarah/watchtower/even/2010/2010685/KL2010685.txt
/home/sarah/watchtower/even/2010/2010445/KL2010445.txt
/home/sarah/watchtower/even/2010/2010002/KL2010002.txt
/home/sarah/watchtower/even/2010/2010604/KL2010604.txt
/home/sarah/watchtower/even/2010/2010818/KL2010818.txt
/home/sarah/watchtower/even/2010/2010243/KL2010243.txt
/home/sarah/watchtower/even/2010/2010414/KL2010414.txt
/home/sarah/watchtower/even/2010/2010244/KL2010244.txt
/home/sarah/watchtower/even/2010/2010047/KL2010047.txt
/home/sarah/watchtower/even/2010/2010925/KL2010925.txt
/home/sarah/watchtower/even/2010/2010246/KL2010246.txt
/home/sarah/watchtower/even/2010/2010725/KL2010725.txt
/home/sarah/watchtower/even/2010/2010482/KL2010482.txt
/home/sarah/watchtower/even/2010/2010041/KL2010041.txt
/home/sarah/watchtower/even/2010/2010255/KL2010255.txt
/home/sarah/watchtower/even/2010/2010283/KL2010283.txt
/home/sarah/watchtower/even/2010/2010843/KL2010843.txt
/home/sarah/watchtower/even/2010/2010608/KL2010608.txt
/home/sarah/watchtower/even/2010/2010364/KL2010364.txt
/home/sarah/watchtower/even/2010/2010561/KL2010561.txt
/home/sarah/watchtower/even/2010/2010284/KL2010284.txt
/home/sarah/watchtower/even/2010/2010765/KL2010765.txt
/home/sarah/watchtower/even/2010/2010727/KL2010727.txt
/home/sarah/watchtower/even/2000/150100/2000045/KL2000045.txt
/home/sarah/watchtower/even/2000/150100/2000045/._KL2000045.txt
/home/sarah/watchtower/even/2000/150100/2000041/._KL2000041.txt
/home/sarah/watchtower/even/2000/150100/2000041/KL2000041.txt
/home/sarah/watchtower/even/2000/150100/2000044/._KL2000044.txt
/home/sarah/watchtower/even/2000/150100/2000044/KL2000044.txt
/home/sarah/watchtower/even/2000/150100/2000040/._KL2000040.txt
/home/sarah/watchtower/even/2000/150100/2000040/KL2000040.txt
/home/sarah/watchtower/even/2000/010900/2000641/KL2000641.txt
/home/sarah/watchtower/even/2000/010900/2000641/._KL2000641.txt
/home/sarah/watchtower/even/2000/010900/2000648/._KL2000648.txt
/home/sarah/watchtower/even/2000/010900/2000648/KL2000648.txt
/home/sarah/watchtower/even/2000/010900/2000643/._KL2000643.txt
/home/sarah/watchtower/even/2000/010900/2000643/KL2000643.txt
/home/sarah/watchtower/even/2000/010900/2000642/KL2000642.txt
/home/sarah/watchtower/even/2000/010900/2000642/._KL2000642.txt
/home/sarah/watchtower/even/2000/010900/2000644/KL2000644.txt
/home/sarah/watchtower/even/2000/010900/2000644/._KL2000644.txt
/home/sarah/watchtower/even/2000/010900/2000640/KL2000640.txt
/home/sarah/watchtower/even/2000/010900/2000640/._KL2000640.txt
/home/sarah/watchtower/even/2000/010400/2000248/._KL2000248.txt
/home/sarah/watchtower/even/2000/010400/2000248/KL2000248.txt
/home/sarah/watchtower/even/2000/010400/2000245/KL2000245.txt
/home/sarah/watchtower/even/2000/010400/2000245/._KL2000245.txt
/home/sarah/watchtower/even/2000/010500/2000325/KL2000325.txt
/home/sarah/watchtower/even/2000/010500/2000325/._KL2000325.txt
/home/sarah/watchtower/even/2000/010500/2000321/KL2000321.txt
/home/sarah/watchtower/even/2000/010500/2000321/._KL2000321.txt
/home/sarah/watchtower/even/2000/010500/2000328/._KL2000328.txt
/home/sarah/watchtower/even/2000/010500/2000328/KL2000328.txt
/home/sarah/watchtower/even/2000/010500/2000327/._KL2000327.txt
/home/sarah/watchtower/even/2000/010500/2000327/KL2000327.txt
/home/sarah/watchtower/even/2000/010500/2000320/._KL2000320.txt
/home/sarah/watchtower/even/2000/010500/2000320/KL2000320.txt
/home/sarah/watchtower/even/2000/010700/2000481/._KL2000481.txt
/home/sarah/watchtower/even/2000/010700/2000481/KL2000481.txt
/home/sarah/watchtower/even/2000/010700/2000485/KL2000485.txt
/home/sarah/watchtower/even/2000/010700/2000485/._KL2000485.txt
/home/sarah/watchtower/even/2000/010700/2000480/._KL2000480.txt
/home/sarah/watchtower/even/2000/010700/2000480/KL2000480.txt
/home/sarah/watchtower/even/2000/010700/2000486/._KL2000486.txt
/home/sarah/watchtower/even/2000/010700/2000486/KL2000486.txt
/home/sarah/watchtower/even/2000/010700/2000484/._KL2000484.txt
/home/sarah/watchtower/even/2000/010700/2000484/KL2000484.txt
/home/sarah/watchtower/even/2000/150700/2000520/._KL2000520.txt
/home/sarah/watchtower/even/2000/150700/2000520/KL2000520.txt
/home/sarah/watchtower/even/2000/150700/2000521/._KL2000521.txt
/home/sarah/watchtower/even/2000/150700/2000521/KL2000521.txt
/home/sarah/watchtower/even/2000/150700/2000528/._KL2000528.txt
/home/sarah/watchtower/even/2000/150700/2000528/KL2000528.txt
/home/sarah/watchtower/even/2000/150400/2000286/KL2000286.txt
/home/sarah/watchtower/even/2000/150400/2000286/._KL2000286.txt
/home/sarah/watchtower/even/2000/150400/2000282/._KL2000282.txt
/home/sarah/watchtower/even/2000/150400/2000282/KL2000282.txt
/home/sarah/watchtower/even/2000/150400/2000283/._KL2000283.txt
/home/sarah/watchtower/even/2000/150400/2000283/KL2000283.txt
/home/sarah/watchtower/even/2000/150300/2000205/._KL2000205.txt
/home/sarah/watchtower/even/2000/150300/2000205/KL2000205.txt
/home/sarah/watchtower/even/2000/150300/2000204/._KL2000204.txt
/home/sarah/watchtower/even/2000/150300/2000204/KL2000204.txt
/home/sarah/watchtower/even/2000/150300/2000200/KL2000200.txt
/home/sarah/watchtower/even/2000/150300/2000200/._KL2000200.txt
/home/sarah/watchtower/even/2000/150300/2000201/._KL2000201.txt
/home/sarah/watchtower/even/2000/150300/2000201/KL2000201.txt
/home/sarah/watchtower/even/2000/010300/2000163/._KL2000163.txt
/home/sarah/watchtower/even/2000/010300/2000163/KL2000163.txt
/home/sarah/watchtower/even/2000/010300/2000162/._KL2000162.txt
/home/sarah/watchtower/even/2000/010300/2000162/KL2000162.txt
/home/sarah/watchtower/even/2000/010300/2000166/._KL2000166.txt
/home/sarah/watchtower/even/2000/010300/2000166/KL2000166.txt
/home/sarah/watchtower/even/2000/150500/2000367/._KL2000367.txt
/home/sarah/watchtower/even/2000/150500/2000367/KL2000367.txt
/home/sarah/watchtower/even/2000/150500/2000363/._KL2000363.txt
/home/sarah/watchtower/even/2000/150500/2000363/KL2000363.txt
/home/sarah/watchtower/even/2000/150500/2000362/._KL2000362.txt
/home/sarah/watchtower/even/2000/150500/2000362/KL2000362.txt
/home/sarah/watchtower/even/2000/150500/2000364/._KL2000364.txt
/home/sarah/watchtower/even/2000/150500/2000364/KL2000364.txt
/home/sarah/watchtower/even/2000/010100/2000006/._KL2000006.txt
/home/sarah/watchtower/even/2000/010100/2000006/KL2000006.txt
/home/sarah/watchtower/even/2000/010100/2000003/KL2000003.txt
/home/sarah/watchtower/even/2000/010100/2000003/._KL2000003.txt
/home/sarah/watchtower/even/2000/010100/2000005/KL2000005.txt
/home/sarah/watchtower/even/2000/010100/2000005/._KL2000005.txt
/home/sarah/watchtower/even/2000/150800/2000609/._KL2000609.txt
/home/sarah/watchtower/even/2000/150800/2000609/KL2000609.txt
/home/sarah/watchtower/even/2000/150800/2000606/KL2000606.txt
/home/sarah/watchtower/even/2000/150800/2000606/._KL2000606.txt
/home/sarah/watchtower/even/2000/150800/2000605/._KL2000605.txt
/home/sarah/watchtower/even/2000/150800/2000605/KL2000605.txt
/home/sarah/watchtower/even/2000/010600/2000401/._KL2000401.txt
/home/sarah/watchtower/even/2000/010600/2000401/KL2000401.txt
/home/sarah/watchtower/even/2000/010600/2000407/KL2000407.txt
/home/sarah/watchtower/even/2000/010600/2000407/._KL2000407.txt
/home/sarah/watchtower/even/2000/010600/2000402/KL2000402.txt
/home/sarah/watchtower/even/2000/010600/2000402/._KL2000402.txt
/home/sarah/watchtower/even/2000/010600/2000400/._KL2000400.txt
/home/sarah/watchtower/even/2000/010600/2000400/KL2000400.txt
/home/sarah/watchtower/even/2000/010600/2000406/KL2000406.txt
/home/sarah/watchtower/even/2000/010600/2000406/._KL2000406.txt
/home/sarah/watchtower/even/2000/010200/2000087/._KL2000087.txt
/home/sarah/watchtower/even/2000/010200/2000087/KL2000087.txt
/home/sarah/watchtower/even/2000/010200/2000084/._KL2000084.txt
/home/sarah/watchtower/even/2000/010200/2000084/KL2000084.txt
/home/sarah/watchtower/even/2000/010200/2000083/KL2000083.txt
/home/sarah/watchtower/even/2000/010200/2000083/._KL2000083.txt
/home/sarah/watchtower/even/2000/010200/2000088/._KL2000088.txt
/home/sarah/watchtower/even/2000/010200/2000088/KL2000088.txt
/home/sarah/watchtower/even/2000/010200/2000085/KL2000085.txt
/home/sarah/watchtower/even/2000/010200/2000085/._KL2000085.txt
/home/sarah/watchtower/even/2000/150600/2000443/._KL2000443.txt
/home/sarah/watchtower/even/2000/150600/2000443/KL2000443.txt
/home/sarah/watchtower/even/2000/150600/2000444/KL2000444.txt
/home/sarah/watchtower/even/2000/150600/2000444/._KL2000444.txt
/home/sarah/watchtower/even/2000/150600/2000448/KL2000448.txt
/home/sarah/watchtower/even/2000/150600/2000448/._KL2000448.txt
/home/sarah/watchtower/even/2000/010800/2000563/KL2000563.txt
/home/sarah/watchtower/even/2000/010800/2000563/._KL2000563.txt
/home/sarah/watchtower/even/2000/010800/2000564/KL2000564.txt
/home/sarah/watchtower/even/2000/010800/2000564/._KL2000564.txt
/home/sarah/watchtower/even/2000/010800/2000562/KL2000562.txt
/home/sarah/watchtower/even/2000/010800/2000562/._KL2000562.txt
/home/sarah/watchtower/even/2000/010800/2000565/._KL2000565.txt
/home/sarah/watchtower/even/2000/010800/2000565/KL2000565.txt
/home/sarah/watchtower/even/2000/010800/2000567/KL2000567.txt
/home/sarah/watchtower/even/2000/010800/2000567/._KL2000567.txt
/home/sarah/watchtower/even/2000/150200/2000123/._KL2000123.txt
/home/sarah/watchtower/even/2000/150200/2000123/KL2000123.txt
/home/sarah/watchtower/even/2000/150200/2000125/._KL2000125.txt
/home/sarah/watchtower/even/2000/150200/2000125/KL2000125.txt
/home/sarah/watchtower/even/2000/150200/2000122/KL2000122.txt
/home/sarah/watchtower/even/2000/150200/2000122/._KL2000122.txt
/home/sarah/watchtower/even/2000/150200/2000120/KL2000120.txt
/home/sarah/watchtower/even/2000/150200/2000120/._KL2000120.txt
/home/sarah/watchtower/even/2000/150200/2000121/._KL2000121.txt
/home/sarah/watchtower/even/2000/150200/2000121/KL2000121.txt
/home/sarah/watchtower/even/2000/150200/2000124/KL2000124.txt
/home/sarah/watchtower/even/2000/150200/2000124/._KL2000124.txt
/home/sarah/watchtower/even/2006/2006805/KL2006805.txt
/home/sarah/watchtower/even/2006/2006164/KL2006164.txt
/home/sarah/watchtower/even/2006/2006440/KL2006440.txt
/home/sarah/watchtower/even/2006/2006000/KL2006000.txt
/home/sarah/watchtower/even/2006/2006047/KL2006047.txt
/home/sarah/watchtower/even/2006/2006726/KL2006726.txt
/home/sarah/watchtower/even/2006/2006803/KL2006803.txt
/home/sarah/watchtower/even/2006/2006003/KL2006003.txt
/home/sarah/watchtower/even/2006/2006844/KL2006844.txt
/home/sarah/watchtower/even/2006/2006565/KL2006565.txt
/home/sarah/watchtower/even/2006/2006126/KL2006126.txt
/home/sarah/watchtower/even/2006/2006724/KL2006724.txt
/home/sarah/watchtower/even/2006/2006926/KL2006926.txt
/home/sarah/watchtower/even/2006/2006001/KL2006001.txt
/home/sarah/watchtower/even/2006/2006850/KL2006850.txt
/home/sarah/watchtower/even/2006/2006446/KL2006446.txt
/home/sarah/watchtower/even/2006/2006168/KL2006168.txt
/home/sarah/watchtower/even/2006/2006405/KL2006405.txt
/home/sarah/watchtower/even/2006/2006641/KL2006641.txt
/home/sarah/watchtower/even/2006/2006646/KL2006646.txt
/home/sarah/watchtower/even/2006/2006160/KL2006160.txt
/home/sarah/watchtower/even/2006/2006400/KL2006400.txt
/home/sarah/watchtower/even/2006/2006804/KL2006804.txt
/home/sarah/watchtower/even/2006/2006165/KL2006165.txt
/home/sarah/watchtower/even/2006/2006882/KL2006882.txt
/home/sarah/watchtower/even/2006/2006647/KL2006647.txt
/home/sarah/watchtower/even/2006/2006406/KL2006406.txt
/home/sarah/watchtower/even/2006/2006925/KL2006925.txt
/home/sarah/watchtower/even/2006/2006886/KL2006886.txt
/home/sarah/watchtower/even/2006/2006004/KL2006004.txt
/home/sarah/watchtower/even/2006/2006441/KL2006441.txt
/home/sarah/watchtower/even/2006/2006766/KL2006766.txt
/home/sarah/watchtower/even/2006/2006206/KL2006206.txt
/home/sarah/watchtower/even/2006/2006686/KL2006686.txt
/home/sarah/watchtower/even/2006/2006725/KL2006725.txt
/home/sarah/watchtower/even/2006/2006924/KL2006924.txt
/home/sarah/watchtower/even/2006/2006806/KL2006806.txt
/home/sarah/watchtower/even/2006/2006449/KL2006449.txt
/home/sarah/watchtower/even/2006/2006046/KL2006046.txt
/home/sarah/watchtower/even/2006/2006286/KL2006286.txt
/home/sarah/watchtower/even/2006/2006367/KL2006367.txt
/home/sarah/watchtower/even/2006/2006326/KL2006326.txt
/home/sarah/watchtower/even/2006/2006722/KL2006722.txt
/home/sarah/watchtower/even/2006/2006681/KL2006681.txt
/home/sarah/watchtower/even/2006/2006645/KL2006645.txt
/home/sarah/watchtower/even/2006/2006161/KL2006161.txt
/home/sarah/watchtower/even/2006/2006848/KL2006848.txt
/home/sarah/watchtower/even/2006/2006245/KL2006245.txt
/home/sarah/watchtower/even/2006/2006605/KL2006605.txt
/home/sarah/watchtower/even/2006/2006240/KL2006240.txt
/home/sarah/watchtower/even/2006/2006685/KL2006685.txt
/home/sarah/watchtower/even/2006/2006765/KL2006765.txt
/home/sarah/watchtower/even/2006/2006324/KL2006324.txt
/home/sarah/watchtower/even/2006/2006082/KL2006082.txt
/home/sarah/watchtower/even/2006/2006485/KL2006485.txt
/home/sarah/watchtower/even/2006/2006801/KL2006801.txt
/home/sarah/watchtower/even/2006/2006885/KL2006885.txt
/home/sarah/watchtower/even/2006/2006401/KL2006401.txt
/home/sarah/watchtower/even/2006/2006843/KL2006843.txt
/home/sarah/watchtower/even/2006/2006241/KL2006241.txt
/home/sarah/watchtower/even/2006/2006162/KL2006162.txt
/home/sarah/watchtower/even/2006/2006606/KL2006606.txt
/home/sarah/watchtower/even/2006/2006680/KL2006680.txt
/home/sarah/watchtower/even/2006/2006845/KL2006845.txt
/home/sarah/watchtower/even/2006/2006006/KL2006006.txt
/home/sarah/watchtower/even/2006/2006365/KL2006365.txt
/home/sarah/watchtower/even/2006/2006687/KL2006687.txt
/home/sarah/watchtower/even/2006/2006566/KL2006566.txt
/home/sarah/watchtower/even/2006/2006366/KL2006366.txt
/home/sarah/watchtower/even/2006/2006205/KL2006205.txt
/home/sarah/watchtower/even/2006/2006125/KL2006125.txt
/home/sarah/watchtower/even/2006/2006085/KL2006085.txt
/home/sarah/watchtower/even/2006/2006283/KL2006283.txt
/home/sarah/watchtower/even/2006/2006208/KL2006208.txt
/home/sarah/watchtower/even/2006/2006884/KL2006884.txt
/home/sarah/watchtower/even/2006/2006640/KL2006640.txt
/home/sarah/watchtower/even/2006/2006244/KL2006244.txt
/home/sarah/watchtower/even/2006/2006325/KL2006325.txt
/home/sarah/watchtower/even/2006/2006288/KL2006288.txt
/home/sarah/watchtower/even/2006/2006643/KL2006643.txt
/home/sarah/watchtower/even/2006/2006124/KL2006124.txt
/home/sarah/watchtower/even/2006/2006768/KL2006768.txt
/home/sarah/watchtower/even/2006/2006800/KL2006800.txt
/home/sarah/watchtower/even/2006/2006044/KL2006044.txt
/home/sarah/watchtower/even/2006/2006163/KL2006163.txt
/home/sarah/watchtower/even/2006/2006445/KL2006445.txt
/home/sarah/watchtower/even/2006/2006285/KL2006285.txt
/home/sarah/watchtower/even/2006/2006402/KL2006402.txt
/home/sarah/watchtower/even/2016/2016087/KL2016087.txt
/home/sarah/watchtower/even/2016/2016086/KL2016086.txt
/home/sarah/watchtower/even/2016/2016163/KL2016163.txt
/home/sarah/watchtower/even/2016/2016088/KL2016088.txt
/home/sarah/watchtower/even/2016/2016165/KL2016165.txt
/home/sarah/watchtower/even/2016/2016166/KL2016166.txt
/home/sarah/watchtower/even/2016/2016090/KL2016090.txt
/home/sarah/watchtower/even/2016/2016167/KL2016167.txt
/home/sarah/watchtower/even/2016/2016084/KL2016084.txt
/home/sarah/watchtower/even/2016/2016085/KL2016085.txt
/home/sarah/watchtower/even/2016/2016164/KL2016164.txt
/home/sarah/watchtower/even/2016/2016091/KL2016091.txt
