/home/sarah/watchtower/odd/2015/2015843/LAM2015843.txt
/home/sarah/watchtower/odd/2015/2015805/LAM2015805.txt
/home/sarah/watchtower/odd/2015/2015771/LAM2015771.txt
/home/sarah/watchtower/odd/2015/2015642/LAM2015642.txt
/home/sarah/watchtower/odd/2015/2015527/LAM2015527.txt
/home/sarah/watchtower/odd/2015/2015725/LAM2015725.txt
/home/sarah/watchtower/odd/2015/2015722/LAM2015722.txt
/home/sarah/watchtower/odd/2015/2015485/LAM2015485.txt
/home/sarah/watchtower/odd/2015/2015606/LAM2015606.txt
/home/sarah/watchtower/odd/2015/2015648/LAM2015648.txt
/home/sarah/watchtower/odd/2015/2015884/LAM2015884.txt
/home/sarah/watchtower/odd/2015/2015925/LAM2015925.txt
/home/sarah/watchtower/odd/2015/2015528/LAM2015528.txt
/home/sarah/watchtower/odd/2015/2015726/LAM2015726.txt
/home/sarah/watchtower/odd/2015/2015644/LAM2015644.txt
/home/sarah/watchtower/odd/2015/2015480/LAM2015480.txt
/home/sarah/watchtower/odd/2015/2015685/LAM2015685.txt
/home/sarah/watchtower/odd/2015/2015885/LAM2015885.txt
/home/sarah/watchtower/odd/2015/2015645/LAM2015645.txt
/home/sarah/watchtower/odd/2015/2015567/LAM2015567.txt
/home/sarah/watchtower/odd/2015/2015727/LAM2015727.txt
/home/sarah/watchtower/odd/2015/2015724/LAM2015724.txt
/home/sarah/watchtower/odd/2015/2015682/LAM2015682.txt
/home/sarah/watchtower/odd/2015/2015484/LAM2015484.txt
/home/sarah/watchtower/odd/2015/2015605/LAM2015605.txt
/home/sarah/watchtower/odd/2015/2015683/LAM2015683.txt
/home/sarah/watchtower/odd/2015/2015684/LAM2015684.txt
/home/sarah/watchtower/odd/2015/2015647/LAM2015647.txt
/home/sarah/watchtower/odd/2015/2015646/LAM2015646.txt
/home/sarah/watchtower/odd/2015/2015523/LAM2015523.txt
/home/sarah/watchtower/odd/2015/2015560/LAM2015560.txt
/home/sarah/watchtower/odd/2015/2015563/LAM2015563.txt
/home/sarah/watchtower/odd/2015/2015522/LAM2015522.txt
/home/sarah/watchtower/odd/2015/2015604/LAM2015604.txt
/home/sarah/watchtower/odd/2015/2015882/LAM2015882.txt
/home/sarah/watchtower/odd/2015/2015761/LAM2015761.txt
/home/sarah/watchtower/odd/2015/2015845/LAM2015845.txt
/home/sarah/watchtower/odd/2015/2015768/LAM2015768.txt
/home/sarah/watchtower/odd/2015/2015841/LAM2015841.txt
/home/sarah/watchtower/odd/2015/2015681/LAM2015681.txt
/home/sarah/watchtower/odd/2015/2015890/LAM2015890.txt
/home/sarah/watchtower/odd/2015/2015886/LAM2015886.txt
/home/sarah/watchtower/odd/2015/2015562/LAM2015562.txt
/home/sarah/watchtower/odd/2015/2015482/LAM2015482.txt
/home/sarah/watchtower/odd/2015/2015767/LAM2015767.txt
/home/sarah/watchtower/odd/2015/2015804/LAM2015804.txt
/home/sarah/watchtower/odd/2015/2015762/LAM2015762.txt
/home/sarah/watchtower/odd/2015/2015802/LAM2015802.txt
/home/sarah/watchtower/odd/2015/2015924/LAM2015924.txt
/home/sarah/watchtower/odd/2015/2015806/LAM2015806.txt
/home/sarah/watchtower/odd/2015/2015766/LAM2015766.txt
/home/sarah/watchtower/odd/2015/2015807/LAM2015807.txt
/home/sarah/watchtower/odd/2015/2015846/LAM2015846.txt
/home/sarah/watchtower/odd/2015/2015565/LAM2015565.txt
/home/sarah/watchtower/odd/2015/2015921/LAM2015921.txt
/home/sarah/watchtower/odd/2015/2015602/LAM2015602.txt
/home/sarah/watchtower/odd/2015/2015842/LAM2015842.txt
/home/sarah/watchtower/odd/2015/2015483/LAM2015483.txt
/home/sarah/watchtower/odd/2015/2015564/LAM2015564.txt
/home/sarah/watchtower/odd/2015/2015850/LAM2015850.txt
/home/sarah/watchtower/odd/2015/2015922/LAM2015922.txt
/home/sarah/watchtower/even/2016/2016087/LAM2016087.txt
/home/sarah/watchtower/even/2016/2016004/LAM2016004.txt
/home/sarah/watchtower/even/2016/2016086/LAM2016086.txt
/home/sarah/watchtower/even/2016/2016163/LAM2016163.txt
/home/sarah/watchtower/even/2016/2016045/LAM2016045.txt
/home/sarah/watchtower/even/2016/2016046/LAM2016046.txt
/home/sarah/watchtower/even/2016/2016047/LAM2016047.txt
/home/sarah/watchtower/even/2016/2016088/LAM2016088.txt
/home/sarah/watchtower/even/2016/2016002/LAM2016002.txt
/home/sarah/watchtower/even/2016/2016084/LAM2016084.txt
/home/sarah/watchtower/even/2016/2016085/LAM2016085.txt
/home/sarah/watchtower/even/2016/2016164/LAM2016164.txt
/home/sarah/watchtower/even/2016/2016003/LAM2016003.txt
/home/sarah/watchtower/even/2016/2016043/LAM2016043.txt
/home/sarah/watchtower/even/2016/2016042/LAM2016042.txt
