/home/sarah/watchtower/odd/2013/2013683/LUN2013683.txt
/home/sarah/watchtower/odd/2013/2013922/LUN2013922.txt
/home/sarah/watchtower/odd/2013/2013450/LUN2013450.txt
/home/sarah/watchtower/odd/2013/2013281/LUN2013281.txt
/home/sarah/watchtower/odd/2013/2013366/LUN2013366.txt
/home/sarah/watchtower/odd/2013/2013684/LUN2013684.txt
/home/sarah/watchtower/odd/2013/2013487/LUN2013487.txt
/home/sarah/watchtower/odd/2013/2013605/LUN2013605.txt
/home/sarah/watchtower/odd/2013/2013492/LUN2013492.txt
/home/sarah/watchtower/odd/2013/2013006/LUN2013006.txt
/home/sarah/watchtower/odd/2013/2013569/LUN2013569.txt
/home/sarah/watchtower/odd/2013/2013604/LUN2013604.txt
/home/sarah/watchtower/odd/2013/2013364/LUN2013364.txt
/home/sarah/watchtower/odd/2013/2013129/LUN2013129.txt
/home/sarah/watchtower/odd/2013/2013563/LUN2013563.txt
/home/sarah/watchtower/odd/2013/2013123/LUN2013123.txt
/home/sarah/watchtower/odd/2013/2013841/LUN2013841.txt
/home/sarah/watchtower/odd/2013/2013326/LUN2013326.txt
/home/sarah/watchtower/odd/2013/2013926/LUN2013926.txt
/home/sarah/watchtower/odd/2013/2013204/LUN2013204.txt
/home/sarah/watchtower/odd/2013/2013727/LUN2013727.txt
/home/sarah/watchtower/odd/2013/2013205/LUN2013205.txt
/home/sarah/watchtower/odd/2013/2013764/LUN2013764.txt
/home/sarah/watchtower/odd/2013/2013849/LUN2013849.txt
/home/sarah/watchtower/odd/2013/2013284/LUN2013284.txt
/home/sarah/watchtower/odd/2013/2013122/LUN2013122.txt
/home/sarah/watchtower/odd/2013/2013163/LUN2013163.txt
/home/sarah/watchtower/odd/2013/2013883/LUN2013883.txt
/home/sarah/watchtower/odd/2013/2013285/LUN2013285.txt
/home/sarah/watchtower/odd/2013/2013044/LUN2013044.txt
/home/sarah/watchtower/odd/2013/2013089/LUN2013089.txt
/home/sarah/watchtower/odd/2013/2013083/LUN2013083.txt
/home/sarah/watchtower/odd/2013/2013642/LUN2013642.txt
/home/sarah/watchtower/odd/2013/2013367/LUN2013367.txt
/home/sarah/watchtower/odd/2013/2013043/LUN2013043.txt
/home/sarah/watchtower/odd/2013/2013925/LUN2013925.txt
/home/sarah/watchtower/odd/2013/2013201/LUN2013201.txt
/home/sarah/watchtower/odd/2013/2013641/LUN2013641.txt
/home/sarah/watchtower/odd/2013/2013728/LUN2013728.txt
/home/sarah/watchtower/odd/2013/2013125/LUN2013125.txt
/home/sarah/watchtower/odd/2013/2013368/LUN2013368.txt
/home/sarah/watchtower/odd/2013/2013442/LUN2013442.txt
/home/sarah/watchtower/odd/2013/2013602/LUN2013602.txt
/home/sarah/watchtower/odd/2013/2013729/LUN2013729.txt
/home/sarah/watchtower/odd/2013/2013681/LUN2013681.txt
/home/sarah/watchtower/odd/2013/2013844/LUN2013844.txt
/home/sarah/watchtower/odd/2013/2013402/LUN2013402.txt
/home/sarah/watchtower/odd/2013/2013081/LUN2013081.txt
/home/sarah/watchtower/odd/2013/2013288/LUN2013288.txt
/home/sarah/watchtower/odd/2013/2013245/LUN2013245.txt
/home/sarah/watchtower/odd/2013/2013847/LUN2013847.txt
/home/sarah/watchtower/odd/2013/2013731/LUN2013731.txt
/home/sarah/watchtower/odd/2013/2013248/LUN2013248.txt
/home/sarah/watchtower/odd/2013/2013401/LUN2013401.txt
/home/sarah/watchtower/odd/2013/2013686/LUN2013686.txt
/home/sarah/watchtower/odd/2013/2013403/LUN2013403.txt
/home/sarah/watchtower/odd/2013/2013124/LUN2013124.txt
/home/sarah/watchtower/odd/2013/2013607/LUN2013607.txt
/home/sarah/watchtower/odd/2013/2013047/LUN2013047.txt
/home/sarah/watchtower/odd/2013/2013363/LUN2013363.txt
/home/sarah/watchtower/odd/2013/2013005/LUN2013005.txt
/home/sarah/watchtower/odd/2013/2013128/LUN2013128.txt
/home/sarah/watchtower/odd/2013/2013002/LUN2013002.txt
/home/sarah/watchtower/odd/2013/2013606/LUN2013606.txt
/home/sarah/watchtower/odd/2013/2013842/LUN2013842.txt
/home/sarah/watchtower/odd/2013/2013561/LUN2013561.txt
/home/sarah/watchtower/odd/2013/2013521/LUN2013521.txt
/home/sarah/watchtower/odd/2013/2013168/LUN2013168.txt
/home/sarah/watchtower/odd/2013/2013443/LUN2013443.txt
/home/sarah/watchtower/odd/2013/2013843/LUN2013843.txt
/home/sarah/watchtower/odd/2013/2013203/LUN2013203.txt
/home/sarah/watchtower/odd/2013/2013766/LUN2013766.txt
/home/sarah/watchtower/odd/2013/2013763/LUN2013763.txt
/home/sarah/watchtower/odd/2013/2013282/LUN2013282.txt
/home/sarah/watchtower/odd/2013/2013084/LUN2013084.txt
/home/sarah/watchtower/odd/2013/2013809/LUN2013809.txt
/home/sarah/watchtower/odd/2013/2013768/LUN2013768.txt
/home/sarah/watchtower/odd/2013/2013085/LUN2013085.txt
/home/sarah/watchtower/odd/2013/2013007/LUN2013007.txt
/home/sarah/watchtower/odd/2013/2013846/LUN2013846.txt
/home/sarah/watchtower/odd/2013/2013447/LUN2013447.txt
/home/sarah/watchtower/odd/2013/2013048/LUN2013048.txt
/home/sarah/watchtower/odd/2013/2013810/LUN2013810.txt
/home/sarah/watchtower/odd/2013/2013848/LUN2013848.txt
/home/sarah/watchtower/odd/2013/2013206/LUN2013206.txt
/home/sarah/watchtower/odd/2013/2013845/LUN2013845.txt
/home/sarah/watchtower/odd/2013/2013446/LUN2013446.txt
/home/sarah/watchtower/odd/2013/2013761/LUN2013761.txt
/home/sarah/watchtower/odd/2013/2013246/LUN2013246.txt
/home/sarah/watchtower/odd/2013/2013126/LUN2013126.txt
/home/sarah/watchtower/odd/2013/2013208/LUN2013208.txt
/home/sarah/watchtower/odd/2013/2013209/LUN2013209.txt
/home/sarah/watchtower/odd/2013/2013808/LUN2013808.txt
/home/sarah/watchtower/odd/2013/2013767/LUN2013767.txt
/home/sarah/watchtower/odd/2013/2013881/LUN2013881.txt
/home/sarah/watchtower/odd/2013/2013448/LUN2013448.txt
/home/sarah/watchtower/odd/2013/2013088/LUN2013088.txt
/home/sarah/watchtower/odd/2013/2013127/LUN2013127.txt
/home/sarah/watchtower/odd/2013/2013682/LUN2013682.txt
/home/sarah/watchtower/odd/2013/2013488/LUN2013488.txt
/home/sarah/watchtower/odd/2013/2013369/LUN2013369.txt
/home/sarah/watchtower/odd/2013/2013765/LUN2013765.txt
/home/sarah/watchtower/odd/2013/2013045/LUN2013045.txt
/home/sarah/watchtower/odd/2013/2013001/LUN2013001.txt
/home/sarah/watchtower/odd/2013/2013648/LUN2013648.txt
/home/sarah/watchtower/odd/2013/2013445/LUN2013445.txt
/home/sarah/watchtower/odd/2013/2013528/LUN2013528.txt
/home/sarah/watchtower/odd/2013/2013807/LUN2013807.txt
/home/sarah/watchtower/odd/2013/2013004/LUN2013004.txt
/home/sarah/watchtower/odd/2013/2013562/LUN2013562.txt
/home/sarah/watchtower/odd/2013/2013927/LUN2013927.txt
/home/sarah/watchtower/odd/2013/2013924/LUN2013924.txt
/home/sarah/watchtower/odd/2013/2013644/LUN2013644.txt
/home/sarah/watchtower/odd/2013/2013287/LUN2013287.txt
/home/sarah/watchtower/odd/2013/2013688/LUN2013688.txt
/home/sarah/watchtower/odd/2013/2013041/LUN2013041.txt
/home/sarah/watchtower/odd/2013/2013643/LUN2013643.txt
/home/sarah/watchtower/odd/2013/2013882/LUN2013882.txt
/home/sarah/watchtower/odd/2013/2013283/LUN2013283.txt
/home/sarah/watchtower/odd/2013/2013923/LUN2013923.txt
/home/sarah/watchtower/odd/2013/2013361/LUN2013361.txt
/home/sarah/watchtower/odd/2013/2013161/LUN2013161.txt
/home/sarah/watchtower/odd/2013/2013365/LUN2013365.txt
/home/sarah/watchtower/odd/2013/2013527/LUN2013527.txt
/home/sarah/watchtower/odd/2013/2013162/LUN2013162.txt
/home/sarah/watchtower/odd/2013/2013046/LUN2013046.txt
/home/sarah/watchtower/odd/2013/2013121/LUN2013121.txt
/home/sarah/watchtower/odd/2013/2013082/LUN2013082.txt
/home/sarah/watchtower/odd/2013/2013601/LUN2013601.txt
/home/sarah/watchtower/odd/2013/2013408/LUN2013408.txt
/home/sarah/watchtower/odd/2013/2013687/LUN2013687.txt
/home/sarah/watchtower/odd/2013/2013202/LUN2013202.txt
/home/sarah/watchtower/odd/2013/2013921/LUN2013921.txt
/home/sarah/watchtower/odd/2013/2013603/LUN2013603.txt
/home/sarah/watchtower/odd/2013/2013444/LUN2013444.txt
/home/sarah/watchtower/odd/2013/2013003/LUN2013003.txt
/home/sarah/watchtower/odd/2013/2013609/LUN2013609.txt
/home/sarah/watchtower/odd/2013/2013441/LUN2013441.txt
/home/sarah/watchtower/odd/2013/2013404/LUN2013404.txt
/home/sarah/watchtower/odd/2013/2013762/LUN2013762.txt
/home/sarah/watchtower/odd/2013/2013362/LUN2013362.txt
/home/sarah/watchtower/odd/2013/2013608/LUN2013608.txt
/home/sarah/watchtower/odd/2013/2013327/LUN2013327.txt
/home/sarah/watchtower/odd/2013/2013685/LUN2013685.txt
/home/sarah/watchtower/odd/2013/2013042/LUN2013042.txt
/home/sarah/watchtower/odd/2013/2013087/LUN2013087.txt
/home/sarah/watchtower/odd/2013/2013286/LUN2013286.txt
/home/sarah/watchtower/odd/2015/2015041/LUN2015041.txt
/home/sarah/watchtower/odd/2015/2015123/LUN2015123.txt
/home/sarah/watchtower/odd/2015/2015642/LUN2015642.txt
/home/sarah/watchtower/odd/2015/2015527/LUN2015527.txt
/home/sarah/watchtower/odd/2015/2015003/LUN2015003.txt
/home/sarah/watchtower/odd/2015/2015441/LUN2015441.txt
/home/sarah/watchtower/odd/2015/2015444/LUN2015444.txt
/home/sarah/watchtower/odd/2015/2015725/LUN2015725.txt
/home/sarah/watchtower/odd/2015/2015203/LUN2015203.txt
/home/sarah/watchtower/odd/2015/2015363/LUN2015363.txt
/home/sarah/watchtower/odd/2015/2015166/LUN2015166.txt
/home/sarah/watchtower/odd/2015/2015485/LUN2015485.txt
/home/sarah/watchtower/odd/2015/2015651/LUN2015651.txt
/home/sarah/watchtower/odd/2015/2015606/LUN2015606.txt
/home/sarah/watchtower/odd/2015/2015082/LUN2015082.txt
/home/sarah/watchtower/odd/2015/2015648/LUN2015648.txt
/home/sarah/watchtower/odd/2015/2015368/LUN2015368.txt
/home/sarah/watchtower/odd/2015/2015884/LUN2015884.txt
/home/sarah/watchtower/odd/2015/2015528/LUN2015528.txt
/home/sarah/watchtower/odd/2015/2015128/LUN2015128.txt
/home/sarah/watchtower/odd/2015/2015726/LUN2015726.txt
/home/sarah/watchtower/odd/2015/2015644/LUN2015644.txt
/home/sarah/watchtower/odd/2015/2015002/LUN2015002.txt
/home/sarah/watchtower/odd/2015/2015480/LUN2015480.txt
/home/sarah/watchtower/odd/2015/2015320/LUN2015320.txt
/home/sarah/watchtower/odd/2015/2015163/LUN2015163.txt
/home/sarah/watchtower/odd/2015/2015207/LUN2015207.txt
/home/sarah/watchtower/odd/2015/2015521/LUN2015521.txt
/home/sarah/watchtower/odd/2015/2015885/LUN2015885.txt
/home/sarah/watchtower/odd/2015/2015645/LUN2015645.txt
/home/sarah/watchtower/odd/2015/2015567/LUN2015567.txt
/home/sarah/watchtower/odd/2015/2015727/LUN2015727.txt
/home/sarah/watchtower/odd/2015/2015724/LUN2015724.txt
/home/sarah/watchtower/odd/2015/2015005/LUN2015005.txt
/home/sarah/watchtower/odd/2015/2015322/LUN2015322.txt
/home/sarah/watchtower/odd/2015/2015442/LUN2015442.txt
/home/sarah/watchtower/odd/2015/2015404/LUN2015404.txt
/home/sarah/watchtower/odd/2015/2015484/LUN2015484.txt
/home/sarah/watchtower/odd/2015/2015526/LUN2015526.txt
/home/sarah/watchtower/odd/2015/2015605/LUN2015605.txt
/home/sarah/watchtower/odd/2015/2015282/LUN2015282.txt
/home/sarah/watchtower/odd/2015/2015083/LUN2015083.txt
/home/sarah/watchtower/odd/2015/2015240/LUN2015240.txt
/home/sarah/watchtower/odd/2015/2015362/LUN2015362.txt
/home/sarah/watchtower/odd/2015/2015122/LUN2015122.txt
/home/sarah/watchtower/odd/2015/2015446/LUN2015446.txt
/home/sarah/watchtower/odd/2015/2015045/LUN2015045.txt
/home/sarah/watchtower/odd/2015/2015647/LUN2015647.txt
/home/sarah/watchtower/odd/2015/2015646/LUN2015646.txt
/home/sarah/watchtower/odd/2015/2015243/LUN2015243.txt
/home/sarah/watchtower/odd/2015/2015283/LUN2015283.txt
/home/sarah/watchtower/odd/2015/2015523/LUN2015523.txt
/home/sarah/watchtower/odd/2015/2015042/LUN2015042.txt
/home/sarah/watchtower/odd/2015/2015522/LUN2015522.txt
/home/sarah/watchtower/odd/2015/2015604/LUN2015604.txt
/home/sarah/watchtower/odd/2015/2015882/LUN2015882.txt
/home/sarah/watchtower/odd/2015/2015407/LUN2015407.txt
/home/sarah/watchtower/odd/2015/2015406/LUN2015406.txt
/home/sarah/watchtower/odd/2015/2015323/LUN2015323.txt
/home/sarah/watchtower/odd/2015/2015886/LUN2015886.txt
/home/sarah/watchtower/odd/2015/2015125/LUN2015125.txt
/home/sarah/watchtower/odd/2015/2015000/LUN2015000.txt
/home/sarah/watchtower/odd/2015/2015208/LUN2015208.txt
/home/sarah/watchtower/odd/2015/2015566/LUN2015566.txt
/home/sarah/watchtower/odd/2015/2015447/LUN2015447.txt
/home/sarah/watchtower/odd/2015/2015601/LUN2015601.txt
/home/sarah/watchtower/odd/2015/2015164/LUN2015164.txt
/home/sarah/watchtower/odd/2015/2015286/LUN2015286.txt
/home/sarah/watchtower/odd/2015/2015287/LUN2015287.txt
/home/sarah/watchtower/odd/2015/2015043/LUN2015043.txt
/home/sarah/watchtower/odd/2015/2015809/LUN2015809.txt
/home/sarah/watchtower/odd/2015/2015242/LUN2015242.txt
/home/sarah/watchtower/odd/2015/2015326/LUN2015326.txt
/home/sarah/watchtower/odd/2015/2015482/LUN2015482.txt
/home/sarah/watchtower/odd/2015/2015047/LUN2015047.txt
/home/sarah/watchtower/odd/2015/2015603/LUN2015603.txt
/home/sarah/watchtower/odd/2015/2015201/LUN2015201.txt
/home/sarah/watchtower/odd/2015/2015281/LUN2015281.txt
/home/sarah/watchtower/odd/2015/2015206/LUN2015206.txt
/home/sarah/watchtower/odd/2015/2015366/LUN2015366.txt
/home/sarah/watchtower/odd/2015/2015202/LUN2015202.txt
/home/sarah/watchtower/odd/2015/2015525/LUN2015525.txt
/home/sarah/watchtower/odd/2015/2015445/LUN2015445.txt
/home/sarah/watchtower/odd/2015/2015285/LUN2015285.txt
/home/sarah/watchtower/odd/2015/2015602/LUN2015602.txt
/home/sarah/watchtower/odd/2015/2015204/LUN2015204.txt
/home/sarah/watchtower/odd/2015/2015483/LUN2015483.txt
/home/sarah/watchtower/odd/2015/2015162/LUN2015162.txt
/home/sarah/watchtower/odd/2015/2015126/LUN2015126.txt
/home/sarah/watchtower/odd/2015/2015288/LUN2015288.txt
/home/sarah/watchtower/odd/2015/2015046/LUN2015046.txt
/home/sarah/watchtower/odd/2015/2015324/LUN2015324.txt
/home/sarah/watchtower/odd/2015/2015361/LUN2015361.txt
/home/sarah/watchtower/odd/2015/2015124/LUN2015124.txt
/home/sarah/watchtower/odd/2015/2015887/LUN2015887.txt
/home/sarah/watchtower/odd/2015/2015448/LUN2015448.txt
/home/sarah/watchtower/odd/2015/2015367/LUN2015367.txt
/home/sarah/watchtower/odd/2015/2015127/LUN2015127.txt
/home/sarah/watchtower/odd/2015/2015486/LUN2015486.txt
/home/sarah/watchtower/odd/2015/2015607/LUN2015607.txt
/home/sarah/watchtower/odd/2011/2011649/LUN2011649.txt
/home/sarah/watchtower/odd/2011/2011922/LUN2011922.txt
/home/sarah/watchtower/odd/2011/2011806/LUN2011806.txt
/home/sarah/watchtower/odd/2011/2011047/LUN2011047.txt
/home/sarah/watchtower/odd/2011/2011767/LUN2011767.txt
/home/sarah/watchtower/odd/2011/2011447/LUN2011447.txt
/home/sarah/watchtower/odd/2011/2011367/LUN2011367.txt
/home/sarah/watchtower/odd/2011/2011177/LUN2011177.txt
/home/sarah/watchtower/odd/2011/2011843/LUN2011843.txt
/home/sarah/watchtower/odd/2011/2011885/LUN2011885.txt
/home/sarah/watchtower/odd/2011/2011042/LUN2011042.txt
/home/sarah/watchtower/odd/2011/2011925/LUN2011925.txt
/home/sarah/watchtower/odd/2011/2011128/LUN2011128.txt
/home/sarah/watchtower/odd/2011/2011127/LUN2011127.txt
/home/sarah/watchtower/odd/2011/2011326/LUN2011326.txt
/home/sarah/watchtower/odd/2011/2011893/LUN2011893.txt
/home/sarah/watchtower/odd/2011/2011847/LUN2011847.txt
/home/sarah/watchtower/odd/2011/2011646/LUN2011646.txt
/home/sarah/watchtower/odd/2011/2011010/LUN2011010.txt
/home/sarah/watchtower/odd/2011/2011651/LUN2011651.txt
/home/sarah/watchtower/odd/2011/2011122/LUN2011122.txt
/home/sarah/watchtower/odd/2011/2011526/LUN2011526.txt
/home/sarah/watchtower/odd/2011/2011444/LUN2011444.txt
/home/sarah/watchtower/odd/2011/2011924/LUN2011924.txt
/home/sarah/watchtower/odd/2011/2011249/LUN2011249.txt
/home/sarah/watchtower/odd/2011/2011605/LUN2011605.txt
/home/sarah/watchtower/odd/2011/2011366/LUN2011366.txt
/home/sarah/watchtower/odd/2011/2011927/LUN2011927.txt
/home/sarah/watchtower/odd/2011/2011245/LUN2011245.txt
/home/sarah/watchtower/odd/2011/2011413/LUN2011413.txt
/home/sarah/watchtower/odd/2011/2011169/LUN2011169.txt
/home/sarah/watchtower/odd/2011/2011894/LUN2011894.txt
/home/sarah/watchtower/odd/2011/2011522/LUN2011522.txt
/home/sarah/watchtower/odd/2011/2011201/LUN2011201.txt
/home/sarah/watchtower/odd/2011/2011926/LUN2011926.txt
/home/sarah/watchtower/odd/2011/2011761/LUN2011761.txt
/home/sarah/watchtower/odd/2011/2011682/LUN2011682.txt
/home/sarah/watchtower/odd/2011/2011287/LUN2011287.txt
/home/sarah/watchtower/odd/2011/2011890/LUN2011890.txt
/home/sarah/watchtower/odd/2011/2011281/LUN2011281.txt
/home/sarah/watchtower/odd/2011/2011121/LUN2011121.txt
/home/sarah/watchtower/odd/2011/2011764/LUN2011764.txt
/home/sarah/watchtower/odd/2011/2011844/LUN2011844.txt
/home/sarah/watchtower/odd/2011/2011681/LUN2011681.txt
/home/sarah/watchtower/odd/2011/2011525/LUN2011525.txt
/home/sarah/watchtower/odd/2011/2011485/LUN2011485.txt
/home/sarah/watchtower/odd/2011/2011125/LUN2011125.txt
/home/sarah/watchtower/odd/2011/2011324/LUN2011324.txt
/home/sarah/watchtower/odd/2011/2011204/LUN2011204.txt
/home/sarah/watchtower/odd/2011/2011325/LUN2011325.txt
/home/sarah/watchtower/odd/2011/2011562/LUN2011562.txt
/home/sarah/watchtower/odd/2011/2011172/LUN2011172.txt
/home/sarah/watchtower/odd/2011/2011363/LUN2011363.txt
/home/sarah/watchtower/odd/2011/2011126/LUN2011126.txt
/home/sarah/watchtower/odd/2011/2011046/LUN2011046.txt
/home/sarah/watchtower/odd/2011/2011733/LUN2011733.txt
/home/sarah/watchtower/odd/2011/2011448/LUN2011448.txt
/home/sarah/watchtower/odd/2011/2011685/LUN2011685.txt
/home/sarah/watchtower/odd/2011/2011568/LUN2011568.txt
/home/sarah/watchtower/odd/2011/2011565/LUN2011565.txt
/home/sarah/watchtower/odd/2011/2011247/LUN2011247.txt
/home/sarah/watchtower/odd/2011/2011129/LUN2011129.txt
/home/sarah/watchtower/odd/2011/2011766/LUN2011766.txt
/home/sarah/watchtower/odd/2011/2011765/LUN2011765.txt
/home/sarah/watchtower/odd/2011/2011608/LUN2011608.txt
/home/sarah/watchtower/odd/2011/2011603/LUN2011603.txt
/home/sarah/watchtower/odd/2011/2011442/LUN2011442.txt
/home/sarah/watchtower/odd/2011/2011206/LUN2011206.txt
/home/sarah/watchtower/odd/2011/2011841/LUN2011841.txt
/home/sarah/watchtower/odd/2011/2011361/LUN2011361.txt
/home/sarah/watchtower/odd/2011/2011732/LUN2011732.txt
/home/sarah/watchtower/odd/2011/2011606/LUN2011606.txt
/home/sarah/watchtower/odd/2011/2011202/LUN2011202.txt
/home/sarah/watchtower/odd/2011/2011730/LUN2011730.txt
/home/sarah/watchtower/odd/2011/2011282/LUN2011282.txt
/home/sarah/watchtower/odd/2011/2011441/LUN2011441.txt
/home/sarah/watchtower/odd/2011/2011205/LUN2011205.txt
/home/sarah/watchtower/odd/2011/2011611/LUN2011611.txt
/home/sarah/watchtower/odd/2011/2011203/LUN2011203.txt
/home/sarah/watchtower/odd/2011/2011327/LUN2011327.txt
/home/sarah/watchtower/odd/2011/2011521/LUN2011521.txt
/home/sarah/watchtower/odd/2011/2011845/LUN2011845.txt
/home/sarah/watchtower/odd/2011/2011041/LUN2011041.txt
/home/sarah/watchtower/odd/2011/2011246/LUN2011246.txt
/home/sarah/watchtower/odd/2011/2011762/LUN2011762.txt
/home/sarah/watchtower/odd/2011/2011684/LUN2011684.txt
/home/sarah/watchtower/odd/2011/2011763/LUN2011763.txt
/home/sarah/watchtower/odd/2011/2011082/LUN2011082.txt
/home/sarah/watchtower/odd/2011/2011610/LUN2011610.txt
/home/sarah/watchtower/odd/2011/2011087/LUN2011087.txt
/home/sarah/watchtower/odd/2011/2011802/LUN2011802.txt
/home/sarah/watchtower/odd/2011/2011283/LUN2011283.txt
/home/sarah/watchtower/odd/2011/2011364/LUN2011364.txt
/home/sarah/watchtower/odd/2011/2011365/LUN2011365.txt
/home/sarah/watchtower/odd/2011/2011409/LUN2011409.txt
/home/sarah/watchtower/odd/2011/2011446/LUN2011446.txt
/home/sarah/watchtower/odd/2011/2011735/LUN2011735.txt
/home/sarah/watchtower/odd/2011/2011411/LUN2011411.txt
/home/sarah/watchtower/odd/2011/2011081/LUN2011081.txt
/home/sarah/watchtower/odd/2011/2011686/LUN2011686.txt
/home/sarah/watchtower/odd/2011/2011285/LUN2011285.txt
/home/sarah/watchtower/odd/2011/2011564/LUN2011564.txt
/home/sarah/watchtower/odd/2011/2011407/LUN2011407.txt
/home/sarah/watchtower/odd/2011/2011607/LUN2011607.txt
/home/sarah/watchtower/odd/2011/2011322/LUN2011322.txt
/home/sarah/watchtower/odd/2011/2011321/LUN2011321.txt
/home/sarah/watchtower/odd/2011/2011443/LUN2011443.txt
/home/sarah/watchtower/odd/2011/2011445/LUN2011445.txt
/home/sarah/watchtower/odd/2011/2011563/LUN2011563.txt
/home/sarah/watchtower/odd/2011/2011009/LUN2011009.txt
/home/sarah/watchtower/odd/2011/2011286/LUN2011286.txt
/home/sarah/watchtower/odd/2011/2011323/LUN2011323.txt
/home/sarah/watchtower/odd/2011/2011524/LUN2011524.txt
/home/sarah/watchtower/odd/2011/2011043/LUN2011043.txt
/home/sarah/watchtower/odd/2011/2011842/LUN2011842.txt
/home/sarah/watchtower/odd/2011/2011891/LUN2011891.txt
/home/sarah/watchtower/odd/2011/2011923/LUN2011923.txt
/home/sarah/watchtower/odd/2011/2011683/LUN2011683.txt
/home/sarah/watchtower/odd/2011/2011491/LUN2011491.txt
/home/sarah/watchtower/odd/2011/2011045/LUN2011045.txt
/home/sarah/watchtower/odd/2011/2011846/LUN2011846.txt
/home/sarah/watchtower/odd/2011/2011523/LUN2011523.txt
/home/sarah/watchtower/odd/2011/2011086/LUN2011086.txt
/home/sarah/watchtower/odd/2011/2011284/LUN2011284.txt
/home/sarah/watchtower/odd/2011/2011252/LUN2011252.txt
/home/sarah/watchtower/odd/2011/2011167/LUN2011167.txt
/home/sarah/watchtower/odd/2011/2011921/LUN2011921.txt
/home/sarah/watchtower/odd/2011/2011561/LUN2011561.txt
/home/sarah/watchtower/odd/2011/2011801/LUN2011801.txt
/home/sarah/watchtower/odd/2011/2011124/LUN2011124.txt
/home/sarah/watchtower/odd/2011/2011328/LUN2011328.txt
/home/sarah/watchtower/odd/2011/2011405/LUN2011405.txt
/home/sarah/watchtower/odd/2011/2011044/LUN2011044.txt
/home/sarah/watchtower/odd/2011/2011803/LUN2011803.txt
/home/sarah/watchtower/odd/2011/2011368/LUN2011368.txt
/home/sarah/watchtower/odd/2011/2011488/LUN2011488.txt
/home/sarah/watchtower/odd/2011/2011602/LUN2011602.txt
/home/sarah/watchtower/odd/2011/2011808/LUN2011808.txt
/home/sarah/watchtower/odd/2011/2011652/LUN2011652.txt
/home/sarah/watchtower/odd/2011/2011288/LUN2011288.txt
/home/sarah/watchtower/odd/2011/2011609/LUN2011609.txt
/home/sarah/watchtower/odd/2011/2011848/LUN2011848.txt
/home/sarah/watchtower/odd/2011/2011687/LUN2011687.txt
/home/sarah/watchtower/odd/2011/2011331/LUN2011331.txt
/home/sarah/watchtower/odd/2009/2009883/LUN2009883.txt
/home/sarah/watchtower/odd/2009/2009082/LUN2009082.txt
/home/sarah/watchtower/odd/2009/2009084/LUN2009084.txt
/home/sarah/watchtower/odd/2009/2009003/LUN2009003.txt
/home/sarah/watchtower/odd/2009/2009888/LUN2009888.txt
/home/sarah/watchtower/odd/2009/2009884/LUN2009884.txt
/home/sarah/watchtower/odd/2009/2009522/LUN2009522.txt
/home/sarah/watchtower/odd/2009/2009081/LUN2009081.txt
/home/sarah/watchtower/odd/2009/2009481/LUN2009481.txt
/home/sarah/watchtower/odd/2009/2009040/LUN2009040.txt
/home/sarah/watchtower/odd/2009/2009241/LUN2009241.txt
/home/sarah/watchtower/odd/2009/2009722/LUN2009722.txt
/home/sarah/watchtower/odd/2009/2009280/LUN2009280.txt
/home/sarah/watchtower/odd/2009/2009440/LUN2009440.txt
/home/sarah/watchtower/odd/2009/2009043/LUN2009043.txt
/home/sarah/watchtower/odd/2009/2009842/LUN2009842.txt
/home/sarah/watchtower/odd/2009/2009164/LUN2009164.txt
/home/sarah/watchtower/odd/2009/2009682/LUN2009682.txt
/home/sarah/watchtower/odd/2009/2009641/LUN2009641.txt
/home/sarah/watchtower/odd/2009/2009282/LUN2009282.txt
/home/sarah/watchtower/odd/2009/2009761/LUN2009761.txt
/home/sarah/watchtower/odd/2009/2009815/LUN2009815.txt
/home/sarah/watchtower/odd/2009/2009606/LUN2009606.txt
/home/sarah/watchtower/odd/2009/2009160/LUN2009160.txt
/home/sarah/watchtower/odd/2009/2009683/LUN2009683.txt
/home/sarah/watchtower/odd/2009/2009762/LUN2009762.txt
/home/sarah/watchtower/odd/2009/2009320/LUN2009320.txt
/home/sarah/watchtower/odd/2009/2009363/LUN2009363.txt
/home/sarah/watchtower/odd/2009/2009085/LUN2009085.txt
/home/sarah/watchtower/odd/2009/2009642/LUN2009642.txt
/home/sarah/watchtower/odd/2009/2009482/LUN2009482.txt
/home/sarah/watchtower/odd/2009/2009921/LUN2009921.txt
/home/sarah/watchtower/odd/2009/2009801/LUN2009801.txt
/home/sarah/watchtower/odd/2009/2009802/LUN2009802.txt
/home/sarah/watchtower/odd/2009/2009803/LUN2009803.txt
/home/sarah/watchtower/odd/2009/2009769/LUN2009769.txt
/home/sarah/watchtower/odd/2009/2009244/LUN2009244.txt
/home/sarah/watchtower/odd/2009/2009162/LUN2009162.txt
/home/sarah/watchtower/odd/2009/2009765/LUN2009765.txt
/home/sarah/watchtower/odd/2009/2009601/LUN2009601.txt
/home/sarah/watchtower/odd/2009/2009720/LUN2009720.txt
/home/sarah/watchtower/odd/2009/2009256/LUN2009256.txt
/home/sarah/watchtower/odd/2009/2009843/LUN2009843.txt
/home/sarah/watchtower/odd/2009/2009329/LUN2009329.txt
/home/sarah/watchtower/odd/2009/2009763/LUN2009763.txt
/home/sarah/watchtower/odd/2009/2009924/LUN2009924.txt
/home/sarah/watchtower/odd/2009/2009480/LUN2009480.txt
/home/sarah/watchtower/odd/2009/2009321/LUN2009321.txt
/home/sarah/watchtower/odd/2009/2009528/LUN2009528.txt
/home/sarah/watchtower/odd/2009/2009364/LUN2009364.txt
/home/sarah/watchtower/odd/2009/2009523/LUN2009523.txt
/home/sarah/watchtower/odd/2009/2009685/LUN2009685.txt
/home/sarah/watchtower/odd/2009/2009890/LUN2009890.txt
/home/sarah/watchtower/odd/2009/2009124/LUN2009124.txt
/home/sarah/watchtower/odd/2009/2009881/LUN2009881.txt
/home/sarah/watchtower/odd/2009/2009360/LUN2009360.txt
/home/sarah/watchtower/odd/2009/2009809/LUN2009809.txt
/home/sarah/watchtower/odd/2009/2009127/LUN2009127.txt
/home/sarah/watchtower/odd/2009/2009768/LUN2009768.txt
/home/sarah/watchtower/odd/2009/2009810/LUN2009810.txt
/home/sarah/watchtower/odd/2009/2009841/LUN2009841.txt
/home/sarah/watchtower/odd/2009/2009721/LUN2009721.txt
/home/sarah/watchtower/odd/2009/2009322/LUN2009322.txt
/home/sarah/watchtower/odd/2009/2009044/LUN2009044.txt
/home/sarah/watchtower/odd/2009/2009805/LUN2009805.txt
/home/sarah/watchtower/odd/2009/2009880/LUN2009880.txt
/home/sarah/watchtower/odd/2009/2009892/LUN2009892.txt
/home/sarah/watchtower/odd/2009/2009202/LUN2009202.txt
/home/sarah/watchtower/odd/2009/2009361/LUN2009361.txt
/home/sarah/watchtower/odd/2009/2009604/LUN2009604.txt
/home/sarah/watchtower/odd/2009/2009201/LUN2009201.txt
/home/sarah/watchtower/odd/2009/2009889/LUN2009889.txt
/home/sarah/watchtower/odd/2009/2009922/LUN2009922.txt
/home/sarah/watchtower/odd/2009/2009562/LUN2009562.txt
/home/sarah/watchtower/odd/2009/2009891/LUN2009891.txt
/home/sarah/watchtower/odd/2009/2009885/LUN2009885.txt
/home/sarah/watchtower/odd/2009/2009529/LUN2009529.txt
/home/sarah/watchtower/odd/2009/2009281/LUN2009281.txt
/home/sarah/watchtower/odd/2009/2009443/LUN2009443.txt
/home/sarah/watchtower/odd/2009/2009526/LUN2009526.txt
/home/sarah/watchtower/odd/2009/2009002/LUN2009002.txt
/home/sarah/watchtower/odd/2009/2009400/LUN2009400.txt
/home/sarah/watchtower/odd/2009/2009563/LUN2009563.txt
/home/sarah/watchtower/odd/2009/2009091/LUN2009091.txt
/home/sarah/watchtower/odd/2009/2009242/LUN2009242.txt
/home/sarah/watchtower/odd/2009/2009643/LUN2009643.txt
/home/sarah/watchtower/odd/2009/2009845/LUN2009845.txt
/home/sarah/watchtower/odd/2009/2009410/LUN2009410.txt
/home/sarah/watchtower/odd/2009/2009324/LUN2009324.txt
/home/sarah/watchtower/odd/2009/2009887/LUN2009887.txt
/home/sarah/watchtower/odd/2009/2009285/LUN2009285.txt
/home/sarah/watchtower/odd/2009/2009764/LUN2009764.txt
/home/sarah/watchtower/odd/2009/2009327/LUN2009327.txt
/home/sarah/watchtower/odd/2009/2009844/LUN2009844.txt
/home/sarah/watchtower/odd/2009/2009491/LUN2009491.txt
/home/sarah/watchtower/odd/2009/2009442/LUN2009442.txt
/home/sarah/watchtower/odd/2009/2009800/LUN2009800.txt
/home/sarah/watchtower/odd/2009/2009560/LUN2009560.txt
/home/sarah/watchtower/odd/2009/2009323/LUN2009323.txt
/home/sarah/watchtower/odd/2009/2009080/LUN2009080.txt
/home/sarah/watchtower/odd/2009/2009882/LUN2009882.txt
/home/sarah/watchtower/odd/2009/2009886/LUN2009886.txt
/home/sarah/watchtower/odd/2009/2009284/LUN2009284.txt
/home/sarah/watchtower/odd/2009/2009041/LUN2009041.txt
/home/sarah/watchtower/odd/2009/2009090/LUN2009090.txt
/home/sarah/watchtower/odd/2009/2009804/LUN2009804.txt
/home/sarah/watchtower/odd/2009/2009240/LUN2009240.txt
/home/sarah/watchtower/odd/2009/2009161/LUN2009161.txt
/home/sarah/watchtower/odd/2009/2009684/LUN2009684.txt
/home/sarah/watchtower/odd/2009/2009243/LUN2009243.txt
/home/sarah/watchtower/odd/2009/2009483/LUN2009483.txt
/home/sarah/watchtower/odd/2009/2009441/LUN2009441.txt
/home/sarah/watchtower/odd/2009/2009806/LUN2009806.txt
/home/sarah/watchtower/odd/2009/2009603/LUN2009603.txt
/home/sarah/watchtower/odd/2009/2009246/LUN2009246.txt
/home/sarah/watchtower/odd/2009/2009401/LUN2009401.txt
/home/sarah/watchtower/odd/2009/2009203/LUN2009203.txt
/home/sarah/watchtower/odd/2009/2009923/LUN2009923.txt
/home/sarah/watchtower/odd/2009/2009640/LUN2009640.txt
/home/sarah/watchtower/odd/2009/2009602/LUN2009602.txt
/home/sarah/watchtower/odd/2009/2009046/LUN2009046.txt
/home/sarah/watchtower/odd/2009/2009681/LUN2009681.txt
/home/sarah/watchtower/odd/2009/2009561/LUN2009561.txt
/home/sarah/watchtower/odd/2009/2009083/LUN2009083.txt
/home/sarah/watchtower/odd/2009/2009811/LUN2009811.txt
/home/sarah/watchtower/odd/2009/2009042/LUN2009042.txt
/home/sarah/watchtower/odd/2009/2009283/LUN2009283.txt
/home/sarah/watchtower/odd/2009/2009245/LUN2009245.txt
/home/sarah/watchtower/odd/2009/2009200/LUN2009200.txt
/home/sarah/watchtower/odd/2007/2007921/LUN2007921.txt
/home/sarah/watchtower/odd/2007/010807/2007567/LUN2007567.txt
/home/sarah/watchtower/odd/2007/010807/2007566/LUN2007566.txt
/home/sarah/watchtower/odd/2007/010807/2007561/LUN2007561.txt
/home/sarah/watchtower/odd/2007/010807/2007562/LUN2007562.txt
/home/sarah/watchtower/odd/2007/2007845/LUN2007845.txt
/home/sarah/watchtower/odd/2007/010907/2007640/LUN2007640.txt
/home/sarah/watchtower/odd/2007/010907/2007646/LUN2007646.txt
/home/sarah/watchtower/odd/2007/010907/2007641/LUN2007641.txt
/home/sarah/watchtower/odd/2007/010907/2007644/LUN2007644.txt
/home/sarah/watchtower/odd/2007/010907/2007645/LUN2007645.txt
/home/sarah/watchtower/odd/2007/150907/2007687/LUN2007687.txt
/home/sarah/watchtower/odd/2007/150907/2007684/LUN2007684.txt
/home/sarah/watchtower/odd/2007/150907/2007686/LUN2007686.txt
/home/sarah/watchtower/odd/2007/011007/2007725/LUN2007725.txt
/home/sarah/watchtower/odd/2007/011007/2007726/LUN2007726.txt
/home/sarah/watchtower/odd/2007/011007/2007720/LUN2007720.txt
/home/sarah/watchtower/odd/2007/011007/2007724/LUN2007724.txt
/home/sarah/watchtower/odd/2007/011007/2007722/LUN2007722.txt
/home/sarah/watchtower/odd/2007/2007885/LUN2007885.txt
/home/sarah/watchtower/odd/2007/2007920/LUN2007920.txt
/home/sarah/watchtower/odd/2007/2007846/LUN2007846.txt
/home/sarah/watchtower/odd/2007/2007926/LUN2007926.txt
/home/sarah/watchtower/odd/2007/150507/2007366/LUN2007366.txt
/home/sarah/watchtower/odd/2007/150507/2007367/LUN2007367.txt
/home/sarah/watchtower/odd/2007/2007884/LUN2007884.txt
/home/sarah/watchtower/odd/2007/150707/2007525/LUN2007525.txt
/home/sarah/watchtower/odd/2007/150707/2007526/LUN2007526.txt
/home/sarah/watchtower/odd/2007/150707/2007528/LUN2007528.txt
/home/sarah/watchtower/odd/2007/2007807/LUN2007807.txt
/home/sarah/watchtower/odd/2007/2007924/LUN2007924.txt
/home/sarah/watchtower/odd/2007/2007806/LUN2007806.txt
/home/sarah/watchtower/odd/2007/2007928/LUN2007928.txt
/home/sarah/watchtower/odd/2007/2007882/LUN2007882.txt
/home/sarah/watchtower/odd/2007/150807/2007606/LUN2007606.txt
/home/sarah/watchtower/odd/2007/150807/2007607/LUN2007607.txt
/home/sarah/watchtower/odd/2007/2007805/LUN2007805.txt
/home/sarah/watchtower/odd/2007/150107/2007046/LUN2007046.txt
/home/sarah/watchtower/odd/2007/150107/2007042/LUN2007042.txt
/home/sarah/watchtower/odd/2007/150107/2007047/LUN2007047.txt
/home/sarah/watchtower/odd/2007/010507/2007323/LUN2007323.txt
/home/sarah/watchtower/odd/2007/010507/2007321/LUN2007321.txt
/home/sarah/watchtower/odd/2007/010507/2007320/LUN2007320.txt
/home/sarah/watchtower/odd/2007/2007881/LUN2007881.txt
/home/sarah/watchtower/odd/2007/010407/2007246/LUN2007246.txt
/home/sarah/watchtower/odd/2007/010407/2007245/LUN2007245.txt
/home/sarah/watchtower/odd/2007/010407/2007240/LUN2007240.txt
/home/sarah/watchtower/odd/2007/010407/2007248/LUN2007248.txt
/home/sarah/watchtower/odd/2007/2007925/LUN2007925.txt
/home/sarah/watchtower/odd/2007/2007847/LUN2007847.txt
/home/sarah/watchtower/odd/2007/150307/2007206/LUN2007206.txt
/home/sarah/watchtower/odd/2007/150307/2007207/LUN2007207.txt
/home/sarah/watchtower/odd/2007/150307/2007202/LUN2007202.txt
/home/sarah/watchtower/odd/2007/010707/2007484/LUN2007484.txt
/home/sarah/watchtower/odd/2007/010707/2007480/LUN2007480.txt
/home/sarah/watchtower/odd/2007/010707/2007485/LUN2007485.txt
/home/sarah/watchtower/odd/2007/010707/2007481/LUN2007481.txt
/home/sarah/watchtower/odd/2007/010707/2007482/LUN2007482.txt
/home/sarah/watchtower/odd/2007/2007800/LUN2007800.txt
/home/sarah/watchtower/odd/2007/2007765/LUN2007765.txt
/home/sarah/watchtower/odd/2007/2007880/LUN2007880.txt
/home/sarah/watchtower/odd/2007/150607/2007447/LUN2007447.txt
/home/sarah/watchtower/odd/2007/150607/2007446/LUN2007446.txt
/home/sarah/watchtower/odd/2007/010107/2007001/LUN2007001.txt
/home/sarah/watchtower/odd/2007/010107/2007005/LUN2007005.txt
/home/sarah/watchtower/odd/2007/010107/2007006/LUN2007006.txt
/home/sarah/watchtower/odd/2007/010107/2007000/LUN2007000.txt
/home/sarah/watchtower/odd/2007/2007766/LUN2007766.txt
/home/sarah/watchtower/odd/2007/2007803/LUN2007803.txt
/home/sarah/watchtower/odd/2007/150407/2007285/LUN2007285.txt
/home/sarah/watchtower/odd/2007/150407/2007286/LUN2007286.txt
/home/sarah/watchtower/odd/2007/2007842/LUN2007842.txt
/home/sarah/watchtower/odd/2007/150207/2007126/LUN2007126.txt
/home/sarah/watchtower/odd/2007/150207/2007124/LUN2007124.txt
/home/sarah/watchtower/odd/2007/150207/2007125/LUN2007125.txt
/home/sarah/watchtower/odd/2007/2007886/LUN2007886.txt
/home/sarah/watchtower/odd/2007/010307/2007163/LUN2007163.txt
/home/sarah/watchtower/odd/2007/010307/2007164/LUN2007164.txt
/home/sarah/watchtower/odd/2007/010307/2007167/LUN2007167.txt
/home/sarah/watchtower/odd/2007/2007927/LUN2007927.txt
/home/sarah/watchtower/odd/2007/2007887/LUN2007887.txt
/home/sarah/watchtower/odd/2007/010207/2007085/LUN2007085.txt
/home/sarah/watchtower/odd/2007/010207/2007081/LUN2007081.txt
/home/sarah/watchtower/odd/2007/010207/2007086/LUN2007086.txt
/home/sarah/watchtower/odd/2007/010607/2007407/LUN2007407.txt
/home/sarah/watchtower/odd/2007/010607/2007401/LUN2007401.txt
/home/sarah/watchtower/odd/2007/010607/2007406/LUN2007406.txt
/home/sarah/watchtower/odd/2007/010607/2007403/LUN2007403.txt
/home/sarah/watchtower/odd/2007/010607/2007400/LUN2007400.txt
/home/sarah/watchtower/odd/2007/010607/2007402/LUN2007402.txt
/home/sarah/watchtower/even/2012/2012204/LUN2012204.txt
/home/sarah/watchtower/even/2012/2012482/LUN2012482.txt
/home/sarah/watchtower/even/2012/2012046/LUN2012046.txt
/home/sarah/watchtower/even/2012/2012167/LUN2012167.txt
/home/sarah/watchtower/even/2012/2012208/LUN2012208.txt
/home/sarah/watchtower/even/2012/2012606/LUN2012606.txt
/home/sarah/watchtower/even/2012/2012284/LUN2012284.txt
/home/sarah/watchtower/even/2012/2012287/LUN2012287.txt
/home/sarah/watchtower/even/2012/2012201/LUN2012201.txt
/home/sarah/watchtower/even/2012/2012048/LUN2012048.txt
/home/sarah/watchtower/even/2012/2012570/LUN2012570.txt
/home/sarah/watchtower/even/2012/2012206/LUN2012206.txt
/home/sarah/watchtower/even/2012/2012013/LUN2012013.txt
/home/sarah/watchtower/even/2012/2012414/LUN2012414.txt
/home/sarah/watchtower/even/2012/2012126/LUN2012126.txt
/home/sarah/watchtower/even/2012/2012125/LUN2012125.txt
/home/sarah/watchtower/even/2012/2012525/LUN2012525.txt
/home/sarah/watchtower/even/2012/2012362/LUN2012362.txt
/home/sarah/watchtower/even/2012/2012929/LUN2012929.txt
/home/sarah/watchtower/even/2012/2012368/LUN2012368.txt
/home/sarah/watchtower/even/2012/2012444/LUN2012444.txt
/home/sarah/watchtower/even/2012/2012449/LUN2012449.txt
/home/sarah/watchtower/even/2012/2012411/LUN2012411.txt
/home/sarah/watchtower/even/2012/2012247/LUN2012247.txt
/home/sarah/watchtower/even/2012/2012128/LUN2012128.txt
/home/sarah/watchtower/even/2012/2012244/LUN2012244.txt
/home/sarah/watchtower/even/2012/2012044/LUN2012044.txt
/home/sarah/watchtower/even/2012/2012767/LUN2012767.txt
/home/sarah/watchtower/even/2012/2012248/LUN2012248.txt
/home/sarah/watchtower/even/2012/2012922/LUN2012922.txt
/home/sarah/watchtower/even/2012/2012928/LUN2012928.txt
/home/sarah/watchtower/even/2012/2012524/LUN2012524.txt
/home/sarah/watchtower/even/2012/2012446/LUN2012446.txt
/home/sarah/watchtower/even/2012/2012445/LUN2012445.txt
/home/sarah/watchtower/even/2012/2012926/LUN2012926.txt
/home/sarah/watchtower/even/2012/2012608/LUN2012608.txt
/home/sarah/watchtower/even/2012/2012927/LUN2012927.txt
/home/sarah/watchtower/even/2012/2012765/LUN2012765.txt
/home/sarah/watchtower/even/2012/2012646/LUN2012646.txt
/home/sarah/watchtower/even/2012/2012246/LUN2012246.txt
/home/sarah/watchtower/even/2012/2012330/LUN2012330.txt
/home/sarah/watchtower/even/2012/2012683/LUN2012683.txt
/home/sarah/watchtower/even/2012/2012243/LUN2012243.txt
/home/sarah/watchtower/even/2012/2012327/LUN2012327.txt
/home/sarah/watchtower/even/2012/2012245/LUN2012245.txt
/home/sarah/watchtower/even/2012/2012645/LUN2012645.txt
/home/sarah/watchtower/even/2012/2012043/LUN2012043.txt
/home/sarah/watchtower/even/2012/2012172/LUN2012172.txt
/home/sarah/watchtower/even/2012/2012924/LUN2012924.txt
/home/sarah/watchtower/even/2012/2012124/LUN2012124.txt
/home/sarah/watchtower/even/2012/2012601/LUN2012601.txt
/home/sarah/watchtower/even/2012/2012083/LUN2012083.txt
/home/sarah/watchtower/even/2012/2012441/LUN2012441.txt
/home/sarah/watchtower/even/2012/2012286/LUN2012286.txt
/home/sarah/watchtower/even/2012/2012367/LUN2012367.txt
/home/sarah/watchtower/even/2012/2012644/LUN2012644.txt
/home/sarah/watchtower/even/2012/2012925/LUN2012925.txt
/home/sarah/watchtower/even/2012/2012652/LUN2012652.txt
/home/sarah/watchtower/even/2012/2012481/LUN2012481.txt
/home/sarah/watchtower/even/2012/2012251/LUN2012251.txt
/home/sarah/watchtower/even/2012/2012602/LUN2012602.txt
/home/sarah/watchtower/even/2012/2012242/LUN2012242.txt
/home/sarah/watchtower/even/2012/2012846/LUN2012846.txt
/home/sarah/watchtower/even/2012/2012682/LUN2012682.txt
/home/sarah/watchtower/even/2012/2012122/LUN2012122.txt
/home/sarah/watchtower/even/2012/2012685/LUN2012685.txt
/home/sarah/watchtower/even/2012/2012249/LUN2012249.txt
/home/sarah/watchtower/even/2012/2012603/LUN2012603.txt
/home/sarah/watchtower/even/2012/2012409/LUN2012409.txt
/home/sarah/watchtower/even/2012/2012684/LUN2012684.txt
/home/sarah/watchtower/even/2012/2012283/LUN2012283.txt
/home/sarah/watchtower/even/2012/2012241/LUN2012241.txt
/home/sarah/watchtower/even/2012/2012843/LUN2012843.txt
/home/sarah/watchtower/even/2012/2012443/LUN2012443.txt
/home/sarah/watchtower/even/2012/2012202/LUN2012202.txt
/home/sarah/watchtower/even/2012/2012521/LUN2012521.txt
/home/sarah/watchtower/even/2012/2012082/LUN2012082.txt
/home/sarah/watchtower/even/2012/2012847/LUN2012847.txt
/home/sarah/watchtower/even/2012/2012605/LUN2012605.txt
/home/sarah/watchtower/even/2012/2012366/LUN2012366.txt
/home/sarah/watchtower/even/2012/2012483/LUN2012483.txt
/home/sarah/watchtower/even/2012/2012250/LUN2012250.txt
/home/sarah/watchtower/even/2012/2012041/LUN2012041.txt
/home/sarah/watchtower/even/2012/2012365/LUN2012365.txt
/home/sarah/watchtower/even/2012/2012007/LUN2012007.txt
/home/sarah/watchtower/even/2012/2012527/LUN2012527.txt
/home/sarah/watchtower/even/2012/2012008/LUN2012008.txt
/home/sarah/watchtower/even/2012/2012842/LUN2012842.txt
/home/sarah/watchtower/even/2012/2012081/LUN2012081.txt
/home/sarah/watchtower/even/2012/2012281/LUN2012281.txt
/home/sarah/watchtower/even/2012/2012205/LUN2012205.txt
/home/sarah/watchtower/even/2012/2012764/LUN2012764.txt
/home/sarah/watchtower/even/2012/2012686/LUN2012686.txt
/home/sarah/watchtower/even/2012/2012364/LUN2012364.txt
/home/sarah/watchtower/even/2012/2012849/LUN2012849.txt
/home/sarah/watchtower/even/2012/2012448/LUN2012448.txt
/home/sarah/watchtower/even/2012/2012576/LUN2012576.txt
/home/sarah/watchtower/even/2012/2012121/LUN2012121.txt
/home/sarah/watchtower/even/2012/2012127/LUN2012127.txt
/home/sarah/watchtower/even/2012/2012565/LUN2012565.txt
/home/sarah/watchtower/even/2012/2012252/LUN2012252.txt
/home/sarah/watchtower/even/2012/2012607/LUN2012607.txt
/home/sarah/watchtower/even/2012/2012045/LUN2012045.txt
/home/sarah/watchtower/even/2012/2012845/LUN2012845.txt
/home/sarah/watchtower/even/2012/2012049/LUN2012049.txt
/home/sarah/watchtower/even/2012/2012332/LUN2012332.txt
/home/sarah/watchtower/even/2012/2012285/LUN2012285.txt
/home/sarah/watchtower/even/2012/2012844/LUN2012844.txt
/home/sarah/watchtower/even/2012/2012850/LUN2012850.txt
/home/sarah/watchtower/even/2012/2012207/LUN2012207.txt
/home/sarah/watchtower/even/2012/2012523/LUN2012523.txt
/home/sarah/watchtower/even/2012/2012763/LUN2012763.txt
/home/sarah/watchtower/even/2012/2012042/LUN2012042.txt
/home/sarah/watchtower/even/2012/2012762/LUN2012762.txt
/home/sarah/watchtower/even/2012/2012442/LUN2012442.txt
/home/sarah/watchtower/even/2012/2012361/LUN2012361.txt
/home/sarah/watchtower/even/2012/2012123/LUN2012123.txt
/home/sarah/watchtower/even/2012/2012766/LUN2012766.txt
/home/sarah/watchtower/even/2012/2012488/LUN2012488.txt
/home/sarah/watchtower/even/2012/2012203/LUN2012203.txt
/home/sarah/watchtower/even/2012/2012335/LUN2012335.txt
/home/sarah/watchtower/even/2012/2012282/LUN2012282.txt
/home/sarah/watchtower/even/2012/2012681/LUN2012681.txt
/home/sarah/watchtower/even/2012/2012011/LUN2012011.txt
/home/sarah/watchtower/even/2012/2012923/LUN2012923.txt
/home/sarah/watchtower/even/2012/2012522/LUN2012522.txt
/home/sarah/watchtower/even/2012/2012569/LUN2012569.txt
/home/sarah/watchtower/even/2012/2012484/LUN2012484.txt
/home/sarah/watchtower/even/2012/2012363/LUN2012363.txt
/home/sarah/watchtower/even/2012/2012761/LUN2012761.txt
/home/sarah/watchtower/even/2012/2012604/LUN2012604.txt
/home/sarah/watchtower/even/2012/2012047/LUN2012047.txt
/home/sarah/watchtower/even/2012/2012526/LUN2012526.txt
/home/sarah/watchtower/even/2012/2012447/LUN2012447.txt
/home/sarah/watchtower/even/2014/2014208/LUN2014208.txt
/home/sarah/watchtower/even/2014/2014047/LUN2014047.txt
/home/sarah/watchtower/even/2014/2014128/LUN2014128.txt
/home/sarah/watchtower/even/2014/2014603/LUN2014603.txt
/home/sarah/watchtower/even/2014/2014443/LUN2014443.txt
/home/sarah/watchtower/even/2014/2014042/LUN2014042.txt
/home/sarah/watchtower/even/2014/2014367/LUN2014367.txt
/home/sarah/watchtower/even/2014/2014842/LUN2014842.txt
/home/sarah/watchtower/even/2014/2014285/LUN2014285.txt
/home/sarah/watchtower/even/2014/2014363/LUN2014363.txt
/home/sarah/watchtower/even/2014/2014245/LUN2014245.txt
/home/sarah/watchtower/even/2014/2014767/LUN2014767.txt
/home/sarah/watchtower/even/2014/2014642/LUN2014642.txt
/home/sarah/watchtower/even/2014/2014684/LUN2014684.txt
/home/sarah/watchtower/even/2014/2014728/LUN2014728.txt
/home/sarah/watchtower/even/2014/2014682/LUN2014682.txt
/home/sarah/watchtower/even/2014/2014365/LUN2014365.txt
/home/sarah/watchtower/even/2014/2014685/LUN2014685.txt
/home/sarah/watchtower/even/2014/2014405/LUN2014405.txt
/home/sarah/watchtower/even/2014/2014005/LUN2014005.txt
/home/sarah/watchtower/even/2014/2014607/LUN2014607.txt
/home/sarah/watchtower/even/2014/2014523/LUN2014523.txt
/home/sarah/watchtower/even/2014/2014848/LUN2014848.txt
/home/sarah/watchtower/even/2014/2014288/LUN2014288.txt
/home/sarah/watchtower/even/2014/2014446/LUN2014446.txt
/home/sarah/watchtower/even/2014/2014004/LUN2014004.txt
/home/sarah/watchtower/even/2014/2014043/LUN2014043.txt
/home/sarah/watchtower/even/2014/2014766/LUN2014766.txt
/home/sarah/watchtower/even/2014/2014002/LUN2014002.txt
/home/sarah/watchtower/even/2014/2014403/LUN2014403.txt
/home/sarah/watchtower/even/2014/2014167/LUN2014167.txt
/home/sarah/watchtower/even/2014/2014846/LUN2014846.txt
/home/sarah/watchtower/even/2014/2014686/LUN2014686.txt
/home/sarah/watchtower/even/2014/2014565/LUN2014565.txt
/home/sarah/watchtower/even/2014/2014442/LUN2014442.txt
/home/sarah/watchtower/even/2014/2014562/LUN2014562.txt
/home/sarah/watchtower/even/2014/2014605/LUN2014605.txt
/home/sarah/watchtower/even/2014/2014847/LUN2014847.txt
/home/sarah/watchtower/even/2014/2014563/LUN2014563.txt
/home/sarah/watchtower/even/2014/2014843/LUN2014843.txt
/home/sarah/watchtower/even/2014/2014362/LUN2014362.txt
/home/sarah/watchtower/even/2014/2014527/LUN2014527.txt
/home/sarah/watchtower/even/2014/2014048/LUN2014048.txt
/home/sarah/watchtower/even/2014/2014283/LUN2014283.txt
/home/sarah/watchtower/even/2014/2014206/LUN2014206.txt
/home/sarah/watchtower/even/2014/2014762/LUN2014762.txt
/home/sarah/watchtower/even/2014/2014202/LUN2014202.txt
/home/sarah/watchtower/even/2014/2014046/LUN2014046.txt
/home/sarah/watchtower/even/2014/2014163/LUN2014163.txt
/home/sarah/watchtower/even/2014/2014044/LUN2014044.txt
/home/sarah/watchtower/even/2014/2014488/LUN2014488.txt
/home/sarah/watchtower/even/2014/2014122/LUN2014122.txt
/home/sarah/watchtower/even/2014/2014407/LUN2014407.txt
/home/sarah/watchtower/even/2014/2014162/LUN2014162.txt
/home/sarah/watchtower/even/2014/2014368/LUN2014368.txt
/home/sarah/watchtower/even/2014/2014763/LUN2014763.txt
/home/sarah/watchtower/even/2014/2014727/LUN2014727.txt
/home/sarah/watchtower/even/2014/2014123/LUN2014123.txt
/home/sarah/watchtower/even/2014/2014487/LUN2014487.txt
/home/sarah/watchtower/even/2014/2014683/LUN2014683.txt
/home/sarah/watchtower/even/2014/2014125/LUN2014125.txt
/home/sarah/watchtower/even/2014/2014845/LUN2014845.txt
/home/sarah/watchtower/even/2014/2014526/LUN2014526.txt
/home/sarah/watchtower/even/2014/2014287/LUN2014287.txt
/home/sarah/watchtower/even/2014/2014525/LUN2014525.txt
/home/sarah/watchtower/even/2014/2014045/LUN2014045.txt
/home/sarah/watchtower/even/2014/2014326/LUN2014326.txt
/home/sarah/watchtower/even/2014/2014522/LUN2014522.txt
/home/sarah/watchtower/even/2014/2014087/LUN2014087.txt
/home/sarah/watchtower/even/2014/2014764/LUN2014764.txt
/home/sarah/watchtower/even/2014/2014726/LUN2014726.txt
/home/sarah/watchtower/even/2014/2014606/LUN2014606.txt
/home/sarah/watchtower/even/2014/2014402/LUN2014402.txt
/home/sarah/watchtower/even/2014/2014444/LUN2014444.txt
/home/sarah/watchtower/even/2014/2014569/LUN2014569.txt
/home/sarah/watchtower/even/2014/2014524/LUN2014524.txt
/home/sarah/watchtower/even/2014/2014564/LUN2014564.txt
/home/sarah/watchtower/even/2014/2014325/LUN2014325.txt
/home/sarah/watchtower/even/2014/2014086/LUN2014086.txt
/home/sarah/watchtower/even/2014/2014643/LUN2014643.txt
/home/sarah/watchtower/even/2014/2014448/LUN2014448.txt
/home/sarah/watchtower/even/2014/2014282/LUN2014282.txt
/home/sarah/watchtower/even/2014/2014164/LUN2014164.txt
/home/sarah/watchtower/even/2014/2014364/LUN2014364.txt
/home/sarah/watchtower/even/2014/2014204/LUN2014204.txt
/home/sarah/watchtower/even/2014/2014165/LUN2014165.txt
/home/sarah/watchtower/even/2014/2014844/LUN2014844.txt
/home/sarah/watchtower/even/2014/2014126/LUN2014126.txt
/home/sarah/watchtower/even/2014/2014124/LUN2014124.txt
/home/sarah/watchtower/even/2014/2014485/LUN2014485.txt
/home/sarah/watchtower/even/2014/2014130/LUN2014130.txt
/home/sarah/watchtower/even/2014/2014449/LUN2014449.txt
/home/sarah/watchtower/even/2014/2014284/LUN2014284.txt
/home/sarah/watchtower/even/2014/2014207/LUN2014207.txt
/home/sarah/watchtower/even/2014/2014765/LUN2014765.txt
/home/sarah/watchtower/even/2014/2014127/LUN2014127.txt
/home/sarah/watchtower/even/2014/2014203/LUN2014203.txt
/home/sarah/watchtower/even/2014/2014687/LUN2014687.txt
/home/sarah/watchtower/even/2014/2014566/LUN2014566.txt
/home/sarah/watchtower/even/2014/2014602/LUN2014602.txt
/home/sarah/watchtower/even/2014/2014286/LUN2014286.txt
/home/sarah/watchtower/even/2014/2014366/LUN2014366.txt
/home/sarah/watchtower/even/2014/2014570/LUN2014570.txt
/home/sarah/watchtower/even/2014/2014445/LUN2014445.txt
/home/sarah/watchtower/even/2014/2014689/LUN2014689.txt
/home/sarah/watchtower/even/2014/2014205/LUN2014205.txt
/home/sarah/watchtower/even/2014/2014608/LUN2014608.txt
/home/sarah/watchtower/even/2014/2014447/LUN2014447.txt
/home/sarah/watchtower/even/2014/2014249/LUN2014249.txt
/home/sarah/watchtower/even/2014/2014604/LUN2014604.txt
/home/sarah/watchtower/even/2008/2008447/LUN2008447.txt
/home/sarah/watchtower/even/2008/2008044/LUN2008044.txt
/home/sarah/watchtower/even/2008/2008849/LUN2008849.txt
/home/sarah/watchtower/even/2008/2008761/LUN2008761.txt
/home/sarah/watchtower/even/2008/2008881/LUN2008881.txt
/home/sarah/watchtower/even/2008/2008806/LUN2008806.txt
/home/sarah/watchtower/even/2008/2008323/LUN2008323.txt
/home/sarah/watchtower/even/2008/2008722/LUN2008722.txt
/home/sarah/watchtower/even/2008/2008125/LUN2008125.txt
/home/sarah/watchtower/even/2008/2008566/LUN2008566.txt
/home/sarah/watchtower/even/2008/2008560/LUN2008560.txt
/home/sarah/watchtower/even/2008/2008202/LUN2008202.txt
/home/sarah/watchtower/even/2008/2008760/LUN2008760.txt
/home/sarah/watchtower/even/2008/2008282/LUN2008282.txt
/home/sarah/watchtower/even/2008/2008321/LUN2008321.txt
/home/sarah/watchtower/even/2008/2008281/LUN2008281.txt
/home/sarah/watchtower/even/2008/2008923/LUN2008923.txt
/home/sarah/watchtower/even/2008/2008160/LUN2008160.txt
/home/sarah/watchtower/even/2008/2008452/LUN2008452.txt
/home/sarah/watchtower/even/2008/2008047/LUN2008047.txt
/home/sarah/watchtower/even/2008/2008206/LUN2008206.txt
/home/sarah/watchtower/even/2008/2008127/LUN2008127.txt
/home/sarah/watchtower/even/2008/2008361/LUN2008361.txt
/home/sarah/watchtower/even/2008/2008451/LUN2008451.txt
/home/sarah/watchtower/even/2008/2008682/LUN2008682.txt
/home/sarah/watchtower/even/2008/2008652/LUN2008652.txt
/home/sarah/watchtower/even/2008/2008123/LUN2008123.txt
/home/sarah/watchtower/even/2008/2008207/LUN2008207.txt
/home/sarah/watchtower/even/2008/2008241/LUN2008241.txt
/home/sarah/watchtower/even/2008/2008561/LUN2008561.txt
/home/sarah/watchtower/even/2008/2008803/LUN2008803.txt
/home/sarah/watchtower/even/2008/2008362/LUN2008362.txt
/home/sarah/watchtower/even/2008/2008526/LUN2008526.txt
/home/sarah/watchtower/even/2008/2008121/LUN2008121.txt
/home/sarah/watchtower/even/2008/2008203/LUN2008203.txt
/home/sarah/watchtower/even/2008/2008083/LUN2008083.txt
/home/sarah/watchtower/even/2008/2008285/LUN2008285.txt
/home/sarah/watchtower/even/2008/2008841/LUN2008841.txt
/home/sarah/watchtower/even/2008/2008562/LUN2008562.txt
/home/sarah/watchtower/even/2008/2008080/LUN2008080.txt
/home/sarah/watchtower/even/2008/2008322/LUN2008322.txt
/home/sarah/watchtower/even/2008/2008607/LUN2008607.txt
/home/sarah/watchtower/even/2008/2008042/LUN2008042.txt
/home/sarah/watchtower/even/2008/2008122/LUN2008122.txt
/home/sarah/watchtower/even/2008/2008287/LUN2008287.txt
/home/sarah/watchtower/even/2008/2008082/LUN2008082.txt
/home/sarah/watchtower/even/2008/2008600/LUN2008600.txt
/home/sarah/watchtower/even/2008/2008926/LUN2008926.txt
/home/sarah/watchtower/even/2008/2008481/LUN2008481.txt
/home/sarah/watchtower/even/2008/2008320/LUN2008320.txt
/home/sarah/watchtower/even/2008/2008201/LUN2008201.txt
/home/sarah/watchtower/even/2008/2008842/LUN2008842.txt
/home/sarah/watchtower/even/2008/2008844/LUN2008844.txt
/home/sarah/watchtower/even/2008/2008081/LUN2008081.txt
/home/sarah/watchtower/even/2008/2008402/LUN2008402.txt
/home/sarah/watchtower/even/2008/2008802/LUN2008802.txt
/home/sarah/watchtower/even/2008/2008605/LUN2008605.txt
/home/sarah/watchtower/even/2008/2008049/LUN2008049.txt
/home/sarah/watchtower/even/2008/2008604/LUN2008604.txt
/home/sarah/watchtower/even/2008/2008002/LUN2008002.txt
/home/sarah/watchtower/even/2008/2008520/LUN2008520.txt
/home/sarah/watchtower/even/2008/2008689/LUN2008689.txt
/home/sarah/watchtower/even/2008/2008801/LUN2008801.txt
/home/sarah/watchtower/even/2008/2008449/LUN2008449.txt
/home/sarah/watchtower/even/2008/2008800/LUN2008800.txt
/home/sarah/watchtower/even/2008/2008728/LUN2008728.txt
/home/sarah/watchtower/even/2008/2008331/LUN2008331.txt
/home/sarah/watchtower/even/2008/2008003/LUN2008003.txt
/home/sarah/watchtower/even/2008/2008763/LUN2008763.txt
/home/sarah/watchtower/even/2008/2008450/LUN2008450.txt
/home/sarah/watchtower/even/2008/2008880/LUN2008880.txt
/home/sarah/watchtower/even/2008/2008208/LUN2008208.txt
/home/sarah/watchtower/even/2008/2008843/LUN2008843.txt
/home/sarah/watchtower/even/2008/2008400/LUN2008400.txt
/home/sarah/watchtower/even/2008/2008764/LUN2008764.txt
/home/sarah/watchtower/even/2008/2008363/LUN2008363.txt
/home/sarah/watchtower/even/2008/2008653/LUN2008653.txt
/home/sarah/watchtower/even/2008/2008368/LUN2008368.txt
/home/sarah/watchtower/even/2008/2008364/LUN2008364.txt
/home/sarah/watchtower/even/2008/2008683/LUN2008683.txt
/home/sarah/watchtower/even/2008/2008401/LUN2008401.txt
/home/sarah/watchtower/even/2008/2008681/LUN2008681.txt
/home/sarah/watchtower/even/2008/2008601/LUN2008601.txt
/home/sarah/watchtower/even/2008/2008523/LUN2008523.txt
/home/sarah/watchtower/even/2008/2008724/LUN2008724.txt
/home/sarah/watchtower/even/2008/2008603/LUN2008603.txt
/home/sarah/watchtower/even/2008/2008284/LUN2008284.txt
/home/sarah/watchtower/even/2008/2008922/LUN2008922.txt
/home/sarah/watchtower/even/2008/2008921/LUN2008921.txt
/home/sarah/watchtower/even/2008/2008365/LUN2008365.txt
/home/sarah/watchtower/even/2008/2008768/LUN2008768.txt
/home/sarah/watchtower/even/2008/2008046/LUN2008046.txt
/home/sarah/watchtower/even/2008/2008721/LUN2008721.txt
/home/sarah/watchtower/even/2008/2008043/LUN2008043.txt
/home/sarah/watchtower/even/2008/2008765/LUN2008765.txt
/home/sarah/watchtower/even/2008/2008522/LUN2008522.txt
/home/sarah/watchtower/even/2008/2008283/LUN2008283.txt
/home/sarah/watchtower/even/2008/2008680/LUN2008680.txt
/home/sarah/watchtower/even/2008/2008521/LUN2008521.txt
/home/sarah/watchtower/even/2008/2008723/LUN2008723.txt
/home/sarah/watchtower/even/2008/2008124/LUN2008124.txt
/home/sarah/watchtower/even/2008/2008161/LUN2008161.txt
/home/sarah/watchtower/even/2008/2008920/LUN2008920.txt
/home/sarah/watchtower/even/2010/2010686/LUN2010686.txt
/home/sarah/watchtower/even/2010/2010287/LUN2010287.txt
/home/sarah/watchtower/even/2010/2010844/LUN2010844.txt
/home/sarah/watchtower/even/2010/2010122/LUN2010122.txt
/home/sarah/watchtower/even/2010/2010091/LUN2010091.txt
/home/sarah/watchtower/even/2010/2010682/LUN2010682.txt
/home/sarah/watchtower/even/2010/2010846/LUN2010846.txt
/home/sarah/watchtower/even/2010/2010767/LUN2010767.txt
/home/sarah/watchtower/even/2010/2010249/LUN2010249.txt
/home/sarah/watchtower/even/2010/2010207/LUN2010207.txt
/home/sarah/watchtower/even/2010/2010848/LUN2010848.txt
/home/sarah/watchtower/even/2010/2010288/LUN2010288.txt
/home/sarah/watchtower/even/2010/2010166/LUN2010166.txt
/home/sarah/watchtower/even/2010/2010890/LUN2010890.txt
/home/sarah/watchtower/even/2010/2010042/LUN2010042.txt
/home/sarah/watchtower/even/2010/2010929/LUN2010929.txt
/home/sarah/watchtower/even/2010/2010361/LUN2010361.txt
/home/sarah/watchtower/even/2010/2010642/LUN2010642.txt
/home/sarah/watchtower/even/2010/2010362/LUN2010362.txt
/home/sarah/watchtower/even/2010/2010687/LUN2010687.txt
/home/sarah/watchtower/even/2010/2010168/LUN2010168.txt
/home/sarah/watchtower/even/2010/2010009/LUN2010009.txt
/home/sarah/watchtower/even/2010/2010253/LUN2010253.txt
/home/sarah/watchtower/even/2010/2010722/LUN2010722.txt
/home/sarah/watchtower/even/2010/2010806/LUN2010806.txt
/home/sarah/watchtower/even/2010/2010441/LUN2010441.txt
/home/sarah/watchtower/even/2010/2010447/LUN2010447.txt
/home/sarah/watchtower/even/2010/2010285/LUN2010285.txt
/home/sarah/watchtower/even/2010/2010809/LUN2010809.txt
/home/sarah/watchtower/even/2010/2010601/LUN2010601.txt
/home/sarah/watchtower/even/2010/2010369/LUN2010369.txt
/home/sarah/watchtower/even/2010/2010528/LUN2010528.txt
/home/sarah/watchtower/even/2010/2010210/LUN2010210.txt
/home/sarah/watchtower/even/2010/2010684/LUN2010684.txt
/home/sarah/watchtower/even/2010/2010681/LUN2010681.txt
/home/sarah/watchtower/even/2010/2010726/LUN2010726.txt
/home/sarah/watchtower/even/2010/2010123/LUN2010123.txt
/home/sarah/watchtower/even/2010/2010245/LUN2010245.txt
/home/sarah/watchtower/even/2010/2010281/LUN2010281.txt
/home/sarah/watchtower/even/2010/2010923/LUN2010923.txt
/home/sarah/watchtower/even/2010/2010205/LUN2010205.txt
/home/sarah/watchtower/even/2010/2010204/LUN2010204.txt
/home/sarah/watchtower/even/2010/2010208/LUN2010208.txt
/home/sarah/watchtower/even/2010/2010924/LUN2010924.txt
/home/sarah/watchtower/even/2010/2010129/LUN2010129.txt
/home/sarah/watchtower/even/2010/2010443/LUN2010443.txt
/home/sarah/watchtower/even/2010/2010643/LUN2010643.txt
/home/sarah/watchtower/even/2010/2010521/LUN2010521.txt
/home/sarah/watchtower/even/2010/2010250/LUN2010250.txt
/home/sarah/watchtower/even/2010/2010442/LUN2010442.txt
/home/sarah/watchtower/even/2010/2010120/LUN2010120.txt
/home/sarah/watchtower/even/2010/2010886/LUN2010886.txt
/home/sarah/watchtower/even/2010/2010523/LUN2010523.txt
/home/sarah/watchtower/even/2010/2010254/LUN2010254.txt
/home/sarah/watchtower/even/2010/2010527/LUN2010527.txt
/home/sarah/watchtower/even/2010/2010323/LUN2010323.txt
/home/sarah/watchtower/even/2010/2010242/LUN2010242.txt
/home/sarah/watchtower/even/2010/2010444/LUN2010444.txt
/home/sarah/watchtower/even/2010/2010926/LUN2010926.txt
/home/sarah/watchtower/even/2010/2010163/LUN2010163.txt
/home/sarah/watchtower/even/2010/2010252/LUN2010252.txt
/home/sarah/watchtower/even/2010/2010921/LUN2010921.txt
/home/sarah/watchtower/even/2010/2010605/LUN2010605.txt
/home/sarah/watchtower/even/2010/2010810/LUN2010810.txt
/home/sarah/watchtower/even/2010/2010248/LUN2010248.txt
/home/sarah/watchtower/even/2010/2010524/LUN2010524.txt
/home/sarah/watchtower/even/2010/2010889/LUN2010889.txt
/home/sarah/watchtower/even/2010/2010370/LUN2010370.txt
/home/sarah/watchtower/even/2010/2010046/LUN2010046.txt
/home/sarah/watchtower/even/2010/2010606/LUN2010606.txt
/home/sarah/watchtower/even/2010/2010282/LUN2010282.txt
/home/sarah/watchtower/even/2010/2010044/LUN2010044.txt
/home/sarah/watchtower/even/2010/2010446/LUN2010446.txt
/home/sarah/watchtower/even/2010/2010927/LUN2010927.txt
/home/sarah/watchtower/even/2010/2010327/LUN2010327.txt
/home/sarah/watchtower/even/2010/2010763/LUN2010763.txt
/home/sarah/watchtower/even/2010/2010286/LUN2010286.txt
/home/sarah/watchtower/even/2010/2010209/LUN2010209.txt
/home/sarah/watchtower/even/2010/2010365/LUN2010365.txt
/home/sarah/watchtower/even/2010/2010202/LUN2010202.txt
/home/sarah/watchtower/even/2010/2010003/LUN2010003.txt
/home/sarah/watchtower/even/2010/2010526/LUN2010526.txt
/home/sarah/watchtower/even/2010/2010607/LUN2010607.txt
/home/sarah/watchtower/even/2010/2010169/LUN2010169.txt
/home/sarah/watchtower/even/2010/2010001/LUN2010001.txt
/home/sarah/watchtower/even/2010/2010922/LUN2010922.txt
/home/sarah/watchtower/even/2010/2010603/LUN2010603.txt
/home/sarah/watchtower/even/2010/2010363/LUN2010363.txt
/home/sarah/watchtower/even/2010/2010842/LUN2010842.txt
/home/sarah/watchtower/even/2010/2010201/LUN2010201.txt
/home/sarah/watchtower/even/2010/2010849/LUN2010849.txt
/home/sarah/watchtower/even/2010/2010723/LUN2010723.txt
/home/sarah/watchtower/even/2010/2010761/LUN2010761.txt
/home/sarah/watchtower/even/2010/2010522/LUN2010522.txt
/home/sarah/watchtower/even/2010/2010124/LUN2010124.txt
/home/sarah/watchtower/even/2010/2010764/LUN2010764.txt
/home/sarah/watchtower/even/2010/2010241/LUN2010241.txt
/home/sarah/watchtower/even/2010/2010928/LUN2010928.txt
/home/sarah/watchtower/even/2010/2010721/LUN2010721.txt
/home/sarah/watchtower/even/2010/2010724/LUN2010724.txt
/home/sarah/watchtower/even/2010/2010766/LUN2010766.txt
/home/sarah/watchtower/even/2010/2010762/LUN2010762.txt
/home/sarah/watchtower/even/2010/2010841/LUN2010841.txt
/home/sarah/watchtower/even/2010/2010086/LUN2010086.txt
/home/sarah/watchtower/even/2010/2010847/LUN2010847.txt
/home/sarah/watchtower/even/2010/2010366/LUN2010366.txt
/home/sarah/watchtower/even/2010/2010043/LUN2010043.txt
/home/sarah/watchtower/even/2010/2010641/LUN2010641.txt
/home/sarah/watchtower/even/2010/2010807/LUN2010807.txt
/home/sarah/watchtower/even/2010/2010683/LUN2010683.txt
/home/sarah/watchtower/even/2010/2010251/LUN2010251.txt
/home/sarah/watchtower/even/2010/2010125/LUN2010125.txt
/home/sarah/watchtower/even/2010/2010685/LUN2010685.txt
/home/sarah/watchtower/even/2010/2010367/LUN2010367.txt
/home/sarah/watchtower/even/2010/2010445/LUN2010445.txt
/home/sarah/watchtower/even/2010/2010564/LUN2010564.txt
/home/sarah/watchtower/even/2010/2010002/LUN2010002.txt
/home/sarah/watchtower/even/2010/2010247/LUN2010247.txt
/home/sarah/watchtower/even/2010/2010604/LUN2010604.txt
/home/sarah/watchtower/even/2010/2010488/LUN2010488.txt
/home/sarah/watchtower/even/2010/2010243/LUN2010243.txt
/home/sarah/watchtower/even/2010/2010845/LUN2010845.txt
/home/sarah/watchtower/even/2010/2010244/LUN2010244.txt
/home/sarah/watchtower/even/2010/2010047/LUN2010047.txt
/home/sarah/watchtower/even/2010/2010127/LUN2010127.txt
/home/sarah/watchtower/even/2010/2010925/LUN2010925.txt
/home/sarah/watchtower/even/2010/2010246/LUN2010246.txt
/home/sarah/watchtower/even/2010/2010725/LUN2010725.txt
/home/sarah/watchtower/even/2010/2010602/LUN2010602.txt
/home/sarah/watchtower/even/2010/2010525/LUN2010525.txt
/home/sarah/watchtower/even/2010/2010126/LUN2010126.txt
/home/sarah/watchtower/even/2010/2010041/LUN2010041.txt
/home/sarah/watchtower/even/2010/2010255/LUN2010255.txt
/home/sarah/watchtower/even/2010/2010128/LUN2010128.txt
/home/sarah/watchtower/even/2010/2010283/LUN2010283.txt
/home/sarah/watchtower/even/2010/2010843/LUN2010843.txt
/home/sarah/watchtower/even/2010/2010608/LUN2010608.txt
/home/sarah/watchtower/even/2010/2010364/LUN2010364.txt
/home/sarah/watchtower/even/2010/2010368/LUN2010368.txt
/home/sarah/watchtower/even/2010/2010768/LUN2010768.txt
/home/sarah/watchtower/even/2010/2010486/LUN2010486.txt
/home/sarah/watchtower/even/2010/2010284/LUN2010284.txt
/home/sarah/watchtower/even/2010/2010048/LUN2010048.txt
/home/sarah/watchtower/even/2010/2010765/LUN2010765.txt
/home/sarah/watchtower/even/2010/2010083/LUN2010083.txt
/home/sarah/watchtower/even/2010/2010609/LUN2010609.txt
/home/sarah/watchtower/even/2010/2010727/LUN2010727.txt
/home/sarah/watchtower/even/2006/2006926/LUN2006926.txt
/home/sarah/watchtower/even/2006/2006882/LUN2006882.txt
/home/sarah/watchtower/even/2006/2006925/LUN2006925.txt
/home/sarah/watchtower/even/2006/2006924/LUN2006924.txt
/home/sarah/watchtower/even/2006/2006843/LUN2006843.txt
