/home/sarah/watchtower/odd/2013/2013241/QU2013241.txt
/home/sarah/watchtower/odd/2013/2013683/QU2013683.txt
/home/sarah/watchtower/odd/2013/2013165/QU2013165.txt
/home/sarah/watchtower/odd/2013/2013169/QU2013169.txt
/home/sarah/watchtower/odd/2013/2013280/QU2013280.txt
/home/sarah/watchtower/odd/2013/2013922/QU2013922.txt
/home/sarah/watchtower/odd/2013/2013450/QU2013450.txt
/home/sarah/watchtower/odd/2013/2013160/QU2013160.txt
/home/sarah/watchtower/odd/2013/2013281/QU2013281.txt
/home/sarah/watchtower/odd/2013/2013721/QU2013721.txt
/home/sarah/watchtower/odd/2013/2013366/QU2013366.txt
/home/sarah/watchtower/odd/2013/2013684/QU2013684.txt
/home/sarah/watchtower/odd/2013/2013565/QU2013565.txt
/home/sarah/watchtower/odd/2013/2013487/QU2013487.txt
/home/sarah/watchtower/odd/2013/2013605/QU2013605.txt
/home/sarah/watchtower/odd/2013/2013492/QU2013492.txt
/home/sarah/watchtower/odd/2013/2013640/QU2013640.txt
/home/sarah/watchtower/odd/2013/2013645/QU2013645.txt
/home/sarah/watchtower/odd/2013/2013482/QU2013482.txt
/home/sarah/watchtower/odd/2013/2013730/QU2013730.txt
/home/sarah/watchtower/odd/2013/2013006/QU2013006.txt
/home/sarah/watchtower/odd/2013/2013569/QU2013569.txt
/home/sarah/watchtower/odd/2013/2013167/QU2013167.txt
/home/sarah/watchtower/odd/2013/2013400/QU2013400.txt
/home/sarah/watchtower/odd/2013/2013604/QU2013604.txt
/home/sarah/watchtower/odd/2013/2013364/QU2013364.txt
/home/sarah/watchtower/odd/2013/2013804/QU2013804.txt
/home/sarah/watchtower/odd/2013/2013129/QU2013129.txt
/home/sarah/watchtower/odd/2013/2013647/QU2013647.txt
/home/sarah/watchtower/odd/2013/2013563/QU2013563.txt
/home/sarah/watchtower/odd/2013/2013123/QU2013123.txt
/home/sarah/watchtower/odd/2013/2013841/QU2013841.txt
/home/sarah/watchtower/odd/2013/2013323/QU2013323.txt
/home/sarah/watchtower/odd/2013/2013326/QU2013326.txt
/home/sarah/watchtower/odd/2013/2013926/QU2013926.txt
/home/sarah/watchtower/odd/2013/2013560/QU2013560.txt
/home/sarah/watchtower/odd/2013/2013490/QU2013490.txt
/home/sarah/watchtower/odd/2013/2013204/QU2013204.txt
/home/sarah/watchtower/odd/2013/2013727/QU2013727.txt
/home/sarah/watchtower/odd/2013/2013887/QU2013887.txt
/home/sarah/watchtower/odd/2013/2013481/QU2013481.txt
/home/sarah/watchtower/odd/2013/2013205/QU2013205.txt
/home/sarah/watchtower/odd/2013/2013764/QU2013764.txt
/home/sarah/watchtower/odd/2013/2013760/QU2013760.txt
/home/sarah/watchtower/odd/2013/2013849/QU2013849.txt
/home/sarah/watchtower/odd/2013/2013284/QU2013284.txt
/home/sarah/watchtower/odd/2013/2013122/QU2013122.txt
/home/sarah/watchtower/odd/2013/2013800/QU2013800.txt
/home/sarah/watchtower/odd/2013/2013920/QU2013920.txt
/home/sarah/watchtower/odd/2013/2013440/QU2013440.txt
/home/sarah/watchtower/odd/2013/2013163/QU2013163.txt
/home/sarah/watchtower/odd/2013/2013883/QU2013883.txt
/home/sarah/watchtower/odd/2013/2013600/QU2013600.txt
/home/sarah/watchtower/odd/2013/2013489/QU2013489.txt
/home/sarah/watchtower/odd/2013/2013285/QU2013285.txt
/home/sarah/watchtower/odd/2013/2013044/QU2013044.txt
/home/sarah/watchtower/odd/2013/2013801/QU2013801.txt
/home/sarah/watchtower/odd/2013/2013325/QU2013325.txt
/home/sarah/watchtower/odd/2013/2013089/QU2013089.txt
/home/sarah/watchtower/odd/2013/2013720/QU2013720.txt
/home/sarah/watchtower/odd/2013/2013083/QU2013083.txt
/home/sarah/watchtower/odd/2013/2013642/QU2013642.txt
/home/sarah/watchtower/odd/2013/2013367/QU2013367.txt
/home/sarah/watchtower/odd/2013/2013043/QU2013043.txt
/home/sarah/watchtower/odd/2013/2013925/QU2013925.txt
/home/sarah/watchtower/odd/2013/2013329/QU2013329.txt
/home/sarah/watchtower/odd/2013/2013201/QU2013201.txt
/home/sarah/watchtower/odd/2013/2013406/QU2013406.txt
/home/sarah/watchtower/odd/2013/2013000/QU2013000.txt
/home/sarah/watchtower/odd/2013/2013321/QU2013321.txt
/home/sarah/watchtower/odd/2013/2013641/QU2013641.txt
/home/sarah/watchtower/odd/2013/2013728/QU2013728.txt
/home/sarah/watchtower/odd/2013/2013722/QU2013722.txt
/home/sarah/watchtower/odd/2013/2013803/QU2013803.txt
/home/sarah/watchtower/odd/2013/2013125/QU2013125.txt
/home/sarah/watchtower/odd/2013/2013885/QU2013885.txt
/home/sarah/watchtower/odd/2013/2013368/QU2013368.txt
/home/sarah/watchtower/odd/2013/2013442/QU2013442.txt
/home/sarah/watchtower/odd/2013/2013602/QU2013602.txt
/home/sarah/watchtower/odd/2013/2013729/QU2013729.txt
/home/sarah/watchtower/odd/2013/2013243/QU2013243.txt
/home/sarah/watchtower/odd/2013/2013681/QU2013681.txt
/home/sarah/watchtower/odd/2013/2013844/QU2013844.txt
/home/sarah/watchtower/odd/2013/2013249/QU2013249.txt
/home/sarah/watchtower/odd/2013/2013402/QU2013402.txt
/home/sarah/watchtower/odd/2013/2013081/QU2013081.txt
/home/sarah/watchtower/odd/2013/2013886/QU2013886.txt
/home/sarah/watchtower/odd/2013/2013288/QU2013288.txt
/home/sarah/watchtower/odd/2013/2013245/QU2013245.txt
/home/sarah/watchtower/odd/2013/2013847/QU2013847.txt
/home/sarah/watchtower/odd/2013/2013805/QU2013805.txt
/home/sarah/watchtower/odd/2013/2013731/QU2013731.txt
/home/sarah/watchtower/odd/2013/2013248/QU2013248.txt
/home/sarah/watchtower/odd/2013/2013401/QU2013401.txt
/home/sarah/watchtower/odd/2013/2013686/QU2013686.txt
/home/sarah/watchtower/odd/2013/2013403/QU2013403.txt
/home/sarah/watchtower/odd/2013/2013124/QU2013124.txt
/home/sarah/watchtower/odd/2013/2013607/QU2013607.txt
/home/sarah/watchtower/odd/2013/2013047/QU2013047.txt
/home/sarah/watchtower/odd/2013/2013040/QU2013040.txt
/home/sarah/watchtower/odd/2013/2013363/QU2013363.txt
/home/sarah/watchtower/odd/2013/2013884/QU2013884.txt
/home/sarah/watchtower/odd/2013/2013005/QU2013005.txt
/home/sarah/watchtower/odd/2013/2013128/QU2013128.txt
/home/sarah/watchtower/odd/2013/2013520/QU2013520.txt
/home/sarah/watchtower/odd/2013/2013322/QU2013322.txt
/home/sarah/watchtower/odd/2013/2013002/QU2013002.txt
/home/sarah/watchtower/odd/2013/2013606/QU2013606.txt
/home/sarah/watchtower/odd/2013/2013842/QU2013842.txt
/home/sarah/watchtower/odd/2013/2013240/QU2013240.txt
/home/sarah/watchtower/odd/2013/2013561/QU2013561.txt
/home/sarah/watchtower/odd/2013/2013521/QU2013521.txt
/home/sarah/watchtower/odd/2013/2013168/QU2013168.txt
/home/sarah/watchtower/odd/2013/2013443/QU2013443.txt
/home/sarah/watchtower/odd/2013/2013843/QU2013843.txt
/home/sarah/watchtower/odd/2013/2013203/QU2013203.txt
/home/sarah/watchtower/odd/2013/2013766/QU2013766.txt
/home/sarah/watchtower/odd/2013/2013763/QU2013763.txt
/home/sarah/watchtower/odd/2013/2013646/QU2013646.txt
/home/sarah/watchtower/odd/2013/2013282/QU2013282.txt
/home/sarah/watchtower/odd/2013/2013084/QU2013084.txt
/home/sarah/watchtower/odd/2013/2013809/QU2013809.txt
/home/sarah/watchtower/odd/2013/2013888/QU2013888.txt
/home/sarah/watchtower/odd/2013/2013768/QU2013768.txt
/home/sarah/watchtower/odd/2013/2013085/QU2013085.txt
/home/sarah/watchtower/odd/2013/2013007/QU2013007.txt
/home/sarah/watchtower/odd/2013/2013846/QU2013846.txt
/home/sarah/watchtower/odd/2013/2013447/QU2013447.txt
/home/sarah/watchtower/odd/2013/2013048/QU2013048.txt
/home/sarah/watchtower/odd/2013/2013810/QU2013810.txt
/home/sarah/watchtower/odd/2013/2013848/QU2013848.txt
/home/sarah/watchtower/odd/2013/2013164/QU2013164.txt
/home/sarah/watchtower/odd/2013/2013206/QU2013206.txt
/home/sarah/watchtower/odd/2013/2013845/QU2013845.txt
/home/sarah/watchtower/odd/2013/2013086/QU2013086.txt
/home/sarah/watchtower/odd/2013/2013446/QU2013446.txt
/home/sarah/watchtower/odd/2013/2013486/QU2013486.txt
/home/sarah/watchtower/odd/2013/2013761/QU2013761.txt
/home/sarah/watchtower/odd/2013/2013726/QU2013726.txt
/home/sarah/watchtower/odd/2013/2013246/QU2013246.txt
/home/sarah/watchtower/odd/2013/2013126/QU2013126.txt
/home/sarah/watchtower/odd/2013/2013208/QU2013208.txt
/home/sarah/watchtower/odd/2013/2013209/QU2013209.txt
/home/sarah/watchtower/odd/2013/2013808/QU2013808.txt
/home/sarah/watchtower/odd/2013/2013767/QU2013767.txt
/home/sarah/watchtower/odd/2013/2013566/QU2013566.txt
/home/sarah/watchtower/odd/2013/2013802/QU2013802.txt
/home/sarah/watchtower/odd/2013/2013881/QU2013881.txt
/home/sarah/watchtower/odd/2013/2013448/QU2013448.txt
/home/sarah/watchtower/odd/2013/2013806/QU2013806.txt
/home/sarah/watchtower/odd/2013/2013088/QU2013088.txt
/home/sarah/watchtower/odd/2013/2013127/QU2013127.txt
/home/sarah/watchtower/odd/2013/2013682/QU2013682.txt
/home/sarah/watchtower/odd/2013/2013488/QU2013488.txt
/home/sarah/watchtower/odd/2013/2013369/QU2013369.txt
/home/sarah/watchtower/odd/2013/2013320/QU2013320.txt
/home/sarah/watchtower/odd/2013/2013200/QU2013200.txt
/home/sarah/watchtower/odd/2013/2013765/QU2013765.txt
/home/sarah/watchtower/odd/2013/2013244/QU2013244.txt
/home/sarah/watchtower/odd/2013/2013045/QU2013045.txt
/home/sarah/watchtower/odd/2013/2013001/QU2013001.txt
/home/sarah/watchtower/odd/2013/2013648/QU2013648.txt
/home/sarah/watchtower/odd/2013/2013649/QU2013649.txt
/home/sarah/watchtower/odd/2013/2013445/QU2013445.txt
/home/sarah/watchtower/odd/2013/2013528/QU2013528.txt
/home/sarah/watchtower/odd/2013/2013807/QU2013807.txt
/home/sarah/watchtower/odd/2013/2013004/QU2013004.txt
/home/sarah/watchtower/odd/2013/2013564/QU2013564.txt
/home/sarah/watchtower/odd/2013/2013485/QU2013485.txt
/home/sarah/watchtower/odd/2013/2013562/QU2013562.txt
/home/sarah/watchtower/odd/2013/2013927/QU2013927.txt
/home/sarah/watchtower/odd/2013/2013924/QU2013924.txt
/home/sarah/watchtower/odd/2013/2013880/QU2013880.txt
/home/sarah/watchtower/odd/2013/2013644/QU2013644.txt
/home/sarah/watchtower/odd/2013/2013287/QU2013287.txt
/home/sarah/watchtower/odd/2013/2013688/QU2013688.txt
/home/sarah/watchtower/odd/2013/2013725/QU2013725.txt
/home/sarah/watchtower/odd/2013/2013041/QU2013041.txt
/home/sarah/watchtower/odd/2013/2013643/QU2013643.txt
/home/sarah/watchtower/odd/2013/2013882/QU2013882.txt
/home/sarah/watchtower/odd/2013/2013247/QU2013247.txt
/home/sarah/watchtower/odd/2013/2013724/QU2013724.txt
/home/sarah/watchtower/odd/2013/2013120/QU2013120.txt
/home/sarah/watchtower/odd/2013/2013283/QU2013283.txt
/home/sarah/watchtower/odd/2013/2013923/QU2013923.txt
/home/sarah/watchtower/odd/2013/2013361/QU2013361.txt
/home/sarah/watchtower/odd/2013/2013161/QU2013161.txt
/home/sarah/watchtower/odd/2013/2013365/QU2013365.txt
/home/sarah/watchtower/odd/2013/2013527/QU2013527.txt
/home/sarah/watchtower/odd/2013/2013162/QU2013162.txt
/home/sarah/watchtower/odd/2013/2013046/QU2013046.txt
/home/sarah/watchtower/odd/2013/2013121/QU2013121.txt
/home/sarah/watchtower/odd/2013/2013082/QU2013082.txt
/home/sarah/watchtower/odd/2013/2013680/QU2013680.txt
/home/sarah/watchtower/odd/2013/2013601/QU2013601.txt
/home/sarah/watchtower/odd/2013/2013408/QU2013408.txt
/home/sarah/watchtower/odd/2013/2013687/QU2013687.txt
/home/sarah/watchtower/odd/2013/2013202/QU2013202.txt
/home/sarah/watchtower/odd/2013/2013921/QU2013921.txt
/home/sarah/watchtower/odd/2013/2013360/QU2013360.txt
/home/sarah/watchtower/odd/2013/2013603/QU2013603.txt
/home/sarah/watchtower/odd/2013/2013407/QU2013407.txt
/home/sarah/watchtower/odd/2013/2013723/QU2013723.txt
/home/sarah/watchtower/odd/2013/2013444/QU2013444.txt
/home/sarah/watchtower/odd/2013/2013003/QU2013003.txt
/home/sarah/watchtower/odd/2013/2013609/QU2013609.txt
/home/sarah/watchtower/odd/2013/2013441/QU2013441.txt
/home/sarah/watchtower/odd/2013/2013404/QU2013404.txt
/home/sarah/watchtower/odd/2013/2013483/QU2013483.txt
/home/sarah/watchtower/odd/2013/2013405/QU2013405.txt
/home/sarah/watchtower/odd/2013/2013762/QU2013762.txt
/home/sarah/watchtower/odd/2013/2013362/QU2013362.txt
/home/sarah/watchtower/odd/2013/2013608/QU2013608.txt
/home/sarah/watchtower/odd/2013/2013324/QU2013324.txt
/home/sarah/watchtower/odd/2013/2013327/QU2013327.txt
/home/sarah/watchtower/odd/2013/2013166/QU2013166.txt
/home/sarah/watchtower/odd/2013/2013685/QU2013685.txt
/home/sarah/watchtower/odd/2013/2013042/QU2013042.txt
/home/sarah/watchtower/odd/2013/2013087/QU2013087.txt
/home/sarah/watchtower/odd/2013/2013840/QU2013840.txt
/home/sarah/watchtower/odd/2013/2013286/QU2013286.txt
/home/sarah/watchtower/odd/2013/2013484/QU2013484.txt
/home/sarah/watchtower/odd/2013/2013480/QU2013480.txt
/home/sarah/watchtower/odd/2015/2015843/QU2015843.txt
/home/sarah/watchtower/odd/2015/2015686/QU2015686.txt
/home/sarah/watchtower/odd/2015/2015041/QU2015041.txt
/home/sarah/watchtower/odd/2015/2015805/QU2015805.txt
/home/sarah/watchtower/odd/2015/2015771/QU2015771.txt
/home/sarah/watchtower/odd/2015/2015123/QU2015123.txt
/home/sarah/watchtower/odd/2015/2015642/QU2015642.txt
/home/sarah/watchtower/odd/2015/2015527/QU2015527.txt
/home/sarah/watchtower/odd/2015/2015003/QU2015003.txt
/home/sarah/watchtower/odd/2015/2015441/QU2015441.txt
/home/sarah/watchtower/odd/2015/2015444/QU2015444.txt
/home/sarah/watchtower/odd/2015/2015808/QU2015808.txt
/home/sarah/watchtower/odd/2015/2015725/QU2015725.txt
/home/sarah/watchtower/odd/2015/2015203/QU2015203.txt
/home/sarah/watchtower/odd/2015/2015363/QU2015363.txt
/home/sarah/watchtower/odd/2015/2015405/QU2015405.txt
/home/sarah/watchtower/odd/2015/2015847/QU2015847.txt
/home/sarah/watchtower/odd/2015/2015166/QU2015166.txt
/home/sarah/watchtower/odd/2015/2015722/QU2015722.txt
/home/sarah/watchtower/odd/2015/2015485/QU2015485.txt
/home/sarah/watchtower/odd/2015/2015651/QU2015651.txt
/home/sarah/watchtower/odd/2015/2015889/QU2015889.txt
/home/sarah/watchtower/odd/2015/2015606/QU2015606.txt
/home/sarah/watchtower/odd/2015/2015729/QU2015729.txt
/home/sarah/watchtower/odd/2015/2015650/QU2015650.txt
/home/sarah/watchtower/odd/2015/2015082/QU2015082.txt
/home/sarah/watchtower/odd/2015/2015648/QU2015648.txt
/home/sarah/watchtower/odd/2015/2015086/QU2015086.txt
/home/sarah/watchtower/odd/2015/2015244/QU2015244.txt
/home/sarah/watchtower/odd/2015/2015368/QU2015368.txt
/home/sarah/watchtower/odd/2015/2015884/QU2015884.txt
/home/sarah/watchtower/odd/2015/2015926/QU2015926.txt
/home/sarah/watchtower/odd/2015/2015925/QU2015925.txt
/home/sarah/watchtower/odd/2015/2015528/QU2015528.txt
/home/sarah/watchtower/odd/2015/2015128/QU2015128.txt
/home/sarah/watchtower/odd/2015/2015726/QU2015726.txt
/home/sarah/watchtower/odd/2015/2015644/QU2015644.txt
/home/sarah/watchtower/odd/2015/2015002/QU2015002.txt
/home/sarah/watchtower/odd/2015/2015480/QU2015480.txt
/home/sarah/watchtower/odd/2015/2015320/QU2015320.txt
/home/sarah/watchtower/odd/2015/2015163/QU2015163.txt
/home/sarah/watchtower/odd/2015/2015685/QU2015685.txt
/home/sarah/watchtower/odd/2015/2015207/QU2015207.txt
/home/sarah/watchtower/odd/2015/2015521/QU2015521.txt
/home/sarah/watchtower/odd/2015/2015885/QU2015885.txt
/home/sarah/watchtower/odd/2015/2015645/QU2015645.txt
/home/sarah/watchtower/odd/2015/2015403/QU2015403.txt
/home/sarah/watchtower/odd/2015/2015765/QU2015765.txt
/home/sarah/watchtower/odd/2015/2015567/QU2015567.txt
/home/sarah/watchtower/odd/2015/2015727/QU2015727.txt
/home/sarah/watchtower/odd/2015/2015724/QU2015724.txt
/home/sarah/watchtower/odd/2015/2015005/QU2015005.txt
/home/sarah/watchtower/odd/2015/2015682/QU2015682.txt
/home/sarah/watchtower/odd/2015/2015322/QU2015322.txt
/home/sarah/watchtower/odd/2015/2015400/QU2015400.txt
/home/sarah/watchtower/odd/2015/2015442/QU2015442.txt
/home/sarah/watchtower/odd/2015/2015488/QU2015488.txt
/home/sarah/watchtower/odd/2015/2015404/QU2015404.txt
/home/sarah/watchtower/odd/2015/2015328/QU2015328.txt
/home/sarah/watchtower/odd/2015/2015484/QU2015484.txt
/home/sarah/watchtower/odd/2015/2015526/QU2015526.txt
/home/sarah/watchtower/odd/2015/2015605/QU2015605.txt
/home/sarah/watchtower/odd/2015/2015683/QU2015683.txt
/home/sarah/watchtower/odd/2015/2015282/QU2015282.txt
/home/sarah/watchtower/odd/2015/2015246/QU2015246.txt
/home/sarah/watchtower/odd/2015/2015684/QU2015684.txt
/home/sarah/watchtower/odd/2015/2015083/QU2015083.txt
/home/sarah/watchtower/odd/2015/2015240/QU2015240.txt
/home/sarah/watchtower/odd/2015/2015362/QU2015362.txt
/home/sarah/watchtower/odd/2015/2015730/QU2015730.txt
/home/sarah/watchtower/odd/2015/2015122/QU2015122.txt
/home/sarah/watchtower/odd/2015/2015446/QU2015446.txt
/home/sarah/watchtower/odd/2015/2015045/QU2015045.txt
/home/sarah/watchtower/odd/2015/2015647/QU2015647.txt
/home/sarah/watchtower/odd/2015/2015646/QU2015646.txt
/home/sarah/watchtower/odd/2015/2015243/QU2015243.txt
/home/sarah/watchtower/odd/2015/2015283/QU2015283.txt
/home/sarah/watchtower/odd/2015/2015523/QU2015523.txt
/home/sarah/watchtower/odd/2015/2015560/QU2015560.txt
/home/sarah/watchtower/odd/2015/2015563/QU2015563.txt
/home/sarah/watchtower/odd/2015/2015042/QU2015042.txt
/home/sarah/watchtower/odd/2015/2015522/QU2015522.txt
/home/sarah/watchtower/odd/2015/2015604/QU2015604.txt
/home/sarah/watchtower/odd/2015/2015882/QU2015882.txt
/home/sarah/watchtower/odd/2015/2015761/QU2015761.txt
/home/sarah/watchtower/odd/2015/2015845/QU2015845.txt
/home/sarah/watchtower/odd/2015/2015768/QU2015768.txt
/home/sarah/watchtower/odd/2015/2015407/QU2015407.txt
/home/sarah/watchtower/odd/2015/2015084/QU2015084.txt
/home/sarah/watchtower/odd/2015/2015406/QU2015406.txt
/home/sarah/watchtower/odd/2015/2015323/QU2015323.txt
/home/sarah/watchtower/odd/2015/2015487/QU2015487.txt
/home/sarah/watchtower/odd/2015/2015841/QU2015841.txt
/home/sarah/watchtower/odd/2015/2015325/QU2015325.txt
/home/sarah/watchtower/odd/2015/2015681/QU2015681.txt
/home/sarah/watchtower/odd/2015/2015890/QU2015890.txt
/home/sarah/watchtower/odd/2015/2015886/QU2015886.txt
/home/sarah/watchtower/odd/2015/2015165/QU2015165.txt
/home/sarah/watchtower/odd/2015/2015160/QU2015160.txt
/home/sarah/watchtower/odd/2015/2015125/QU2015125.txt
/home/sarah/watchtower/odd/2015/2015000/QU2015000.txt
/home/sarah/watchtower/odd/2015/2015208/QU2015208.txt
/home/sarah/watchtower/odd/2015/2015566/QU2015566.txt
/home/sarah/watchtower/odd/2015/2015447/QU2015447.txt
/home/sarah/watchtower/odd/2015/2015601/QU2015601.txt
/home/sarah/watchtower/odd/2015/2015164/QU2015164.txt
/home/sarah/watchtower/odd/2015/2015286/QU2015286.txt
/home/sarah/watchtower/odd/2015/2015287/QU2015287.txt
/home/sarah/watchtower/odd/2015/2015007/QU2015007.txt
/home/sarah/watchtower/odd/2015/2015043/QU2015043.txt
/home/sarah/watchtower/odd/2015/2015245/QU2015245.txt
/home/sarah/watchtower/odd/2015/2015809/QU2015809.txt
/home/sarah/watchtower/odd/2015/2015562/QU2015562.txt
/home/sarah/watchtower/odd/2015/2015242/QU2015242.txt
/home/sarah/watchtower/odd/2015/2015326/QU2015326.txt
/home/sarah/watchtower/odd/2015/2015482/QU2015482.txt
/home/sarah/watchtower/odd/2015/2015047/QU2015047.txt
/home/sarah/watchtower/odd/2015/2015603/QU2015603.txt
/home/sarah/watchtower/odd/2015/2015402/QU2015402.txt
/home/sarah/watchtower/odd/2015/2015201/QU2015201.txt
/home/sarah/watchtower/odd/2015/2015281/QU2015281.txt
/home/sarah/watchtower/odd/2015/2015767/QU2015767.txt
/home/sarah/watchtower/odd/2015/2015804/QU2015804.txt
/home/sarah/watchtower/odd/2015/2015206/QU2015206.txt
/home/sarah/watchtower/odd/2015/2015327/QU2015327.txt
/home/sarah/watchtower/odd/2015/2015762/QU2015762.txt
/home/sarah/watchtower/odd/2015/2015802/QU2015802.txt
/home/sarah/watchtower/odd/2015/2015366/QU2015366.txt
/home/sarah/watchtower/odd/2015/2015202/QU2015202.txt
/home/sarah/watchtower/odd/2015/2015085/QU2015085.txt
/home/sarah/watchtower/odd/2015/2015525/QU2015525.txt
/home/sarah/watchtower/odd/2015/2015247/QU2015247.txt
/home/sarah/watchtower/odd/2015/2015924/QU2015924.txt
/home/sarah/watchtower/odd/2015/2015806/QU2015806.txt
/home/sarah/watchtower/odd/2015/2015445/QU2015445.txt
/home/sarah/watchtower/odd/2015/2015766/QU2015766.txt
/home/sarah/watchtower/odd/2015/2015807/QU2015807.txt
/home/sarah/watchtower/odd/2015/2015004/QU2015004.txt
/home/sarah/watchtower/odd/2015/2015285/QU2015285.txt
/home/sarah/watchtower/odd/2015/2015846/QU2015846.txt
/home/sarah/watchtower/odd/2015/2015565/QU2015565.txt
/home/sarah/watchtower/odd/2015/2015921/QU2015921.txt
/home/sarah/watchtower/odd/2015/2015602/QU2015602.txt
/home/sarah/watchtower/odd/2015/2015204/QU2015204.txt
/home/sarah/watchtower/odd/2015/2015848/QU2015848.txt
/home/sarah/watchtower/odd/2015/2015172/QU2015172.txt
/home/sarah/watchtower/odd/2015/2015842/QU2015842.txt
/home/sarah/watchtower/odd/2015/2015923/QU2015923.txt
/home/sarah/watchtower/odd/2015/2015483/QU2015483.txt
/home/sarah/watchtower/odd/2015/2015564/QU2015564.txt
/home/sarah/watchtower/odd/2015/2015763/QU2015763.txt
/home/sarah/watchtower/odd/2015/2015162/QU2015162.txt
/home/sarah/watchtower/odd/2015/2015734/QU2015734.txt
/home/sarah/watchtower/odd/2015/2015167/QU2015167.txt
/home/sarah/watchtower/odd/2015/2015126/QU2015126.txt
/home/sarah/watchtower/odd/2015/2015008/QU2015008.txt
/home/sarah/watchtower/odd/2015/2015649/QU2015649.txt
/home/sarah/watchtower/odd/2015/2015288/QU2015288.txt
/home/sarah/watchtower/odd/2015/2015046/QU2015046.txt
/home/sarah/watchtower/odd/2015/2015324/QU2015324.txt
/home/sarah/watchtower/odd/2015/2015361/QU2015361.txt
/home/sarah/watchtower/odd/2015/2015124/QU2015124.txt
/home/sarah/watchtower/odd/2015/2015887/QU2015887.txt
/home/sarah/watchtower/odd/2015/2015448/QU2015448.txt
/home/sarah/watchtower/odd/2015/2015367/QU2015367.txt
/home/sarah/watchtower/odd/2015/2015080/QU2015080.txt
/home/sarah/watchtower/odd/2015/2015850/QU2015850.txt
/home/sarah/watchtower/odd/2015/2015922/QU2015922.txt
/home/sarah/watchtower/odd/2015/2015127/QU2015127.txt
/home/sarah/watchtower/odd/2015/2015486/QU2015486.txt
/home/sarah/watchtower/odd/2015/2015607/QU2015607.txt
/home/sarah/watchtower/odd/2011/2011922/QU2011922.txt
/home/sarah/watchtower/odd/2011/2011731/QU2011731.txt
/home/sarah/watchtower/odd/2011/2011806/QU2011806.txt
/home/sarah/watchtower/odd/2011/2011047/QU2011047.txt
/home/sarah/watchtower/odd/2011/2011767/QU2011767.txt
/home/sarah/watchtower/odd/2011/2011447/QU2011447.txt
/home/sarah/watchtower/odd/2011/2011367/QU2011367.txt
/home/sarah/watchtower/odd/2011/2011177/QU2011177.txt
/home/sarah/watchtower/odd/2011/2011843/QU2011843.txt
/home/sarah/watchtower/odd/2011/2011925/QU2011925.txt
/home/sarah/watchtower/odd/2011/2011128/QU2011128.txt
/home/sarah/watchtower/odd/2011/2011248/QU2011248.txt
/home/sarah/watchtower/odd/2011/2011728/QU2011728.txt
/home/sarah/watchtower/odd/2011/2011645/QU2011645.txt
/home/sarah/watchtower/odd/2011/2011734/QU2011734.txt
/home/sarah/watchtower/odd/2011/2011127/QU2011127.txt
/home/sarah/watchtower/odd/2011/2011326/QU2011326.txt
/home/sarah/watchtower/odd/2011/2011847/QU2011847.txt
/home/sarah/watchtower/odd/2011/2011010/QU2011010.txt
/home/sarah/watchtower/odd/2011/2011487/QU2011487.txt
/home/sarah/watchtower/odd/2011/2011122/QU2011122.txt
/home/sarah/watchtower/odd/2011/2011526/QU2011526.txt
/home/sarah/watchtower/odd/2011/2011444/QU2011444.txt
/home/sarah/watchtower/odd/2011/2011924/QU2011924.txt
/home/sarah/watchtower/odd/2011/2011249/QU2011249.txt
/home/sarah/watchtower/odd/2011/2011605/QU2011605.txt
/home/sarah/watchtower/odd/2011/2011366/QU2011366.txt
/home/sarah/watchtower/odd/2011/2011882/QU2011882.txt
/home/sarah/watchtower/odd/2011/2011927/QU2011927.txt
/home/sarah/watchtower/odd/2011/2011245/QU2011245.txt
/home/sarah/watchtower/odd/2011/2011522/QU2011522.txt
/home/sarah/watchtower/odd/2011/2011201/QU2011201.txt
/home/sarah/watchtower/odd/2011/2011926/QU2011926.txt
/home/sarah/watchtower/odd/2011/2011761/QU2011761.txt
/home/sarah/watchtower/odd/2011/2011682/QU2011682.txt
/home/sarah/watchtower/odd/2011/2011287/QU2011287.txt
/home/sarah/watchtower/odd/2011/2011573/QU2011573.txt
/home/sarah/watchtower/odd/2011/2011281/QU2011281.txt
/home/sarah/watchtower/odd/2011/2011121/QU2011121.txt
/home/sarah/watchtower/odd/2011/2011764/QU2011764.txt
/home/sarah/watchtower/odd/2011/2011844/QU2011844.txt
/home/sarah/watchtower/odd/2011/2011681/QU2011681.txt
/home/sarah/watchtower/odd/2011/2011525/QU2011525.txt
/home/sarah/watchtower/odd/2011/2011125/QU2011125.txt
/home/sarah/watchtower/odd/2011/2011324/QU2011324.txt
/home/sarah/watchtower/odd/2011/2011004/QU2011004.txt
/home/sarah/watchtower/odd/2011/2011204/QU2011204.txt
/home/sarah/watchtower/odd/2011/2011325/QU2011325.txt
/home/sarah/watchtower/odd/2011/2011562/QU2011562.txt
/home/sarah/watchtower/odd/2011/2011363/QU2011363.txt
/home/sarah/watchtower/odd/2011/2011126/QU2011126.txt
/home/sarah/watchtower/odd/2011/2011046/QU2011046.txt
/home/sarah/watchtower/odd/2011/2011733/QU2011733.txt
/home/sarah/watchtower/odd/2011/2011448/QU2011448.txt
/home/sarah/watchtower/odd/2011/2011685/QU2011685.txt
/home/sarah/watchtower/odd/2011/2011565/QU2011565.txt
/home/sarah/watchtower/odd/2011/2011247/QU2011247.txt
/home/sarah/watchtower/odd/2011/2011129/QU2011129.txt
/home/sarah/watchtower/odd/2011/2011766/QU2011766.txt
/home/sarah/watchtower/odd/2011/2011484/QU2011484.txt
/home/sarah/watchtower/odd/2011/2011765/QU2011765.txt
/home/sarah/watchtower/odd/2011/2011608/QU2011608.txt
/home/sarah/watchtower/odd/2011/2011603/QU2011603.txt
/home/sarah/watchtower/odd/2011/2011442/QU2011442.txt
/home/sarah/watchtower/odd/2011/2011206/QU2011206.txt
/home/sarah/watchtower/odd/2011/2011841/QU2011841.txt
/home/sarah/watchtower/odd/2011/2011881/QU2011881.txt
/home/sarah/watchtower/odd/2011/2011884/QU2011884.txt
/home/sarah/watchtower/odd/2011/2011361/QU2011361.txt
/home/sarah/watchtower/odd/2011/2011732/QU2011732.txt
/home/sarah/watchtower/odd/2011/2011606/QU2011606.txt
/home/sarah/watchtower/odd/2011/2011202/QU2011202.txt
/home/sarah/watchtower/odd/2011/2011730/QU2011730.txt
/home/sarah/watchtower/odd/2011/2011282/QU2011282.txt
/home/sarah/watchtower/odd/2011/2011441/QU2011441.txt
/home/sarah/watchtower/odd/2011/2011205/QU2011205.txt
/home/sarah/watchtower/odd/2011/2011611/QU2011611.txt
/home/sarah/watchtower/odd/2011/2011203/QU2011203.txt
/home/sarah/watchtower/odd/2011/2011327/QU2011327.txt
/home/sarah/watchtower/odd/2011/2011521/QU2011521.txt
/home/sarah/watchtower/odd/2011/2011845/QU2011845.txt
/home/sarah/watchtower/odd/2011/2011041/QU2011041.txt
/home/sarah/watchtower/odd/2011/2011246/QU2011246.txt
/home/sarah/watchtower/odd/2011/2011762/QU2011762.txt
/home/sarah/watchtower/odd/2011/2011684/QU2011684.txt
/home/sarah/watchtower/odd/2011/2011763/QU2011763.txt
/home/sarah/watchtower/odd/2011/2011610/QU2011610.txt
/home/sarah/watchtower/odd/2011/2011088/QU2011088.txt
/home/sarah/watchtower/odd/2011/2011283/QU2011283.txt
/home/sarah/watchtower/odd/2011/2011364/QU2011364.txt
/home/sarah/watchtower/odd/2011/2011365/QU2011365.txt
/home/sarah/watchtower/odd/2011/2011486/QU2011486.txt
/home/sarah/watchtower/odd/2011/2011446/QU2011446.txt
/home/sarah/watchtower/odd/2011/2011735/QU2011735.txt
/home/sarah/watchtower/odd/2011/2011686/QU2011686.txt
/home/sarah/watchtower/odd/2011/2011285/QU2011285.txt
/home/sarah/watchtower/odd/2011/2011567/QU2011567.txt
/home/sarah/watchtower/odd/2011/2011564/QU2011564.txt
/home/sarah/watchtower/odd/2011/2011007/QU2011007.txt
/home/sarah/watchtower/odd/2011/2011607/QU2011607.txt
/home/sarah/watchtower/odd/2011/2011002/QU2011002.txt
/home/sarah/watchtower/odd/2011/2011322/QU2011322.txt
/home/sarah/watchtower/odd/2011/2011321/QU2011321.txt
/home/sarah/watchtower/odd/2011/2011443/QU2011443.txt
/home/sarah/watchtower/odd/2011/2011445/QU2011445.txt
/home/sarah/watchtower/odd/2011/2011729/QU2011729.txt
/home/sarah/watchtower/odd/2011/2011563/QU2011563.txt
/home/sarah/watchtower/odd/2011/2011286/QU2011286.txt
/home/sarah/watchtower/odd/2011/2011323/QU2011323.txt
/home/sarah/watchtower/odd/2011/2011524/QU2011524.txt
/home/sarah/watchtower/odd/2011/2011333/QU2011333.txt
/home/sarah/watchtower/odd/2011/2011043/QU2011043.txt
/home/sarah/watchtower/odd/2011/2011842/QU2011842.txt
/home/sarah/watchtower/odd/2011/2011008/QU2011008.txt
/home/sarah/watchtower/odd/2011/2011923/QU2011923.txt
/home/sarah/watchtower/odd/2011/2011683/QU2011683.txt
/home/sarah/watchtower/odd/2011/2011003/QU2011003.txt
/home/sarah/watchtower/odd/2011/2011176/QU2011176.txt
/home/sarah/watchtower/odd/2011/2011045/QU2011045.txt
/home/sarah/watchtower/odd/2011/2011846/QU2011846.txt
/home/sarah/watchtower/odd/2011/2011523/QU2011523.txt
/home/sarah/watchtower/odd/2011/2011570/QU2011570.txt
/home/sarah/watchtower/odd/2011/2011284/QU2011284.txt
/home/sarah/watchtower/odd/2011/2011883/QU2011883.txt
/home/sarah/watchtower/odd/2011/2011921/QU2011921.txt
/home/sarah/watchtower/odd/2011/2011561/QU2011561.txt
/home/sarah/watchtower/odd/2011/2011124/QU2011124.txt
/home/sarah/watchtower/odd/2011/2011332/QU2011332.txt
/home/sarah/watchtower/odd/2011/2011328/QU2011328.txt
/home/sarah/watchtower/odd/2011/2011405/QU2011405.txt
/home/sarah/watchtower/odd/2011/2011044/QU2011044.txt
/home/sarah/watchtower/odd/2011/2011368/QU2011368.txt
/home/sarah/watchtower/odd/2011/2011488/QU2011488.txt
/home/sarah/watchtower/odd/2011/2011602/QU2011602.txt
/home/sarah/watchtower/odd/2011/2011808/QU2011808.txt
/home/sarah/watchtower/odd/2011/2011652/QU2011652.txt
/home/sarah/watchtower/odd/2011/2011288/QU2011288.txt
/home/sarah/watchtower/odd/2011/2011006/QU2011006.txt
/home/sarah/watchtower/odd/2011/2011089/QU2011089.txt
/home/sarah/watchtower/odd/2011/2011609/QU2011609.txt
/home/sarah/watchtower/odd/2011/2011848/QU2011848.txt
/home/sarah/watchtower/odd/2011/2011687/QU2011687.txt
/home/sarah/watchtower/odd/2009/2009489/QU2009489.txt
/home/sarah/watchtower/odd/2009/2009446/QU2009446.txt
/home/sarah/watchtower/odd/2009/2009003/QU2009003.txt
/home/sarah/watchtower/odd/2009/2009493/QU2009493.txt
/home/sarah/watchtower/odd/2009/2009565/QU2009565.txt
/home/sarah/watchtower/odd/2009/2009522/QU2009522.txt
/home/sarah/watchtower/odd/2009/2009481/QU2009481.txt
/home/sarah/watchtower/odd/2009/2009040/QU2009040.txt
/home/sarah/watchtower/odd/2009/2009280/QU2009280.txt
/home/sarah/watchtower/odd/2009/2009440/QU2009440.txt
/home/sarah/watchtower/odd/2009/2009043/QU2009043.txt
/home/sarah/watchtower/odd/2009/2009842/QU2009842.txt
/home/sarah/watchtower/odd/2009/2009682/QU2009682.txt
/home/sarah/watchtower/odd/2009/2009767/QU2009767.txt
/home/sarah/watchtower/odd/2009/2009282/QU2009282.txt
/home/sarah/watchtower/odd/2009/2009407/QU2009407.txt
/home/sarah/watchtower/odd/2009/2009761/QU2009761.txt
/home/sarah/watchtower/odd/2009/2009001/QU2009001.txt
/home/sarah/watchtower/odd/2009/2009204/QU2009204.txt
/home/sarah/watchtower/odd/2009/2009362/QU2009362.txt
/home/sarah/watchtower/odd/2009/2009011/QU2009011.txt
/home/sarah/watchtower/odd/2009/2009606/QU2009606.txt
/home/sarah/watchtower/odd/2009/2009683/QU2009683.txt
/home/sarah/watchtower/odd/2009/2009286/QU2009286.txt
/home/sarah/watchtower/odd/2009/2009762/QU2009762.txt
/home/sarah/watchtower/odd/2009/2009320/QU2009320.txt
/home/sarah/watchtower/odd/2009/2009363/QU2009363.txt
/home/sarah/watchtower/odd/2009/2009482/QU2009482.txt
/home/sarah/watchtower/odd/2009/2009921/QU2009921.txt
/home/sarah/watchtower/odd/2009/2009368/QU2009368.txt
/home/sarah/watchtower/odd/2009/2009801/QU2009801.txt
/home/sarah/watchtower/odd/2009/2009205/QU2009205.txt
/home/sarah/watchtower/odd/2009/2009802/QU2009802.txt
/home/sarah/watchtower/odd/2009/2009803/QU2009803.txt
/home/sarah/watchtower/odd/2009/2009769/QU2009769.txt
/home/sarah/watchtower/odd/2009/2009687/QU2009687.txt
/home/sarah/watchtower/odd/2009/2009765/QU2009765.txt
/home/sarah/watchtower/odd/2009/2009812/QU2009812.txt
/home/sarah/watchtower/odd/2009/2009045/QU2009045.txt
/home/sarah/watchtower/odd/2009/2009174/QU2009174.txt
/home/sarah/watchtower/odd/2009/2009601/QU2009601.txt
/home/sarah/watchtower/odd/2009/2009926/QU2009926.txt
/home/sarah/watchtower/odd/2009/2009843/QU2009843.txt
/home/sarah/watchtower/odd/2009/2009329/QU2009329.txt
/home/sarah/watchtower/odd/2009/2009763/QU2009763.txt
/home/sarah/watchtower/odd/2009/2009207/QU2009207.txt
/home/sarah/watchtower/odd/2009/2009817/QU2009817.txt
/home/sarah/watchtower/odd/2009/2009924/QU2009924.txt
/home/sarah/watchtower/odd/2009/2009480/QU2009480.txt
/home/sarah/watchtower/odd/2009/2009447/QU2009447.txt
/home/sarah/watchtower/odd/2009/2009321/QU2009321.txt
/home/sarah/watchtower/odd/2009/2009528/QU2009528.txt
/home/sarah/watchtower/odd/2009/2009364/QU2009364.txt
/home/sarah/watchtower/odd/2009/2009086/QU2009086.txt
/home/sarah/watchtower/odd/2009/2009523/QU2009523.txt
/home/sarah/watchtower/odd/2009/2009728/QU2009728.txt
/home/sarah/watchtower/odd/2009/2009567/QU2009567.txt
/home/sarah/watchtower/odd/2009/2009685/QU2009685.txt
/home/sarah/watchtower/odd/2009/2009330/QU2009330.txt
/home/sarah/watchtower/odd/2009/2009173/QU2009173.txt
/home/sarah/watchtower/odd/2009/2009890/QU2009890.txt
/home/sarah/watchtower/odd/2009/2009124/QU2009124.txt
/home/sarah/watchtower/odd/2009/2009334/QU2009334.txt
/home/sarah/watchtower/odd/2009/2009125/QU2009125.txt
/home/sarah/watchtower/odd/2009/2009360/QU2009360.txt
/home/sarah/watchtower/odd/2009/2009127/QU2009127.txt
/home/sarah/watchtower/odd/2009/2009768/QU2009768.txt
/home/sarah/watchtower/odd/2009/2009527/QU2009527.txt
/home/sarah/watchtower/odd/2009/2009366/QU2009366.txt
/home/sarah/watchtower/odd/2009/2009331/QU2009331.txt
/home/sarah/watchtower/odd/2009/2009810/QU2009810.txt
/home/sarah/watchtower/odd/2009/2009841/QU2009841.txt
/home/sarah/watchtower/odd/2009/2009322/QU2009322.txt
/home/sarah/watchtower/odd/2009/2009093/QU2009093.txt
/home/sarah/watchtower/odd/2009/2009044/QU2009044.txt
/home/sarah/watchtower/odd/2009/2009686/QU2009686.txt
/home/sarah/watchtower/odd/2009/2009805/QU2009805.txt
/home/sarah/watchtower/odd/2009/2009725/QU2009725.txt
/home/sarah/watchtower/odd/2009/2009444/QU2009444.txt
/home/sarah/watchtower/odd/2009/2009202/QU2009202.txt
/home/sarah/watchtower/odd/2009/2009361/QU2009361.txt
/home/sarah/watchtower/odd/2009/2009568/QU2009568.txt
/home/sarah/watchtower/odd/2009/2009604/QU2009604.txt
/home/sarah/watchtower/odd/2009/2009201/QU2009201.txt
/home/sarah/watchtower/odd/2009/2009644/QU2009644.txt
/home/sarah/watchtower/odd/2009/2009766/QU2009766.txt
/home/sarah/watchtower/odd/2009/2009922/QU2009922.txt
/home/sarah/watchtower/odd/2009/2009529/QU2009529.txt
/home/sarah/watchtower/odd/2009/2009608/QU2009608.txt
/home/sarah/watchtower/odd/2009/2009206/QU2009206.txt
/home/sarah/watchtower/odd/2009/2009281/QU2009281.txt
/home/sarah/watchtower/odd/2009/2009569/QU2009569.txt
/home/sarah/watchtower/odd/2009/2009443/QU2009443.txt
/home/sarah/watchtower/odd/2009/2009367/QU2009367.txt
/home/sarah/watchtower/odd/2009/2009526/QU2009526.txt
/home/sarah/watchtower/odd/2009/2009335/QU2009335.txt
/home/sarah/watchtower/odd/2009/2009002/QU2009002.txt
/home/sarah/watchtower/odd/2009/2009730/QU2009730.txt
/home/sarah/watchtower/odd/2009/2009091/QU2009091.txt
/home/sarah/watchtower/odd/2009/2009845/QU2009845.txt
/home/sarah/watchtower/odd/2009/2009571/QU2009571.txt
/home/sarah/watchtower/odd/2009/2009524/QU2009524.txt
/home/sarah/watchtower/odd/2009/2009925/QU2009925.txt
/home/sarah/watchtower/odd/2009/2009572/QU2009572.txt
/home/sarah/watchtower/odd/2009/2009324/QU2009324.txt
/home/sarah/watchtower/odd/2009/2009285/QU2009285.txt
/home/sarah/watchtower/odd/2009/2009764/QU2009764.txt
/home/sarah/watchtower/odd/2009/2009327/QU2009327.txt
/home/sarah/watchtower/odd/2009/2009844/QU2009844.txt
/home/sarah/watchtower/odd/2009/2009723/QU2009723.txt
/home/sarah/watchtower/odd/2009/2009126/QU2009126.txt
/home/sarah/watchtower/odd/2009/2009442/QU2009442.txt
/home/sarah/watchtower/odd/2009/2009800/QU2009800.txt
/home/sarah/watchtower/odd/2009/2009004/QU2009004.txt
/home/sarah/watchtower/odd/2009/2009255/QU2009255.txt
/home/sarah/watchtower/odd/2009/2009846/QU2009846.txt
/home/sarah/watchtower/odd/2009/2009323/QU2009323.txt
/home/sarah/watchtower/odd/2009/2009607/QU2009607.txt
/home/sarah/watchtower/odd/2009/2009284/QU2009284.txt
/home/sarah/watchtower/odd/2009/2009041/QU2009041.txt
/home/sarah/watchtower/odd/2009/2009804/QU2009804.txt
/home/sarah/watchtower/odd/2009/2009445/QU2009445.txt
/home/sarah/watchtower/odd/2009/2009807/QU2009807.txt
/home/sarah/watchtower/odd/2009/2009684/QU2009684.txt
/home/sarah/watchtower/odd/2009/2009483/QU2009483.txt
/home/sarah/watchtower/odd/2009/2009441/QU2009441.txt
/home/sarah/watchtower/odd/2009/2009806/QU2009806.txt
/home/sarah/watchtower/odd/2009/2009326/QU2009326.txt
/home/sarah/watchtower/odd/2009/2009603/QU2009603.txt
/home/sarah/watchtower/odd/2009/2009203/QU2009203.txt
/home/sarah/watchtower/odd/2009/2009365/QU2009365.txt
/home/sarah/watchtower/odd/2009/2009923/QU2009923.txt
/home/sarah/watchtower/odd/2009/2009602/QU2009602.txt
/home/sarah/watchtower/odd/2009/2009816/QU2009816.txt
/home/sarah/watchtower/odd/2009/2009605/QU2009605.txt
/home/sarah/watchtower/odd/2009/2009046/QU2009046.txt
/home/sarah/watchtower/odd/2009/2009681/QU2009681.txt
/home/sarah/watchtower/odd/2009/2009811/QU2009811.txt
/home/sarah/watchtower/odd/2009/2009042/QU2009042.txt
/home/sarah/watchtower/odd/2009/2009609/QU2009609.txt
/home/sarah/watchtower/odd/2009/2009488/QU2009488.txt
/home/sarah/watchtower/odd/2009/2009283/QU2009283.txt
/home/sarah/watchtower/odd/2009/2009254/QU2009254.txt
/home/sarah/watchtower/odd/2009/2009200/QU2009200.txt
/home/sarah/watchtower/odd/2007/2007881/QU2007881.txt
/home/sarah/watchtower/odd/2007/2007880/QU2007880.txt
/home/sarah/watchtower/odd/2007/2007887/QU2007887.txt
/home/sarah/watchtower/even/2012/2012204/QU2012204.txt
/home/sarah/watchtower/even/2012/2012046/QU2012046.txt
/home/sarah/watchtower/even/2012/2012487/QU2012487.txt
/home/sarah/watchtower/even/2012/2012208/QU2012208.txt
/home/sarah/watchtower/even/2012/2012606/QU2012606.txt
/home/sarah/watchtower/even/2012/2012284/QU2012284.txt
/home/sarah/watchtower/even/2012/2012287/QU2012287.txt
/home/sarah/watchtower/even/2012/2012201/QU2012201.txt
/home/sarah/watchtower/even/2012/2012169/QU2012169.txt
/home/sarah/watchtower/even/2012/2012048/QU2012048.txt
/home/sarah/watchtower/even/2012/2012490/QU2012490.txt
/home/sarah/watchtower/even/2012/2012564/QU2012564.txt
/home/sarah/watchtower/even/2012/2012570/QU2012570.txt
/home/sarah/watchtower/even/2012/2012206/QU2012206.txt
/home/sarah/watchtower/even/2012/2012126/QU2012126.txt
/home/sarah/watchtower/even/2012/2012125/QU2012125.txt
/home/sarah/watchtower/even/2012/2012525/QU2012525.txt
/home/sarah/watchtower/even/2012/2012362/QU2012362.txt
/home/sarah/watchtower/even/2012/2012929/QU2012929.txt
/home/sarah/watchtower/even/2012/2012368/QU2012368.txt
/home/sarah/watchtower/even/2012/2012444/QU2012444.txt
/home/sarah/watchtower/even/2012/2012449/QU2012449.txt
/home/sarah/watchtower/even/2012/2012247/QU2012247.txt
/home/sarah/watchtower/even/2012/2012128/QU2012128.txt
/home/sarah/watchtower/even/2012/2012244/QU2012244.txt
/home/sarah/watchtower/even/2012/2012044/QU2012044.txt
/home/sarah/watchtower/even/2012/2012767/QU2012767.txt
/home/sarah/watchtower/even/2012/2012248/QU2012248.txt
/home/sarah/watchtower/even/2012/2012922/QU2012922.txt
/home/sarah/watchtower/even/2012/2012928/QU2012928.txt
/home/sarah/watchtower/even/2012/2012524/QU2012524.txt
/home/sarah/watchtower/even/2012/2012446/QU2012446.txt
/home/sarah/watchtower/even/2012/2012445/QU2012445.txt
/home/sarah/watchtower/even/2012/2012926/QU2012926.txt
/home/sarah/watchtower/even/2012/2012608/QU2012608.txt
/home/sarah/watchtower/even/2012/2012927/QU2012927.txt
/home/sarah/watchtower/even/2012/2012765/QU2012765.txt
/home/sarah/watchtower/even/2012/2012646/QU2012646.txt
/home/sarah/watchtower/even/2012/2012246/QU2012246.txt
/home/sarah/watchtower/even/2012/2012683/QU2012683.txt
/home/sarah/watchtower/even/2012/2012571/QU2012571.txt
/home/sarah/watchtower/even/2012/2012243/QU2012243.txt
/home/sarah/watchtower/even/2012/2012245/QU2012245.txt
/home/sarah/watchtower/even/2012/2012043/QU2012043.txt
/home/sarah/watchtower/even/2012/2012172/QU2012172.txt
/home/sarah/watchtower/even/2012/2012924/QU2012924.txt
/home/sarah/watchtower/even/2012/2012124/QU2012124.txt
/home/sarah/watchtower/even/2012/2012601/QU2012601.txt
/home/sarah/watchtower/even/2012/2012083/QU2012083.txt
/home/sarah/watchtower/even/2012/2012441/QU2012441.txt
/home/sarah/watchtower/even/2012/2012562/QU2012562.txt
/home/sarah/watchtower/even/2012/2012286/QU2012286.txt
/home/sarah/watchtower/even/2012/2012367/QU2012367.txt
/home/sarah/watchtower/even/2012/2012925/QU2012925.txt
/home/sarah/watchtower/even/2012/2012652/QU2012652.txt
/home/sarah/watchtower/even/2012/2012012/QU2012012.txt
/home/sarah/watchtower/even/2012/2012251/QU2012251.txt
/home/sarah/watchtower/even/2012/2012602/QU2012602.txt
/home/sarah/watchtower/even/2012/2012242/QU2012242.txt
/home/sarah/watchtower/even/2012/2012846/QU2012846.txt
/home/sarah/watchtower/even/2012/2012682/QU2012682.txt
/home/sarah/watchtower/even/2012/2012122/QU2012122.txt
/home/sarah/watchtower/even/2012/2012685/QU2012685.txt
/home/sarah/watchtower/even/2012/2012249/QU2012249.txt
/home/sarah/watchtower/even/2012/2012603/QU2012603.txt
/home/sarah/watchtower/even/2012/2012491/QU2012491.txt
/home/sarah/watchtower/even/2012/2012684/QU2012684.txt
/home/sarah/watchtower/even/2012/2012283/QU2012283.txt
/home/sarah/watchtower/even/2012/2012241/QU2012241.txt
/home/sarah/watchtower/even/2012/2012843/QU2012843.txt
/home/sarah/watchtower/even/2012/2012443/QU2012443.txt
/home/sarah/watchtower/even/2012/2012202/QU2012202.txt
/home/sarah/watchtower/even/2012/2012521/QU2012521.txt
/home/sarah/watchtower/even/2012/2012082/QU2012082.txt
/home/sarah/watchtower/even/2012/2012847/QU2012847.txt
/home/sarah/watchtower/even/2012/2012605/QU2012605.txt
/home/sarah/watchtower/even/2012/2012366/QU2012366.txt
/home/sarah/watchtower/even/2012/2012086/QU2012086.txt
/home/sarah/watchtower/even/2012/2012250/QU2012250.txt
/home/sarah/watchtower/even/2012/2012041/QU2012041.txt
/home/sarah/watchtower/even/2012/2012365/QU2012365.txt
/home/sarah/watchtower/even/2012/2012527/QU2012527.txt
/home/sarah/watchtower/even/2012/2012561/QU2012561.txt
/home/sarah/watchtower/even/2012/2012842/QU2012842.txt
/home/sarah/watchtower/even/2012/2012081/QU2012081.txt
/home/sarah/watchtower/even/2012/2012281/QU2012281.txt
/home/sarah/watchtower/even/2012/2012205/QU2012205.txt
/home/sarah/watchtower/even/2012/2012764/QU2012764.txt
/home/sarah/watchtower/even/2012/2012686/QU2012686.txt
/home/sarah/watchtower/even/2012/2012364/QU2012364.txt
/home/sarah/watchtower/even/2012/2012849/QU2012849.txt
/home/sarah/watchtower/even/2012/2012448/QU2012448.txt
/home/sarah/watchtower/even/2012/2012121/QU2012121.txt
/home/sarah/watchtower/even/2012/2012127/QU2012127.txt
/home/sarah/watchtower/even/2012/2012252/QU2012252.txt
/home/sarah/watchtower/even/2012/2012568/QU2012568.txt
/home/sarah/watchtower/even/2012/2012607/QU2012607.txt
/home/sarah/watchtower/even/2012/2012045/QU2012045.txt
/home/sarah/watchtower/even/2012/2012845/QU2012845.txt
/home/sarah/watchtower/even/2012/2012049/QU2012049.txt
/home/sarah/watchtower/even/2012/2012285/QU2012285.txt
/home/sarah/watchtower/even/2012/2012844/QU2012844.txt
/home/sarah/watchtower/even/2012/2012091/QU2012091.txt
/home/sarah/watchtower/even/2012/2012850/QU2012850.txt
/home/sarah/watchtower/even/2012/2012207/QU2012207.txt
/home/sarah/watchtower/even/2012/2012523/QU2012523.txt
/home/sarah/watchtower/even/2012/2012763/QU2012763.txt
/home/sarah/watchtower/even/2012/2012042/QU2012042.txt
/home/sarah/watchtower/even/2012/2012762/QU2012762.txt
/home/sarah/watchtower/even/2012/2012442/QU2012442.txt
/home/sarah/watchtower/even/2012/2012361/QU2012361.txt
/home/sarah/watchtower/even/2012/2012123/QU2012123.txt
/home/sarah/watchtower/even/2012/2012563/QU2012563.txt
/home/sarah/watchtower/even/2012/2012766/QU2012766.txt
/home/sarah/watchtower/even/2012/2012088/QU2012088.txt
/home/sarah/watchtower/even/2012/2012488/QU2012488.txt
/home/sarah/watchtower/even/2012/2012203/QU2012203.txt
/home/sarah/watchtower/even/2012/2012282/QU2012282.txt
/home/sarah/watchtower/even/2012/2012176/QU2012176.txt
/home/sarah/watchtower/even/2012/2012681/QU2012681.txt
/home/sarah/watchtower/even/2012/2012011/QU2012011.txt
/home/sarah/watchtower/even/2012/2012923/QU2012923.txt
/home/sarah/watchtower/even/2012/2012522/QU2012522.txt
/home/sarah/watchtower/even/2012/2012363/QU2012363.txt
/home/sarah/watchtower/even/2012/2012761/QU2012761.txt
/home/sarah/watchtower/even/2012/2012604/QU2012604.txt
/home/sarah/watchtower/even/2012/2012047/QU2012047.txt
/home/sarah/watchtower/even/2012/2012085/QU2012085.txt
/home/sarah/watchtower/even/2012/2012526/QU2012526.txt
/home/sarah/watchtower/even/2012/2012447/QU2012447.txt
/home/sarah/watchtower/even/2014/2014009/QU2014009.txt
/home/sarah/watchtower/even/2014/2014208/QU2014208.txt
/home/sarah/watchtower/even/2014/2014322/QU2014322.txt
/home/sarah/watchtower/even/2014/2014047/QU2014047.txt
/home/sarah/watchtower/even/2014/2014128/QU2014128.txt
/home/sarah/watchtower/even/2014/2014603/QU2014603.txt
/home/sarah/watchtower/even/2014/2014443/QU2014443.txt
/home/sarah/watchtower/even/2014/2014929/QU2014929.txt
/home/sarah/watchtower/even/2014/2014042/QU2014042.txt
/home/sarah/watchtower/even/2014/2014885/QU2014885.txt
/home/sarah/watchtower/even/2014/2014723/QU2014723.txt
/home/sarah/watchtower/even/2014/2014367/QU2014367.txt
/home/sarah/watchtower/even/2014/2014842/QU2014842.txt
/home/sarah/watchtower/even/2014/2014285/QU2014285.txt
/home/sarah/watchtower/even/2014/2014808/QU2014808.txt
/home/sarah/watchtower/even/2014/2014363/QU2014363.txt
/home/sarah/watchtower/even/2014/2014245/QU2014245.txt
/home/sarah/watchtower/even/2014/2014767/QU2014767.txt
/home/sarah/watchtower/even/2014/2014883/QU2014883.txt
/home/sarah/watchtower/even/2014/2014642/QU2014642.txt
/home/sarah/watchtower/even/2014/2014888/QU2014888.txt
/home/sarah/watchtower/even/2014/2014882/QU2014882.txt
/home/sarah/watchtower/even/2014/2014684/QU2014684.txt
/home/sarah/watchtower/even/2014/2014728/QU2014728.txt
/home/sarah/watchtower/even/2014/2014246/QU2014246.txt
/home/sarah/watchtower/even/2014/2014682/QU2014682.txt
/home/sarah/watchtower/even/2014/2014365/QU2014365.txt
/home/sarah/watchtower/even/2014/2014685/QU2014685.txt
/home/sarah/watchtower/even/2014/2014922/QU2014922.txt
/home/sarah/watchtower/even/2014/2014405/QU2014405.txt
/home/sarah/watchtower/even/2014/2014007/QU2014007.txt
/home/sarah/watchtower/even/2014/2014005/QU2014005.txt
/home/sarah/watchtower/even/2014/2014925/QU2014925.txt
/home/sarah/watchtower/even/2014/2014607/QU2014607.txt
/home/sarah/watchtower/even/2014/2014523/QU2014523.txt
/home/sarah/watchtower/even/2014/2014646/QU2014646.txt
/home/sarah/watchtower/even/2014/2014848/QU2014848.txt
/home/sarah/watchtower/even/2014/2014288/QU2014288.txt
/home/sarah/watchtower/even/2014/2014446/QU2014446.txt
/home/sarah/watchtower/even/2014/2014004/QU2014004.txt
/home/sarah/watchtower/even/2014/2014043/QU2014043.txt
/home/sarah/watchtower/even/2014/2014645/QU2014645.txt
/home/sarah/watchtower/even/2014/2014766/QU2014766.txt
/home/sarah/watchtower/even/2014/2014802/QU2014802.txt
/home/sarah/watchtower/even/2014/2014927/QU2014927.txt
/home/sarah/watchtower/even/2014/2014002/QU2014002.txt
/home/sarah/watchtower/even/2014/2014403/QU2014403.txt
/home/sarah/watchtower/even/2014/2014406/QU2014406.txt
/home/sarah/watchtower/even/2014/2014167/QU2014167.txt
/home/sarah/watchtower/even/2014/2014244/QU2014244.txt
/home/sarah/watchtower/even/2014/2014323/QU2014323.txt
/home/sarah/watchtower/even/2014/2014846/QU2014846.txt
/home/sarah/watchtower/even/2014/2014686/QU2014686.txt
/home/sarah/watchtower/even/2014/2014565/QU2014565.txt
/home/sarah/watchtower/even/2014/2014442/QU2014442.txt
/home/sarah/watchtower/even/2014/2014562/QU2014562.txt
/home/sarah/watchtower/even/2014/2014804/QU2014804.txt
/home/sarah/watchtower/even/2014/2014605/QU2014605.txt
/home/sarah/watchtower/even/2014/2014928/QU2014928.txt
/home/sarah/watchtower/even/2014/2014847/QU2014847.txt
/home/sarah/watchtower/even/2014/2014563/QU2014563.txt
/home/sarah/watchtower/even/2014/2014644/QU2014644.txt
/home/sarah/watchtower/even/2014/2014843/QU2014843.txt
/home/sarah/watchtower/even/2014/2014082/QU2014082.txt
/home/sarah/watchtower/even/2014/2014362/QU2014362.txt
/home/sarah/watchtower/even/2014/2014527/QU2014527.txt
/home/sarah/watchtower/even/2014/2014489/QU2014489.txt
/home/sarah/watchtower/even/2014/2014048/QU2014048.txt
/home/sarah/watchtower/even/2014/2014283/QU2014283.txt
/home/sarah/watchtower/even/2014/2014206/QU2014206.txt
/home/sarah/watchtower/even/2014/2014483/QU2014483.txt
/home/sarah/watchtower/even/2014/2014889/QU2014889.txt
/home/sarah/watchtower/even/2014/2014085/QU2014085.txt
/home/sarah/watchtower/even/2014/2014166/QU2014166.txt
/home/sarah/watchtower/even/2014/2014762/QU2014762.txt
/home/sarah/watchtower/even/2014/2014243/QU2014243.txt
/home/sarah/watchtower/even/2014/2014202/QU2014202.txt
/home/sarah/watchtower/even/2014/2014046/QU2014046.txt
/home/sarah/watchtower/even/2014/2014163/QU2014163.txt
/home/sarah/watchtower/even/2014/2014044/QU2014044.txt
/home/sarah/watchtower/even/2014/2014488/QU2014488.txt
/home/sarah/watchtower/even/2014/2014122/QU2014122.txt
/home/sarah/watchtower/even/2014/2014327/QU2014327.txt
/home/sarah/watchtower/even/2014/2014407/QU2014407.txt
/home/sarah/watchtower/even/2014/2014162/QU2014162.txt
/home/sarah/watchtower/even/2014/2014324/QU2014324.txt
/home/sarah/watchtower/even/2014/2014368/QU2014368.txt
/home/sarah/watchtower/even/2014/2014763/QU2014763.txt
/home/sarah/watchtower/even/2014/2014083/QU2014083.txt
/home/sarah/watchtower/even/2014/2014727/QU2014727.txt
/home/sarah/watchtower/even/2014/2014884/QU2014884.txt
/home/sarah/watchtower/even/2014/2014123/QU2014123.txt
/home/sarah/watchtower/even/2014/2014487/QU2014487.txt
/home/sarah/watchtower/even/2014/2014683/QU2014683.txt
/home/sarah/watchtower/even/2014/2014724/QU2014724.txt
/home/sarah/watchtower/even/2014/2014125/QU2014125.txt
/home/sarah/watchtower/even/2014/2014845/QU2014845.txt
/home/sarah/watchtower/even/2014/2014526/QU2014526.txt
/home/sarah/watchtower/even/2014/2014287/QU2014287.txt
/home/sarah/watchtower/even/2014/2014008/QU2014008.txt
/home/sarah/watchtower/even/2014/2014525/QU2014525.txt
/home/sarah/watchtower/even/2014/2014045/QU2014045.txt
/home/sarah/watchtower/even/2014/2014326/QU2014326.txt
/home/sarah/watchtower/even/2014/2014522/QU2014522.txt
/home/sarah/watchtower/even/2014/2014087/QU2014087.txt
/home/sarah/watchtower/even/2014/2014764/QU2014764.txt
/home/sarah/watchtower/even/2014/2014726/QU2014726.txt
/home/sarah/watchtower/even/2014/2014606/QU2014606.txt
/home/sarah/watchtower/even/2014/2014402/QU2014402.txt
/home/sarah/watchtower/even/2014/2014891/QU2014891.txt
/home/sarah/watchtower/even/2014/2014886/QU2014886.txt
/home/sarah/watchtower/even/2014/2014444/QU2014444.txt
/home/sarah/watchtower/even/2014/2014569/QU2014569.txt
/home/sarah/watchtower/even/2014/2014524/QU2014524.txt
/home/sarah/watchtower/even/2014/2014890/QU2014890.txt
/home/sarah/watchtower/even/2014/2014564/QU2014564.txt
/home/sarah/watchtower/even/2014/2014325/QU2014325.txt
/home/sarah/watchtower/even/2014/2014086/QU2014086.txt
/home/sarah/watchtower/even/2014/2014482/QU2014482.txt
/home/sarah/watchtower/even/2014/2014643/QU2014643.txt
/home/sarah/watchtower/even/2014/2014242/QU2014242.txt
/home/sarah/watchtower/even/2014/2014448/QU2014448.txt
/home/sarah/watchtower/even/2014/2014282/QU2014282.txt
/home/sarah/watchtower/even/2014/2014404/QU2014404.txt
/home/sarah/watchtower/even/2014/2014164/QU2014164.txt
/home/sarah/watchtower/even/2014/2014364/QU2014364.txt
/home/sarah/watchtower/even/2014/2014204/QU2014204.txt
/home/sarah/watchtower/even/2014/2014165/QU2014165.txt
/home/sarah/watchtower/even/2014/2014006/QU2014006.txt
/home/sarah/watchtower/even/2014/2014844/QU2014844.txt
/home/sarah/watchtower/even/2014/2014926/QU2014926.txt
/home/sarah/watchtower/even/2014/2014126/QU2014126.txt
/home/sarah/watchtower/even/2014/2014124/QU2014124.txt
/home/sarah/watchtower/even/2014/2014803/QU2014803.txt
/home/sarah/watchtower/even/2014/2014924/QU2014924.txt
/home/sarah/watchtower/even/2014/2014485/QU2014485.txt
/home/sarah/watchtower/even/2014/2014805/QU2014805.txt
/home/sarah/watchtower/even/2014/2014130/QU2014130.txt
/home/sarah/watchtower/even/2014/2014449/QU2014449.txt
/home/sarah/watchtower/even/2014/2014284/QU2014284.txt
/home/sarah/watchtower/even/2014/2014084/QU2014084.txt
/home/sarah/watchtower/even/2014/2014207/QU2014207.txt
/home/sarah/watchtower/even/2014/2014765/QU2014765.txt
/home/sarah/watchtower/even/2014/2014807/QU2014807.txt
/home/sarah/watchtower/even/2014/2014247/QU2014247.txt
/home/sarah/watchtower/even/2014/2014486/QU2014486.txt
/home/sarah/watchtower/even/2014/2014127/QU2014127.txt
/home/sarah/watchtower/even/2014/2014203/QU2014203.txt
/home/sarah/watchtower/even/2014/2014687/QU2014687.txt
/home/sarah/watchtower/even/2014/2014566/QU2014566.txt
/home/sarah/watchtower/even/2014/2014602/QU2014602.txt
/home/sarah/watchtower/even/2014/2014286/QU2014286.txt
/home/sarah/watchtower/even/2014/2014887/QU2014887.txt
/home/sarah/watchtower/even/2014/2014366/QU2014366.txt
/home/sarah/watchtower/even/2014/2014570/QU2014570.txt
/home/sarah/watchtower/even/2014/2014445/QU2014445.txt
/home/sarah/watchtower/even/2014/2014689/QU2014689.txt
/home/sarah/watchtower/even/2014/2014205/QU2014205.txt
/home/sarah/watchtower/even/2014/2014608/QU2014608.txt
/home/sarah/watchtower/even/2014/2014447/QU2014447.txt
/home/sarah/watchtower/even/2014/2014249/QU2014249.txt
/home/sarah/watchtower/even/2014/2014923/QU2014923.txt
/home/sarah/watchtower/even/2014/2014567/QU2014567.txt
/home/sarah/watchtower/even/2014/2014931/QU2014931.txt
/home/sarah/watchtower/even/2014/2014568/QU2014568.txt
/home/sarah/watchtower/even/2014/2014722/QU2014722.txt
/home/sarah/watchtower/even/2014/2014604/QU2014604.txt
/home/sarah/watchtower/even/2008/2008447/QU2008447.txt
/home/sarah/watchtower/even/2008/2008044/QU2008044.txt
/home/sarah/watchtower/even/2008/2008849/QU2008849.txt
/home/sarah/watchtower/even/2008/2008761/QU2008761.txt
/home/sarah/watchtower/even/2008/2008729/QU2008729.txt
/home/sarah/watchtower/even/2008/2008568/QU2008568.txt
/home/sarah/watchtower/even/2008/2008883/QU2008883.txt
/home/sarah/watchtower/even/2008/2008687/QU2008687.txt
/home/sarah/watchtower/even/2008/2008323/QU2008323.txt
/home/sarah/watchtower/even/2008/2008125/QU2008125.txt
/home/sarah/watchtower/even/2008/2008566/QU2008566.txt
/home/sarah/watchtower/even/2008/2008564/QU2008564.txt
/home/sarah/watchtower/even/2008/2008808/QU2008808.txt
/home/sarah/watchtower/even/2008/2008202/QU2008202.txt
/home/sarah/watchtower/even/2008/2008489/QU2008489.txt
/home/sarah/watchtower/even/2008/2008525/QU2008525.txt
/home/sarah/watchtower/even/2008/2008565/QU2008565.txt
/home/sarah/watchtower/even/2008/2008411/QU2008411.txt
/home/sarah/watchtower/even/2008/2008760/QU2008760.txt
/home/sarah/watchtower/even/2008/2008001/QU2008001.txt
/home/sarah/watchtower/even/2008/2008282/QU2008282.txt
/home/sarah/watchtower/even/2008/2008321/QU2008321.txt
/home/sarah/watchtower/even/2008/2008281/QU2008281.txt
/home/sarah/watchtower/even/2008/2008923/QU2008923.txt
/home/sarah/watchtower/even/2008/2008452/QU2008452.txt
/home/sarah/watchtower/even/2008/2008047/QU2008047.txt
/home/sarah/watchtower/even/2008/2008206/QU2008206.txt
/home/sarah/watchtower/even/2008/2008243/QU2008243.txt
/home/sarah/watchtower/even/2008/2008127/QU2008127.txt
/home/sarah/watchtower/even/2008/2008361/QU2008361.txt
/home/sarah/watchtower/even/2008/2008451/QU2008451.txt
/home/sarah/watchtower/even/2008/2008682/QU2008682.txt
/home/sarah/watchtower/even/2008/2008648/QU2008648.txt
/home/sarah/watchtower/even/2008/2008123/QU2008123.txt
/home/sarah/watchtower/even/2008/2008207/QU2008207.txt
/home/sarah/watchtower/even/2008/2008241/QU2008241.txt
/home/sarah/watchtower/even/2008/2008367/QU2008367.txt
/home/sarah/watchtower/even/2008/2008803/QU2008803.txt
/home/sarah/watchtower/even/2008/2008362/QU2008362.txt
/home/sarah/watchtower/even/2008/2008491/QU2008491.txt
/home/sarah/watchtower/even/2008/2008526/QU2008526.txt
/home/sarah/watchtower/even/2008/2008925/QU2008925.txt
/home/sarah/watchtower/even/2008/2008121/QU2008121.txt
/home/sarah/watchtower/even/2008/2008203/QU2008203.txt
/home/sarah/watchtower/even/2008/2008846/QU2008846.txt
/home/sarah/watchtower/even/2008/2008083/QU2008083.txt
/home/sarah/watchtower/even/2008/2008285/QU2008285.txt
/home/sarah/watchtower/even/2008/2008841/QU2008841.txt
/home/sarah/watchtower/even/2008/2008326/QU2008326.txt
/home/sarah/watchtower/even/2008/2008080/QU2008080.txt
/home/sarah/watchtower/even/2008/2008248/QU2008248.txt
/home/sarah/watchtower/even/2008/2008767/QU2008767.txt
/home/sarah/watchtower/even/2008/2008804/QU2008804.txt
/home/sarah/watchtower/even/2008/2008607/QU2008607.txt
/home/sarah/watchtower/even/2008/2008042/QU2008042.txt
/home/sarah/watchtower/even/2008/2008122/QU2008122.txt
/home/sarah/watchtower/even/2008/2008609/QU2008609.txt
/home/sarah/watchtower/even/2008/2008287/QU2008287.txt
/home/sarah/watchtower/even/2008/2008082/QU2008082.txt
/home/sarah/watchtower/even/2008/2008600/QU2008600.txt
/home/sarah/watchtower/even/2008/2008926/QU2008926.txt
/home/sarah/watchtower/even/2008/2008610/QU2008610.txt
/home/sarah/watchtower/even/2008/2008246/QU2008246.txt
/home/sarah/watchtower/even/2008/2008481/QU2008481.txt
/home/sarah/watchtower/even/2008/2008810/QU2008810.txt
/home/sarah/watchtower/even/2008/2008320/QU2008320.txt
/home/sarah/watchtower/even/2008/2008201/QU2008201.txt
/home/sarah/watchtower/even/2008/2008842/QU2008842.txt
/home/sarah/watchtower/even/2008/2008844/QU2008844.txt
/home/sarah/watchtower/even/2008/2008802/QU2008802.txt
/home/sarah/watchtower/even/2008/2008605/QU2008605.txt
/home/sarah/watchtower/even/2008/2008049/QU2008049.txt
/home/sarah/watchtower/even/2008/2008604/QU2008604.txt
/home/sarah/watchtower/even/2008/2008002/QU2008002.txt
/home/sarah/watchtower/even/2008/2008520/QU2008520.txt
/home/sarah/watchtower/even/2008/2008847/QU2008847.txt
/home/sarah/watchtower/even/2008/2008689/QU2008689.txt
/home/sarah/watchtower/even/2008/2008801/QU2008801.txt
/home/sarah/watchtower/even/2008/2008807/QU2008807.txt
/home/sarah/watchtower/even/2008/2008569/QU2008569.txt
/home/sarah/watchtower/even/2008/2008848/QU2008848.txt
/home/sarah/watchtower/even/2008/2008449/QU2008449.txt
/home/sarah/watchtower/even/2008/2008800/QU2008800.txt
/home/sarah/watchtower/even/2008/2008487/QU2008487.txt
/home/sarah/watchtower/even/2008/2008728/QU2008728.txt
/home/sarah/watchtower/even/2008/2008763/QU2008763.txt
/home/sarah/watchtower/even/2008/2008450/QU2008450.txt
/home/sarah/watchtower/even/2008/2008208/QU2008208.txt
/home/sarah/watchtower/even/2008/2008843/QU2008843.txt
/home/sarah/watchtower/even/2008/2008400/QU2008400.txt
/home/sarah/watchtower/even/2008/2008764/QU2008764.txt
/home/sarah/watchtower/even/2008/2008324/QU2008324.txt
/home/sarah/watchtower/even/2008/2008363/QU2008363.txt
/home/sarah/watchtower/even/2008/2008851/QU2008851.txt
/home/sarah/watchtower/even/2008/2008048/QU2008048.txt
/home/sarah/watchtower/even/2008/2008730/QU2008730.txt
/home/sarah/watchtower/even/2008/2008643/QU2008643.txt
/home/sarah/watchtower/even/2008/2008685/QU2008685.txt
/home/sarah/watchtower/even/2008/2008368/QU2008368.txt
/home/sarah/watchtower/even/2008/2008364/QU2008364.txt
/home/sarah/watchtower/even/2008/2008242/QU2008242.txt
/home/sarah/watchtower/even/2008/2008527/QU2008527.txt
/home/sarah/watchtower/even/2008/2008683/QU2008683.txt
/home/sarah/watchtower/even/2008/2008165/QU2008165.txt
/home/sarah/watchtower/even/2008/2008401/QU2008401.txt
/home/sarah/watchtower/even/2008/2008681/QU2008681.txt
/home/sarah/watchtower/even/2008/2008601/QU2008601.txt
/home/sarah/watchtower/even/2008/2008523/QU2008523.txt
/home/sarah/watchtower/even/2008/2008484/QU2008484.txt
/home/sarah/watchtower/even/2008/2008603/QU2008603.txt
/home/sarah/watchtower/even/2008/2008284/QU2008284.txt
/home/sarah/watchtower/even/2008/2008922/QU2008922.txt
/home/sarah/watchtower/even/2008/2008921/QU2008921.txt
/home/sarah/watchtower/even/2008/2008766/QU2008766.txt
/home/sarah/watchtower/even/2008/2008365/QU2008365.txt
/home/sarah/watchtower/even/2008/2008924/QU2008924.txt
/home/sarah/watchtower/even/2008/2008768/QU2008768.txt
/home/sarah/watchtower/even/2008/2008046/QU2008046.txt
/home/sarah/watchtower/even/2008/2008725/QU2008725.txt
/home/sarah/watchtower/even/2008/2008686/QU2008686.txt
/home/sarah/watchtower/even/2008/2008043/QU2008043.txt
/home/sarah/watchtower/even/2008/2008765/QU2008765.txt
/home/sarah/watchtower/even/2008/2008522/QU2008522.txt
/home/sarah/watchtower/even/2008/2008327/QU2008327.txt
/home/sarah/watchtower/even/2008/2008283/QU2008283.txt
/home/sarah/watchtower/even/2008/2008480/QU2008480.txt
/home/sarah/watchtower/even/2008/2008680/QU2008680.txt
/home/sarah/watchtower/even/2008/2008521/QU2008521.txt
/home/sarah/watchtower/even/2008/2008124/QU2008124.txt
/home/sarah/watchtower/even/2008/2008161/QU2008161.txt
/home/sarah/watchtower/even/2008/2008920/QU2008920.txt
/home/sarah/watchtower/even/2010/2010565/QU2010565.txt
/home/sarah/watchtower/even/2010/2010686/QU2010686.txt
/home/sarah/watchtower/even/2010/2010287/QU2010287.txt
/home/sarah/watchtower/even/2010/2010844/QU2010844.txt
/home/sarah/watchtower/even/2010/2010122/QU2010122.txt
/home/sarah/watchtower/even/2010/2010571/QU2010571.txt
/home/sarah/watchtower/even/2010/2010091/QU2010091.txt
/home/sarah/watchtower/even/2010/2010682/QU2010682.txt
/home/sarah/watchtower/even/2010/2010846/QU2010846.txt
/home/sarah/watchtower/even/2010/2010767/QU2010767.txt
/home/sarah/watchtower/even/2010/2010249/QU2010249.txt
/home/sarah/watchtower/even/2010/2010207/QU2010207.txt
/home/sarah/watchtower/even/2010/2010011/QU2010011.txt
/home/sarah/watchtower/even/2010/2010848/QU2010848.txt
/home/sarah/watchtower/even/2010/2010288/QU2010288.txt
/home/sarah/watchtower/even/2010/2010730/QU2010730.txt
/home/sarah/watchtower/even/2010/2010042/QU2010042.txt
/home/sarah/watchtower/even/2010/2010929/QU2010929.txt
/home/sarah/watchtower/even/2010/2010361/QU2010361.txt
/home/sarah/watchtower/even/2010/2010642/QU2010642.txt
/home/sarah/watchtower/even/2010/2010362/QU2010362.txt
/home/sarah/watchtower/even/2010/2010687/QU2010687.txt
/home/sarah/watchtower/even/2010/2010168/QU2010168.txt
/home/sarah/watchtower/even/2010/2010253/QU2010253.txt
/home/sarah/watchtower/even/2010/2010722/QU2010722.txt
/home/sarah/watchtower/even/2010/2010441/QU2010441.txt
/home/sarah/watchtower/even/2010/2010447/QU2010447.txt
/home/sarah/watchtower/even/2010/2010285/QU2010285.txt
/home/sarah/watchtower/even/2010/2010809/QU2010809.txt
/home/sarah/watchtower/even/2010/2010601/QU2010601.txt
/home/sarah/watchtower/even/2010/2010369/QU2010369.txt
/home/sarah/watchtower/even/2010/2010528/QU2010528.txt
/home/sarah/watchtower/even/2010/2010210/QU2010210.txt
/home/sarah/watchtower/even/2010/2010684/QU2010684.txt
/home/sarah/watchtower/even/2010/2010681/QU2010681.txt
/home/sarah/watchtower/even/2010/2010726/QU2010726.txt
/home/sarah/watchtower/even/2010/2010123/QU2010123.txt
/home/sarah/watchtower/even/2010/2010245/QU2010245.txt
/home/sarah/watchtower/even/2010/2010281/QU2010281.txt
/home/sarah/watchtower/even/2010/2010923/QU2010923.txt
/home/sarah/watchtower/even/2010/2010205/QU2010205.txt
/home/sarah/watchtower/even/2010/2010204/QU2010204.txt
/home/sarah/watchtower/even/2010/2010085/QU2010085.txt
/home/sarah/watchtower/even/2010/2010208/QU2010208.txt
/home/sarah/watchtower/even/2010/2010924/QU2010924.txt
/home/sarah/watchtower/even/2010/2010129/QU2010129.txt
/home/sarah/watchtower/even/2010/2010443/QU2010443.txt
/home/sarah/watchtower/even/2010/2010521/QU2010521.txt
/home/sarah/watchtower/even/2010/2010250/QU2010250.txt
/home/sarah/watchtower/even/2010/2010442/QU2010442.txt
/home/sarah/watchtower/even/2010/2010120/QU2010120.txt
/home/sarah/watchtower/even/2010/2010523/QU2010523.txt
/home/sarah/watchtower/even/2010/2010254/QU2010254.txt
/home/sarah/watchtower/even/2010/2010566/QU2010566.txt
/home/sarah/watchtower/even/2010/2010527/QU2010527.txt
/home/sarah/watchtower/even/2010/2010242/QU2010242.txt
/home/sarah/watchtower/even/2010/2010444/QU2010444.txt
/home/sarah/watchtower/even/2010/2010729/QU2010729.txt
/home/sarah/watchtower/even/2010/2010926/QU2010926.txt
/home/sarah/watchtower/even/2010/2010252/QU2010252.txt
/home/sarah/watchtower/even/2010/2010921/QU2010921.txt
/home/sarah/watchtower/even/2010/2010605/QU2010605.txt
/home/sarah/watchtower/even/2010/2010248/QU2010248.txt
/home/sarah/watchtower/even/2010/2010524/QU2010524.txt
/home/sarah/watchtower/even/2010/2010370/QU2010370.txt
/home/sarah/watchtower/even/2010/2010046/QU2010046.txt
/home/sarah/watchtower/even/2010/2010606/QU2010606.txt
/home/sarah/watchtower/even/2010/2010282/QU2010282.txt
/home/sarah/watchtower/even/2010/2010044/QU2010044.txt
/home/sarah/watchtower/even/2010/2010446/QU2010446.txt
/home/sarah/watchtower/even/2010/2010927/QU2010927.txt
/home/sarah/watchtower/even/2010/2010763/QU2010763.txt
/home/sarah/watchtower/even/2010/2010286/QU2010286.txt
/home/sarah/watchtower/even/2010/2010209/QU2010209.txt
/home/sarah/watchtower/even/2010/2010365/QU2010365.txt
/home/sarah/watchtower/even/2010/2010202/QU2010202.txt
/home/sarah/watchtower/even/2010/2010003/QU2010003.txt
/home/sarah/watchtower/even/2010/2010526/QU2010526.txt
/home/sarah/watchtower/even/2010/2010607/QU2010607.txt
/home/sarah/watchtower/even/2010/2010001/QU2010001.txt
/home/sarah/watchtower/even/2010/2010922/QU2010922.txt
/home/sarah/watchtower/even/2010/2010603/QU2010603.txt
/home/sarah/watchtower/even/2010/2010728/QU2010728.txt
/home/sarah/watchtower/even/2010/2010363/QU2010363.txt
/home/sarah/watchtower/even/2010/2010090/QU2010090.txt
/home/sarah/watchtower/even/2010/2010842/QU2010842.txt
/home/sarah/watchtower/even/2010/2010201/QU2010201.txt
/home/sarah/watchtower/even/2010/2010849/QU2010849.txt
/home/sarah/watchtower/even/2010/2010723/QU2010723.txt
/home/sarah/watchtower/even/2010/2010761/QU2010761.txt
/home/sarah/watchtower/even/2010/2010887/QU2010887.txt
/home/sarah/watchtower/even/2010/2010522/QU2010522.txt
/home/sarah/watchtower/even/2010/2010124/QU2010124.txt
/home/sarah/watchtower/even/2010/2010764/QU2010764.txt
/home/sarah/watchtower/even/2010/2010241/QU2010241.txt
/home/sarah/watchtower/even/2010/2010928/QU2010928.txt
/home/sarah/watchtower/even/2010/2010721/QU2010721.txt
/home/sarah/watchtower/even/2010/2010724/QU2010724.txt
/home/sarah/watchtower/even/2010/2010766/QU2010766.txt
/home/sarah/watchtower/even/2010/2010812/QU2010812.txt
/home/sarah/watchtower/even/2010/2010762/QU2010762.txt
/home/sarah/watchtower/even/2010/2010841/QU2010841.txt
/home/sarah/watchtower/even/2010/2010086/QU2010086.txt
/home/sarah/watchtower/even/2010/2010847/QU2010847.txt
/home/sarah/watchtower/even/2010/2010366/QU2010366.txt
/home/sarah/watchtower/even/2010/2010043/QU2010043.txt
/home/sarah/watchtower/even/2010/2010641/QU2010641.txt
/home/sarah/watchtower/even/2010/2010807/QU2010807.txt
/home/sarah/watchtower/even/2010/2010683/QU2010683.txt
/home/sarah/watchtower/even/2010/2010489/QU2010489.txt
/home/sarah/watchtower/even/2010/2010487/QU2010487.txt
/home/sarah/watchtower/even/2010/2010251/QU2010251.txt
/home/sarah/watchtower/even/2010/2010125/QU2010125.txt
/home/sarah/watchtower/even/2010/2010685/QU2010685.txt
/home/sarah/watchtower/even/2010/2010367/QU2010367.txt
/home/sarah/watchtower/even/2010/2010445/QU2010445.txt
/home/sarah/watchtower/even/2010/2010564/QU2010564.txt
/home/sarah/watchtower/even/2010/2010002/QU2010002.txt
/home/sarah/watchtower/even/2010/2010247/QU2010247.txt
/home/sarah/watchtower/even/2010/2010604/QU2010604.txt
/home/sarah/watchtower/even/2010/2010488/QU2010488.txt
/home/sarah/watchtower/even/2010/2010243/QU2010243.txt
/home/sarah/watchtower/even/2010/2010845/QU2010845.txt
/home/sarah/watchtower/even/2010/2010244/QU2010244.txt
/home/sarah/watchtower/even/2010/2010047/QU2010047.txt
/home/sarah/watchtower/even/2010/2010127/QU2010127.txt
/home/sarah/watchtower/even/2010/2010005/QU2010005.txt
/home/sarah/watchtower/even/2010/2010925/QU2010925.txt
/home/sarah/watchtower/even/2010/2010246/QU2010246.txt
/home/sarah/watchtower/even/2010/2010725/QU2010725.txt
/home/sarah/watchtower/even/2010/2010602/QU2010602.txt
/home/sarah/watchtower/even/2010/2010525/QU2010525.txt
/home/sarah/watchtower/even/2010/2010892/QU2010892.txt
/home/sarah/watchtower/even/2010/2010126/QU2010126.txt
/home/sarah/watchtower/even/2010/2010041/QU2010041.txt
/home/sarah/watchtower/even/2010/2010255/QU2010255.txt
/home/sarah/watchtower/even/2010/2010128/QU2010128.txt
/home/sarah/watchtower/even/2010/2010283/QU2010283.txt
/home/sarah/watchtower/even/2010/2010843/QU2010843.txt
/home/sarah/watchtower/even/2010/2010608/QU2010608.txt
/home/sarah/watchtower/even/2010/2010364/QU2010364.txt
/home/sarah/watchtower/even/2010/2010368/QU2010368.txt
/home/sarah/watchtower/even/2010/2010768/QU2010768.txt
/home/sarah/watchtower/even/2010/2010284/QU2010284.txt
/home/sarah/watchtower/even/2010/2010048/QU2010048.txt
/home/sarah/watchtower/even/2010/2010765/QU2010765.txt
/home/sarah/watchtower/even/2010/2010083/QU2010083.txt
/home/sarah/watchtower/even/2010/2010609/QU2010609.txt
/home/sarah/watchtower/even/2010/2010649/QU2010649.txt
/home/sarah/watchtower/even/2010/2010727/QU2010727.txt
/home/sarah/watchtower/even/2016/2016005/QU2016005.txt
/home/sarah/watchtower/even/2016/2016087/QU2016087.txt
/home/sarah/watchtower/even/2016/2016128/QU2016128.txt
/home/sarah/watchtower/even/2016/2016006/QU2016006.txt
/home/sarah/watchtower/even/2016/2016004/QU2016004.txt
/home/sarah/watchtower/even/2016/2016122/QU2016122.txt
/home/sarah/watchtower/even/2016/2016442/QU2016442.txt
/home/sarah/watchtower/even/2016/2016127/QU2016127.txt
/home/sarah/watchtower/even/2016/2016208/QU2016208.txt
/home/sarah/watchtower/even/2016/2016205/QU2016205.txt
/home/sarah/watchtower/even/2016/2016362/QU2016362.txt
/home/sarah/watchtower/even/2016/2016448/QU2016448.txt
/home/sarah/watchtower/even/2016/2016201/QU2016201.txt
/home/sarah/watchtower/even/2016/2016124/QU2016124.txt
/home/sarah/watchtower/even/2016/2016086/QU2016086.txt
/home/sarah/watchtower/even/2016/2016368/QU2016368.txt
/home/sarah/watchtower/even/2016/2016041/QU2016041.txt
/home/sarah/watchtower/even/2016/2016163/QU2016163.txt
/home/sarah/watchtower/even/2016/2016285/QU2016285.txt
/home/sarah/watchtower/even/2016/2016126/QU2016126.txt
/home/sarah/watchtower/even/2016/2016045/QU2016045.txt
/home/sarah/watchtower/even/2016/2016281/QU2016281.txt
/home/sarah/watchtower/even/2016/2016361/QU2016361.txt
/home/sarah/watchtower/even/2016/2016046/QU2016046.txt
/home/sarah/watchtower/even/2016/2016009/QU2016009.txt
/home/sarah/watchtower/even/2016/2016047/QU2016047.txt
/home/sarah/watchtower/even/2016/2016443/QU2016443.txt
/home/sarah/watchtower/even/2016/2016287/QU2016287.txt
/home/sarah/watchtower/even/2016/2016088/QU2016088.txt
/home/sarah/watchtower/even/2016/2016008/QU2016008.txt
/home/sarah/watchtower/even/2016/2016283/QU2016283.txt
/home/sarah/watchtower/even/2016/2016366/QU2016366.txt
/home/sarah/watchtower/even/2016/2016441/QU2016441.txt
/home/sarah/watchtower/even/2016/2016207/QU2016207.txt
/home/sarah/watchtower/even/2016/2016165/QU2016165.txt
/home/sarah/watchtower/even/2016/2016166/QU2016166.txt
/home/sarah/watchtower/even/2016/2016002/QU2016002.txt
/home/sarah/watchtower/even/2016/2016090/QU2016090.txt
/home/sarah/watchtower/even/2016/2016167/QU2016167.txt
/home/sarah/watchtower/even/2016/2016367/QU2016367.txt
/home/sarah/watchtower/even/2016/2016364/QU2016364.txt
/home/sarah/watchtower/even/2016/2016282/QU2016282.txt
/home/sarah/watchtower/even/2016/2016084/QU2016084.txt
/home/sarah/watchtower/even/2016/2016202/QU2016202.txt
/home/sarah/watchtower/even/2016/2016206/QU2016206.txt
/home/sarah/watchtower/even/2016/2016447/QU2016447.txt
/home/sarah/watchtower/even/2016/2016007/QU2016007.txt
/home/sarah/watchtower/even/2016/2016085/QU2016085.txt
/home/sarah/watchtower/even/2016/2016164/QU2016164.txt
/home/sarah/watchtower/even/2016/2016003/QU2016003.txt
/home/sarah/watchtower/even/2016/2016091/QU2016091.txt
/home/sarah/watchtower/even/2016/2016288/QU2016288.txt
/home/sarah/watchtower/even/2016/2016121/QU2016121.txt
/home/sarah/watchtower/even/2016/2016043/QU2016043.txt
/home/sarah/watchtower/even/2016/2016042/QU2016042.txt
/home/sarah/watchtower/even/2016/2016445/QU2016445.txt
/home/sarah/watchtower/even/2016/2016123/QU2016123.txt
