/home/sarah/watchtower/odd/2013/2013683/TOG2013683.txt
/home/sarah/watchtower/odd/2013/2013169/TOG2013169.txt
/home/sarah/watchtower/odd/2013/2013281/TOG2013281.txt
/home/sarah/watchtower/odd/2013/2013366/TOG2013366.txt
/home/sarah/watchtower/odd/2013/2013684/TOG2013684.txt
/home/sarah/watchtower/odd/2013/2013565/TOG2013565.txt
/home/sarah/watchtower/odd/2013/2013605/TOG2013605.txt
/home/sarah/watchtower/odd/2013/2013482/TOG2013482.txt
/home/sarah/watchtower/odd/2013/2013569/TOG2013569.txt
/home/sarah/watchtower/odd/2013/2013604/TOG2013604.txt
/home/sarah/watchtower/odd/2013/2013364/TOG2013364.txt
/home/sarah/watchtower/odd/2013/2013804/TOG2013804.txt
/home/sarah/watchtower/odd/2013/2013563/TOG2013563.txt
/home/sarah/watchtower/odd/2013/2013123/TOG2013123.txt
/home/sarah/watchtower/odd/2013/2013841/TOG2013841.txt
/home/sarah/watchtower/odd/2013/2013323/TOG2013323.txt
/home/sarah/watchtower/odd/2013/2013926/TOG2013926.txt
/home/sarah/watchtower/odd/2013/2013490/TOG2013490.txt
/home/sarah/watchtower/odd/2013/2013204/TOG2013204.txt
/home/sarah/watchtower/odd/2013/2013727/TOG2013727.txt
/home/sarah/watchtower/odd/2013/2013205/TOG2013205.txt
/home/sarah/watchtower/odd/2013/2013764/TOG2013764.txt
/home/sarah/watchtower/odd/2013/2013284/TOG2013284.txt
/home/sarah/watchtower/odd/2013/2013122/TOG2013122.txt
/home/sarah/watchtower/odd/2013/2013163/TOG2013163.txt
/home/sarah/watchtower/odd/2013/2013883/TOG2013883.txt
/home/sarah/watchtower/odd/2013/2013285/TOG2013285.txt
/home/sarah/watchtower/odd/2013/2013044/TOG2013044.txt
/home/sarah/watchtower/odd/2013/2013325/TOG2013325.txt
/home/sarah/watchtower/odd/2013/2013089/TOG2013089.txt
/home/sarah/watchtower/odd/2013/2013083/TOG2013083.txt
/home/sarah/watchtower/odd/2013/2013043/TOG2013043.txt
/home/sarah/watchtower/odd/2013/2013925/TOG2013925.txt
/home/sarah/watchtower/odd/2013/2013201/TOG2013201.txt
/home/sarah/watchtower/odd/2013/2013406/TOG2013406.txt
/home/sarah/watchtower/odd/2013/2013728/TOG2013728.txt
/home/sarah/watchtower/odd/2013/2013722/TOG2013722.txt
/home/sarah/watchtower/odd/2013/2013803/TOG2013803.txt
/home/sarah/watchtower/odd/2013/2013125/TOG2013125.txt
/home/sarah/watchtower/odd/2013/2013885/TOG2013885.txt
/home/sarah/watchtower/odd/2013/2013602/TOG2013602.txt
/home/sarah/watchtower/odd/2013/2013243/TOG2013243.txt
/home/sarah/watchtower/odd/2013/2013681/TOG2013681.txt
/home/sarah/watchtower/odd/2013/2013844/TOG2013844.txt
/home/sarah/watchtower/odd/2013/2013249/TOG2013249.txt
/home/sarah/watchtower/odd/2013/2013402/TOG2013402.txt
/home/sarah/watchtower/odd/2013/2013081/TOG2013081.txt
/home/sarah/watchtower/odd/2013/2013245/TOG2013245.txt
/home/sarah/watchtower/odd/2013/2013847/TOG2013847.txt
/home/sarah/watchtower/odd/2013/2013805/TOG2013805.txt
/home/sarah/watchtower/odd/2013/2013731/TOG2013731.txt
/home/sarah/watchtower/odd/2013/2013248/TOG2013248.txt
/home/sarah/watchtower/odd/2013/2013686/TOG2013686.txt
/home/sarah/watchtower/odd/2013/2013403/TOG2013403.txt
/home/sarah/watchtower/odd/2013/2013124/TOG2013124.txt
/home/sarah/watchtower/odd/2013/2013047/TOG2013047.txt
/home/sarah/watchtower/odd/2013/2013363/TOG2013363.txt
/home/sarah/watchtower/odd/2013/2013884/TOG2013884.txt
/home/sarah/watchtower/odd/2013/2013322/TOG2013322.txt
/home/sarah/watchtower/odd/2013/2013842/TOG2013842.txt
/home/sarah/watchtower/odd/2013/2013521/TOG2013521.txt
/home/sarah/watchtower/odd/2013/2013443/TOG2013443.txt
/home/sarah/watchtower/odd/2013/2013203/TOG2013203.txt
/home/sarah/watchtower/odd/2013/2013766/TOG2013766.txt
/home/sarah/watchtower/odd/2013/2013763/TOG2013763.txt
/home/sarah/watchtower/odd/2013/2013084/TOG2013084.txt
/home/sarah/watchtower/odd/2013/2013888/TOG2013888.txt
/home/sarah/watchtower/odd/2013/2013085/TOG2013085.txt
/home/sarah/watchtower/odd/2013/2013007/TOG2013007.txt
/home/sarah/watchtower/odd/2013/2013846/TOG2013846.txt
/home/sarah/watchtower/odd/2013/2013810/TOG2013810.txt
/home/sarah/watchtower/odd/2013/2013848/TOG2013848.txt
/home/sarah/watchtower/odd/2013/2013206/TOG2013206.txt
/home/sarah/watchtower/odd/2013/2013446/TOG2013446.txt
/home/sarah/watchtower/odd/2013/2013486/TOG2013486.txt
/home/sarah/watchtower/odd/2013/2013761/TOG2013761.txt
/home/sarah/watchtower/odd/2013/2013726/TOG2013726.txt
/home/sarah/watchtower/odd/2013/2013767/TOG2013767.txt
/home/sarah/watchtower/odd/2013/2013802/TOG2013802.txt
/home/sarah/watchtower/odd/2013/2013806/TOG2013806.txt
/home/sarah/watchtower/odd/2013/2013244/TOG2013244.txt
/home/sarah/watchtower/odd/2013/2013045/TOG2013045.txt
/home/sarah/watchtower/odd/2013/2013649/TOG2013649.txt
/home/sarah/watchtower/odd/2013/2013445/TOG2013445.txt
/home/sarah/watchtower/odd/2013/2013564/TOG2013564.txt
/home/sarah/watchtower/odd/2013/2013485/TOG2013485.txt
/home/sarah/watchtower/odd/2013/2013562/TOG2013562.txt
/home/sarah/watchtower/odd/2013/2013924/TOG2013924.txt
/home/sarah/watchtower/odd/2013/2013644/TOG2013644.txt
/home/sarah/watchtower/odd/2013/2013725/TOG2013725.txt
/home/sarah/watchtower/odd/2013/2013041/TOG2013041.txt
/home/sarah/watchtower/odd/2013/2013643/TOG2013643.txt
/home/sarah/watchtower/odd/2013/2013882/TOG2013882.txt
/home/sarah/watchtower/odd/2013/2013247/TOG2013247.txt
/home/sarah/watchtower/odd/2013/2013724/TOG2013724.txt
/home/sarah/watchtower/odd/2013/2013283/TOG2013283.txt
/home/sarah/watchtower/odd/2013/2013923/TOG2013923.txt
/home/sarah/watchtower/odd/2013/2013361/TOG2013361.txt
/home/sarah/watchtower/odd/2013/2013365/TOG2013365.txt
/home/sarah/watchtower/odd/2013/2013162/TOG2013162.txt
/home/sarah/watchtower/odd/2013/2013046/TOG2013046.txt
/home/sarah/watchtower/odd/2013/2013121/TOG2013121.txt
/home/sarah/watchtower/odd/2013/2013082/TOG2013082.txt
/home/sarah/watchtower/odd/2013/2013601/TOG2013601.txt
/home/sarah/watchtower/odd/2013/2013408/TOG2013408.txt
/home/sarah/watchtower/odd/2013/2013687/TOG2013687.txt
/home/sarah/watchtower/odd/2013/2013202/TOG2013202.txt
/home/sarah/watchtower/odd/2013/2013921/TOG2013921.txt
/home/sarah/watchtower/odd/2013/2013603/TOG2013603.txt
/home/sarah/watchtower/odd/2013/2013407/TOG2013407.txt
/home/sarah/watchtower/odd/2013/2013723/TOG2013723.txt
/home/sarah/watchtower/odd/2013/2013444/TOG2013444.txt
/home/sarah/watchtower/odd/2013/2013003/TOG2013003.txt
/home/sarah/watchtower/odd/2013/2013441/TOG2013441.txt
/home/sarah/watchtower/odd/2013/2013483/TOG2013483.txt
/home/sarah/watchtower/odd/2013/2013362/TOG2013362.txt
/home/sarah/watchtower/odd/2013/2013324/TOG2013324.txt
/home/sarah/watchtower/odd/2013/2013685/TOG2013685.txt
/home/sarah/watchtower/odd/2013/2013087/TOG2013087.txt
/home/sarah/watchtower/odd/2013/2013286/TOG2013286.txt
/home/sarah/watchtower/odd/2013/2013484/TOG2013484.txt
/home/sarah/watchtower/odd/2015/2015843/TOG2015843.txt
/home/sarah/watchtower/odd/2015/2015686/TOG2015686.txt
/home/sarah/watchtower/odd/2015/2015041/TOG2015041.txt
/home/sarah/watchtower/odd/2015/2015771/TOG2015771.txt
/home/sarah/watchtower/odd/2015/2015123/TOG2015123.txt
/home/sarah/watchtower/odd/2015/2015642/TOG2015642.txt
/home/sarah/watchtower/odd/2015/2015527/TOG2015527.txt
/home/sarah/watchtower/odd/2015/2015441/TOG2015441.txt
/home/sarah/watchtower/odd/2015/2015444/TOG2015444.txt
/home/sarah/watchtower/odd/2015/2015203/TOG2015203.txt
/home/sarah/watchtower/odd/2015/2015363/TOG2015363.txt
/home/sarah/watchtower/odd/2015/2015847/TOG2015847.txt
/home/sarah/watchtower/odd/2015/2015166/TOG2015166.txt
/home/sarah/watchtower/odd/2015/2015485/TOG2015485.txt
/home/sarah/watchtower/odd/2015/2015606/TOG2015606.txt
/home/sarah/watchtower/odd/2015/2015082/TOG2015082.txt
/home/sarah/watchtower/odd/2015/2015648/TOG2015648.txt
/home/sarah/watchtower/odd/2015/2015244/TOG2015244.txt
/home/sarah/watchtower/odd/2015/2015368/TOG2015368.txt
/home/sarah/watchtower/odd/2015/2015926/TOG2015926.txt
/home/sarah/watchtower/odd/2015/2015925/TOG2015925.txt
/home/sarah/watchtower/odd/2015/2015528/TOG2015528.txt
/home/sarah/watchtower/odd/2015/2015128/TOG2015128.txt
/home/sarah/watchtower/odd/2015/2015644/TOG2015644.txt
/home/sarah/watchtower/odd/2015/2015480/TOG2015480.txt
/home/sarah/watchtower/odd/2015/2015320/TOG2015320.txt
/home/sarah/watchtower/odd/2015/2015685/TOG2015685.txt
/home/sarah/watchtower/odd/2015/2015207/TOG2015207.txt
/home/sarah/watchtower/odd/2015/2015521/TOG2015521.txt
/home/sarah/watchtower/odd/2015/2015645/TOG2015645.txt
/home/sarah/watchtower/odd/2015/2015765/TOG2015765.txt
/home/sarah/watchtower/odd/2015/2015005/TOG2015005.txt
/home/sarah/watchtower/odd/2015/2015682/TOG2015682.txt
/home/sarah/watchtower/odd/2015/2015322/TOG2015322.txt
/home/sarah/watchtower/odd/2015/2015442/TOG2015442.txt
/home/sarah/watchtower/odd/2015/2015404/TOG2015404.txt
/home/sarah/watchtower/odd/2015/2015484/TOG2015484.txt
/home/sarah/watchtower/odd/2015/2015526/TOG2015526.txt
/home/sarah/watchtower/odd/2015/2015605/TOG2015605.txt
/home/sarah/watchtower/odd/2015/2015683/TOG2015683.txt
/home/sarah/watchtower/odd/2015/2015282/TOG2015282.txt
/home/sarah/watchtower/odd/2015/2015684/TOG2015684.txt
/home/sarah/watchtower/odd/2015/2015083/TOG2015083.txt
/home/sarah/watchtower/odd/2015/2015240/TOG2015240.txt
/home/sarah/watchtower/odd/2015/2015362/TOG2015362.txt
/home/sarah/watchtower/odd/2015/2015730/TOG2015730.txt
/home/sarah/watchtower/odd/2015/2015122/TOG2015122.txt
/home/sarah/watchtower/odd/2015/2015446/TOG2015446.txt
/home/sarah/watchtower/odd/2015/2015045/TOG2015045.txt
/home/sarah/watchtower/odd/2015/2015647/TOG2015647.txt
/home/sarah/watchtower/odd/2015/2015646/TOG2015646.txt
/home/sarah/watchtower/odd/2015/2015243/TOG2015243.txt
/home/sarah/watchtower/odd/2015/2015283/TOG2015283.txt
/home/sarah/watchtower/odd/2015/2015523/TOG2015523.txt
/home/sarah/watchtower/odd/2015/2015042/TOG2015042.txt
/home/sarah/watchtower/odd/2015/2015522/TOG2015522.txt
/home/sarah/watchtower/odd/2015/2015604/TOG2015604.txt
/home/sarah/watchtower/odd/2015/2015761/TOG2015761.txt
/home/sarah/watchtower/odd/2015/2015845/TOG2015845.txt
/home/sarah/watchtower/odd/2015/2015768/TOG2015768.txt
/home/sarah/watchtower/odd/2015/2015407/TOG2015407.txt
/home/sarah/watchtower/odd/2015/2015084/TOG2015084.txt
/home/sarah/watchtower/odd/2015/2015323/TOG2015323.txt
/home/sarah/watchtower/odd/2015/2015841/TOG2015841.txt
/home/sarah/watchtower/odd/2015/2015681/TOG2015681.txt
/home/sarah/watchtower/odd/2015/2015125/TOG2015125.txt
/home/sarah/watchtower/odd/2015/2015208/TOG2015208.txt
/home/sarah/watchtower/odd/2015/2015566/TOG2015566.txt
/home/sarah/watchtower/odd/2015/2015447/TOG2015447.txt
/home/sarah/watchtower/odd/2015/2015601/TOG2015601.txt
/home/sarah/watchtower/odd/2015/2015286/TOG2015286.txt
/home/sarah/watchtower/odd/2015/2015287/TOG2015287.txt
/home/sarah/watchtower/odd/2015/2015007/TOG2015007.txt
/home/sarah/watchtower/odd/2015/2015043/TOG2015043.txt
/home/sarah/watchtower/odd/2015/2015242/TOG2015242.txt
/home/sarah/watchtower/odd/2015/2015482/TOG2015482.txt
/home/sarah/watchtower/odd/2015/2015047/TOG2015047.txt
/home/sarah/watchtower/odd/2015/2015603/TOG2015603.txt
/home/sarah/watchtower/odd/2015/2015201/TOG2015201.txt
/home/sarah/watchtower/odd/2015/2015281/TOG2015281.txt
/home/sarah/watchtower/odd/2015/2015767/TOG2015767.txt
/home/sarah/watchtower/odd/2015/2015206/TOG2015206.txt
/home/sarah/watchtower/odd/2015/2015327/TOG2015327.txt
/home/sarah/watchtower/odd/2015/2015762/TOG2015762.txt
/home/sarah/watchtower/odd/2015/2015366/TOG2015366.txt
/home/sarah/watchtower/odd/2015/2015202/TOG2015202.txt
/home/sarah/watchtower/odd/2015/2015525/TOG2015525.txt
/home/sarah/watchtower/odd/2015/2015247/TOG2015247.txt
/home/sarah/watchtower/odd/2015/2015924/TOG2015924.txt
/home/sarah/watchtower/odd/2015/2015445/TOG2015445.txt
/home/sarah/watchtower/odd/2015/2015766/TOG2015766.txt
/home/sarah/watchtower/odd/2015/2015285/TOG2015285.txt
/home/sarah/watchtower/odd/2015/2015846/TOG2015846.txt
/home/sarah/watchtower/odd/2015/2015921/TOG2015921.txt
/home/sarah/watchtower/odd/2015/2015602/TOG2015602.txt
/home/sarah/watchtower/odd/2015/2015204/TOG2015204.txt
/home/sarah/watchtower/odd/2015/2015848/TOG2015848.txt
/home/sarah/watchtower/odd/2015/2015842/TOG2015842.txt
/home/sarah/watchtower/odd/2015/2015923/TOG2015923.txt
/home/sarah/watchtower/odd/2015/2015483/TOG2015483.txt
/home/sarah/watchtower/odd/2015/2015763/TOG2015763.txt
/home/sarah/watchtower/odd/2015/2015734/TOG2015734.txt
/home/sarah/watchtower/odd/2015/2015126/TOG2015126.txt
/home/sarah/watchtower/odd/2015/2015649/TOG2015649.txt
/home/sarah/watchtower/odd/2015/2015288/TOG2015288.txt
/home/sarah/watchtower/odd/2015/2015046/TOG2015046.txt
/home/sarah/watchtower/odd/2015/2015324/TOG2015324.txt
/home/sarah/watchtower/odd/2015/2015361/TOG2015361.txt
/home/sarah/watchtower/odd/2015/2015124/TOG2015124.txt
/home/sarah/watchtower/odd/2015/2015448/TOG2015448.txt
/home/sarah/watchtower/odd/2015/2015367/TOG2015367.txt
/home/sarah/watchtower/odd/2015/2015080/TOG2015080.txt
/home/sarah/watchtower/odd/2015/2015850/TOG2015850.txt
/home/sarah/watchtower/odd/2015/2015922/TOG2015922.txt
/home/sarah/watchtower/odd/2015/2015127/TOG2015127.txt
/home/sarah/watchtower/odd/2015/2015486/TOG2015486.txt
/home/sarah/watchtower/odd/2015/2015607/TOG2015607.txt
/home/sarah/watchtower/even/2014/2014009/TOG2014009.txt
/home/sarah/watchtower/even/2014/2014208/TOG2014208.txt
/home/sarah/watchtower/even/2014/2014322/TOG2014322.txt
/home/sarah/watchtower/even/2014/2014047/TOG2014047.txt
/home/sarah/watchtower/even/2014/2014128/TOG2014128.txt
/home/sarah/watchtower/even/2014/2014603/TOG2014603.txt
/home/sarah/watchtower/even/2014/2014443/TOG2014443.txt
/home/sarah/watchtower/even/2014/2014929/TOG2014929.txt
/home/sarah/watchtower/even/2014/2014885/TOG2014885.txt
/home/sarah/watchtower/even/2014/2014367/TOG2014367.txt
/home/sarah/watchtower/even/2014/2014842/TOG2014842.txt
/home/sarah/watchtower/even/2014/2014285/TOG2014285.txt
/home/sarah/watchtower/even/2014/2014808/TOG2014808.txt
/home/sarah/watchtower/even/2014/2014363/TOG2014363.txt
/home/sarah/watchtower/even/2014/2014245/TOG2014245.txt
/home/sarah/watchtower/even/2014/2014767/TOG2014767.txt
/home/sarah/watchtower/even/2014/2014883/TOG2014883.txt
/home/sarah/watchtower/even/2014/2014642/TOG2014642.txt
/home/sarah/watchtower/even/2014/2014882/TOG2014882.txt
/home/sarah/watchtower/even/2014/2014684/TOG2014684.txt
/home/sarah/watchtower/even/2014/2014728/TOG2014728.txt
/home/sarah/watchtower/even/2014/2014682/TOG2014682.txt
/home/sarah/watchtower/even/2014/2014365/TOG2014365.txt
/home/sarah/watchtower/even/2014/2014685/TOG2014685.txt
/home/sarah/watchtower/even/2014/2014922/TOG2014922.txt
/home/sarah/watchtower/even/2014/2014405/TOG2014405.txt
/home/sarah/watchtower/even/2014/2014925/TOG2014925.txt
/home/sarah/watchtower/even/2014/2014607/TOG2014607.txt
/home/sarah/watchtower/even/2014/2014523/TOG2014523.txt
/home/sarah/watchtower/even/2014/2014848/TOG2014848.txt
/home/sarah/watchtower/even/2014/2014288/TOG2014288.txt
/home/sarah/watchtower/even/2014/2014446/TOG2014446.txt
/home/sarah/watchtower/even/2014/2014004/TOG2014004.txt
/home/sarah/watchtower/even/2014/2014043/TOG2014043.txt
/home/sarah/watchtower/even/2014/2014766/TOG2014766.txt
/home/sarah/watchtower/even/2014/2014927/TOG2014927.txt
/home/sarah/watchtower/even/2014/2014002/TOG2014002.txt
/home/sarah/watchtower/even/2014/2014323/TOG2014323.txt
/home/sarah/watchtower/even/2014/2014846/TOG2014846.txt
/home/sarah/watchtower/even/2014/2014686/TOG2014686.txt
/home/sarah/watchtower/even/2014/2014442/TOG2014442.txt
/home/sarah/watchtower/even/2014/2014605/TOG2014605.txt
/home/sarah/watchtower/even/2014/2014928/TOG2014928.txt
/home/sarah/watchtower/even/2014/2014847/TOG2014847.txt
/home/sarah/watchtower/even/2014/2014843/TOG2014843.txt
/home/sarah/watchtower/even/2014/2014082/TOG2014082.txt
/home/sarah/watchtower/even/2014/2014362/TOG2014362.txt
/home/sarah/watchtower/even/2014/2014527/TOG2014527.txt
/home/sarah/watchtower/even/2014/2014283/TOG2014283.txt
/home/sarah/watchtower/even/2014/2014206/TOG2014206.txt
/home/sarah/watchtower/even/2014/2014483/TOG2014483.txt
/home/sarah/watchtower/even/2014/2014085/TOG2014085.txt
/home/sarah/watchtower/even/2014/2014762/TOG2014762.txt
/home/sarah/watchtower/even/2014/2014202/TOG2014202.txt
/home/sarah/watchtower/even/2014/2014046/TOG2014046.txt
/home/sarah/watchtower/even/2014/2014163/TOG2014163.txt
/home/sarah/watchtower/even/2014/2014044/TOG2014044.txt
/home/sarah/watchtower/even/2014/2014488/TOG2014488.txt
/home/sarah/watchtower/even/2014/2014122/TOG2014122.txt
/home/sarah/watchtower/even/2014/2014407/TOG2014407.txt
/home/sarah/watchtower/even/2014/2014162/TOG2014162.txt
/home/sarah/watchtower/even/2014/2014368/TOG2014368.txt
/home/sarah/watchtower/even/2014/2014763/TOG2014763.txt
/home/sarah/watchtower/even/2014/2014083/TOG2014083.txt
/home/sarah/watchtower/even/2014/2014727/TOG2014727.txt
/home/sarah/watchtower/even/2014/2014884/TOG2014884.txt
/home/sarah/watchtower/even/2014/2014123/TOG2014123.txt
/home/sarah/watchtower/even/2014/2014487/TOG2014487.txt
/home/sarah/watchtower/even/2014/2014683/TOG2014683.txt
/home/sarah/watchtower/even/2014/2014125/TOG2014125.txt
/home/sarah/watchtower/even/2014/2014845/TOG2014845.txt
/home/sarah/watchtower/even/2014/2014526/TOG2014526.txt
/home/sarah/watchtower/even/2014/2014287/TOG2014287.txt
/home/sarah/watchtower/even/2014/2014525/TOG2014525.txt
/home/sarah/watchtower/even/2014/2014045/TOG2014045.txt
/home/sarah/watchtower/even/2014/2014522/TOG2014522.txt
/home/sarah/watchtower/even/2014/2014087/TOG2014087.txt
/home/sarah/watchtower/even/2014/2014764/TOG2014764.txt
/home/sarah/watchtower/even/2014/2014726/TOG2014726.txt
/home/sarah/watchtower/even/2014/2014606/TOG2014606.txt
/home/sarah/watchtower/even/2014/2014886/TOG2014886.txt
/home/sarah/watchtower/even/2014/2014444/TOG2014444.txt
/home/sarah/watchtower/even/2014/2014569/TOG2014569.txt
/home/sarah/watchtower/even/2014/2014524/TOG2014524.txt
/home/sarah/watchtower/even/2014/2014890/TOG2014890.txt
/home/sarah/watchtower/even/2014/2014325/TOG2014325.txt
/home/sarah/watchtower/even/2014/2014086/TOG2014086.txt
/home/sarah/watchtower/even/2014/2014482/TOG2014482.txt
/home/sarah/watchtower/even/2014/2014643/TOG2014643.txt
/home/sarah/watchtower/even/2014/2014448/TOG2014448.txt
/home/sarah/watchtower/even/2014/2014282/TOG2014282.txt
/home/sarah/watchtower/even/2014/2014404/TOG2014404.txt
/home/sarah/watchtower/even/2014/2014164/TOG2014164.txt
/home/sarah/watchtower/even/2014/2014364/TOG2014364.txt
/home/sarah/watchtower/even/2014/2014204/TOG2014204.txt
/home/sarah/watchtower/even/2014/2014165/TOG2014165.txt
/home/sarah/watchtower/even/2014/2014844/TOG2014844.txt
/home/sarah/watchtower/even/2014/2014926/TOG2014926.txt
/home/sarah/watchtower/even/2014/2014126/TOG2014126.txt
/home/sarah/watchtower/even/2014/2014124/TOG2014124.txt
/home/sarah/watchtower/even/2014/2014924/TOG2014924.txt
/home/sarah/watchtower/even/2014/2014805/TOG2014805.txt
/home/sarah/watchtower/even/2014/2014130/TOG2014130.txt
/home/sarah/watchtower/even/2014/2014449/TOG2014449.txt
/home/sarah/watchtower/even/2014/2014284/TOG2014284.txt
/home/sarah/watchtower/even/2014/2014084/TOG2014084.txt
/home/sarah/watchtower/even/2014/2014207/TOG2014207.txt
/home/sarah/watchtower/even/2014/2014765/TOG2014765.txt
/home/sarah/watchtower/even/2014/2014247/TOG2014247.txt
/home/sarah/watchtower/even/2014/2014127/TOG2014127.txt
/home/sarah/watchtower/even/2014/2014203/TOG2014203.txt
/home/sarah/watchtower/even/2014/2014687/TOG2014687.txt
/home/sarah/watchtower/even/2014/2014602/TOG2014602.txt
/home/sarah/watchtower/even/2014/2014286/TOG2014286.txt
/home/sarah/watchtower/even/2014/2014887/TOG2014887.txt
/home/sarah/watchtower/even/2014/2014366/TOG2014366.txt
/home/sarah/watchtower/even/2014/2014570/TOG2014570.txt
/home/sarah/watchtower/even/2014/2014445/TOG2014445.txt
/home/sarah/watchtower/even/2014/2014689/TOG2014689.txt
/home/sarah/watchtower/even/2014/2014205/TOG2014205.txt
/home/sarah/watchtower/even/2014/2014608/TOG2014608.txt
/home/sarah/watchtower/even/2014/2014447/TOG2014447.txt
/home/sarah/watchtower/even/2014/2014249/TOG2014249.txt
/home/sarah/watchtower/even/2014/2014923/TOG2014923.txt
/home/sarah/watchtower/even/2014/2014567/TOG2014567.txt
/home/sarah/watchtower/even/2014/2014931/TOG2014931.txt
/home/sarah/watchtower/even/2014/2014604/TOG2014604.txt
/home/sarah/watchtower/even/2016/2016005/TOG2016005.txt
/home/sarah/watchtower/even/2016/2016087/TOG2016087.txt
/home/sarah/watchtower/even/2016/2016128/TOG2016128.txt
/home/sarah/watchtower/even/2016/2016006/TOG2016006.txt
/home/sarah/watchtower/even/2016/2016004/TOG2016004.txt
/home/sarah/watchtower/even/2016/2016122/TOG2016122.txt
/home/sarah/watchtower/even/2016/2016442/TOG2016442.txt
/home/sarah/watchtower/even/2016/2016127/TOG2016127.txt
/home/sarah/watchtower/even/2016/2016208/TOG2016208.txt
/home/sarah/watchtower/even/2016/2016522/TOG2016522.txt
/home/sarah/watchtower/even/2016/2016253/TOG2016253.txt
/home/sarah/watchtower/even/2016/2016205/TOG2016205.txt
/home/sarah/watchtower/even/2016/2016526/TOG2016526.txt
/home/sarah/watchtower/even/2016/2016362/TOG2016362.txt
/home/sarah/watchtower/even/2016/2016248/TOG2016248.txt
/home/sarah/watchtower/even/2016/2016448/TOG2016448.txt
/home/sarah/watchtower/even/2016/2016252/TOG2016252.txt
/home/sarah/watchtower/even/2016/2016201/TOG2016201.txt
/home/sarah/watchtower/even/2016/2016124/TOG2016124.txt
/home/sarah/watchtower/even/2016/2016086/TOG2016086.txt
/home/sarah/watchtower/even/2016/2016368/TOG2016368.txt
/home/sarah/watchtower/even/2016/2016528/TOG2016528.txt
/home/sarah/watchtower/even/2016/2016041/TOG2016041.txt
/home/sarah/watchtower/even/2016/2016163/TOG2016163.txt
/home/sarah/watchtower/even/2016/2016285/TOG2016285.txt
/home/sarah/watchtower/even/2016/2016126/TOG2016126.txt
/home/sarah/watchtower/even/2016/2016250/TOG2016250.txt
/home/sarah/watchtower/even/2016/2016045/TOG2016045.txt
/home/sarah/watchtower/even/2016/2016281/TOG2016281.txt
/home/sarah/watchtower/even/2016/2016361/TOG2016361.txt
/home/sarah/watchtower/even/2016/2016046/TOG2016046.txt
/home/sarah/watchtower/even/2016/2016246/TOG2016246.txt
/home/sarah/watchtower/even/2016/2016256/TOG2016256.txt
/home/sarah/watchtower/even/2016/2016009/TOG2016009.txt
/home/sarah/watchtower/even/2016/2016047/TOG2016047.txt
/home/sarah/watchtower/even/2016/2016443/TOG2016443.txt
/home/sarah/watchtower/even/2016/2016287/TOG2016287.txt
/home/sarah/watchtower/even/2016/2016088/TOG2016088.txt
/home/sarah/watchtower/even/2016/2016008/TOG2016008.txt
/home/sarah/watchtower/even/2016/2016283/TOG2016283.txt
/home/sarah/watchtower/even/2016/2016366/TOG2016366.txt
/home/sarah/watchtower/even/2016/2016441/TOG2016441.txt
/home/sarah/watchtower/even/2016/2016207/TOG2016207.txt
/home/sarah/watchtower/even/2016/2016165/TOG2016165.txt
/home/sarah/watchtower/even/2016/2016166/TOG2016166.txt
/home/sarah/watchtower/even/2016/2016002/TOG2016002.txt
/home/sarah/watchtower/even/2016/2016090/TOG2016090.txt
/home/sarah/watchtower/even/2016/2016167/TOG2016167.txt
/home/sarah/watchtower/even/2016/2016527/TOG2016527.txt
/home/sarah/watchtower/even/2016/2016367/TOG2016367.txt
/home/sarah/watchtower/even/2016/2016247/TOG2016247.txt
/home/sarah/watchtower/even/2016/2016364/TOG2016364.txt
/home/sarah/watchtower/even/2016/2016282/TOG2016282.txt
/home/sarah/watchtower/even/2016/2016084/TOG2016084.txt
/home/sarah/watchtower/even/2016/2016202/TOG2016202.txt
/home/sarah/watchtower/even/2016/2016206/TOG2016206.txt
/home/sarah/watchtower/even/2016/2016447/TOG2016447.txt
/home/sarah/watchtower/even/2016/2016523/TOG2016523.txt
/home/sarah/watchtower/even/2016/2016007/TOG2016007.txt
/home/sarah/watchtower/even/2016/2016521/TOG2016521.txt
/home/sarah/watchtower/even/2016/2016245/TOG2016245.txt
/home/sarah/watchtower/even/2016/2016085/TOG2016085.txt
/home/sarah/watchtower/even/2016/2016164/TOG2016164.txt
/home/sarah/watchtower/even/2016/2016003/TOG2016003.txt
/home/sarah/watchtower/even/2016/2016091/TOG2016091.txt
/home/sarah/watchtower/even/2016/2016244/TOG2016244.txt
/home/sarah/watchtower/even/2016/2016288/TOG2016288.txt
/home/sarah/watchtower/even/2016/2016121/TOG2016121.txt
/home/sarah/watchtower/even/2016/2016043/TOG2016043.txt
/home/sarah/watchtower/even/2016/2016042/TOG2016042.txt
/home/sarah/watchtower/even/2016/2016445/TOG2016445.txt
/home/sarah/watchtower/even/2016/2016123/TOG2016123.txt
